-0.43053 0.194537 -0.064066 -0.115122 0.976161 0.184003 3.069419
-0.43071 0.194266 -0.063828 -0.115552 0.975994 0.184617 3.069448
-0.43053 0.194537 -0.064066 -0.115122 0.976161 0.184003 3.069419
-0.430478 0.194226 -0.064235 -0.115471 0.976103 0.184091 3.068365
-0.430764 0.19396 -0.064261 -0.115739 0.976169 0.18357 3.069715
-0.4306 0.193137 -0.064952 -0.117832 0.975739 0.184522 3.066314
-0.43071 0.194266 -0.063828 -0.115552 0.975994 0.184617 3.069448
-0.430091 0.194187 -0.065203 -0.116381 0.975955 0.1843 3.064693
-0.430441 0.194056 -0.064409 -0.116052 0.97598 0.184379 3.067582
-0.430441 0.194056 -0.064409 -0.116052 0.97598 0.184379 3.067582
-0.430091 0.194187 -0.065203 -0.116381 0.975955 0.1843 3.064693
-0.43071 0.194266 -0.063828 -0.115552 0.975994 0.184617 3.069448
-0.43071 0.194266 -0.063828 -0.115552 0.975994 0.184617 3.069448
-0.430599 0.193755 -0.064351 -0.117295 0.975622 0.185481 3.0671
-0.43053 0.194537 -0.064066 -0.115122 0.976161 0.184003 3.069419
-0.430367 0.193715 -0.064757 -0.117215 0.975732 0.184954 3.066018
-0.430441 0.194056 -0.064409 -0.116052 0.97598 0.184379 3.067582
-0.430493 0.194367 -0.06424 -0.115704 0.976038 0.184291 3.068636
-0.43053 0.194537 -0.064066 -0.115122 0.976161 0.184003 3.069419
-0.430419 0.194026 -0.064588 -0.116866 0.97579 0.184867 3.067071
-0.430614 0.194467 -0.064038 -0.115147 0.97605 0.184576 3.068152
-0.430599 0.193755 -0.064351 -0.117295 0.975622 0.185481 3.0671
-0.430493 0.194367 -0.06424 -0.115704 0.976038 0.184291 3.068636
-0.43071 0.194266 -0.063828 -0.115552 0.975994 0.184617 3.069448
-0.43071 0.194266 -0.063828 -0.115552 0.975994 0.184617 3.069448
-0.430367 0.193715 -0.064757 -0.117215 0.975732 0.184954 3.066018
-0.43071 0.194266 -0.063828 -0.115552 0.975994 0.184617 3.069448
-0.430441 0.194056 -0.064409 -0.116052 0.97598 0.184379 3.067582
-0.43053 0.194537 -0.064066 -0.115122 0.976161 0.184003 3.069419
-0.43053 0.194537 -0.064066 -0.115122 0.976161 0.184003 3.069419
-0.430478 0.194226 -0.064235 -0.115471 0.976103 0.184091 3.068365
-0.430324 0.194228 -0.064797 -0.116461 0.975846 0.184828 3.065775
-0.43053 0.194537 -0.064066 -0.115122 0.976161 0.184003 3.069419
-0.430419 0.194026 -0.064588 -0.116866 0.97579 0.184867 3.067071
-0.43053 0.194537 -0.064066 -0.115122 0.976161 0.184003 3.069419
-0.430493 0.194367 -0.06424 -0.115704 0.976038 0.184291 3.068636
-0.430478 0.194226 -0.064235 -0.115471 0.976103 0.184091 3.068365
-0.430419 0.194026 -0.064588 -0.116866 0.97579 0.184867 3.067071
-0.430434 0.194739 -0.064276 -0.114718 0.976216 0.183962 3.068122
-0.430261 0.194326 -0.064646 -0.115623 0.976146 0.183765 3.067553
-0.43053 0.194537 -0.064066 -0.115122 0.976161 0.184003 3.069419
-0.430478 0.194226 -0.064235 -0.115471 0.976103 0.184091 3.068365
-0.430673 0.194095 -0.064002 -0.116133 0.97587 0.184905 3.068666
-0.430441 0.194056 -0.064409 -0.116052 0.97598 0.184379 3.067582
-0.43071 0.194266 -0.063828 -0.115552 0.975994 0.184617 3.069448
-0.43053 0.194537 -0.064066 -0.115122 0.976161 0.184003 3.069419
-0.43053 0.194537 -0.064066 -0.115122 0.976161 0.184003 3.069419
-0.430419 0.194026 -0.064588 -0.116866 0.97579 0.184867 3.067071
-0.430187 0.193985 -0.064994 -0.116786 0.975899 0.18434 3.06599
-0.430478 0.194226 -0.064235 -0.115471 0.976103 0.184091 3.068365
-0.430441 0.194056 -0.064409 -0.116052 0.97598 0.184379 3.067582
-0.430367 0.193715 -0.064757 -0.117215 0.975732 0.184954 3.066018
-0.430367 0.193715 -0.064757 -0.117215 0.975732 0.184954 3.066018
-0.43071 0.194266 -0.063828 -0.115552 0.975994 0.184617 3.069448
-0.430419 0.194026 -0.064588 -0.116866 0.97579 0.184867 3.067071
-0.430298 0.194497 -0.064473 -0.115041 0.976269 0.183477 3.068335
-0.430261 0.194326 -0.064646 -0.115623 0.976146 0.183765 3.067553
-0.430441 0.194056 -0.064409 -0.116052 0.97598 0.184379 3.067582
-0.430493 0.194367 -0.06424 -0.115704 0.976038 0.184291 3.068636
-0.430478 0.194226 -0.064235 -0.115471 0.976103 0.184091 3.068365
-0.430202 0.194698 -0.064682 -0.114637 0.976325 0.183436 3.067038
-0.430493 0.194367 -0.06424 -0.115704 0.976038 0.184291 3.068636
-0.430599 0.193755 -0.064351 -0.117295 0.975622 0.185481 3.0671
-0.43071 0.194266 -0.063828 -0.115552 0.975994 0.184617 3.069448
-0.430599 0.193755 -0.064351 -0.117295 0.975622 0.185481 3.0671
-0.430599 0.193755 -0.064351 -0.117295 0.975622 0.185481 3.0671
-0.430673 0.194095 -0.064002 -0.116133 0.97587 0.184905 3.068666
-0.43053 0.194537 -0.064066 -0.115122 0.976161 0.184003 3.069419
-0.43071 0.194266 -0.063828 -0.115552 0.975994 0.184617 3.069448
-0.430599 0.193755 -0.064351 -0.117295 0.975622 0.185481 3.0671
-0.430599 0.193755 -0.064351 -0.117295 0.975622 0.185481 3.0671
-0.430441 0.194056 -0.064409 -0.116052 0.97598 0.184379 3.067582
-0.43071 0.194266 -0.063828 -0.115552 0.975994 0.184617 3.069448
-0.43071 0.194266 -0.063828 -0.115552 0.975994 0.184617 3.069448
-0.430478 0.194226 -0.064235 -0.115471 0.976103 0.184091 3.068365
-0.43071 0.194266 -0.063828 -0.115552 0.975994 0.184617 3.069448
-0.430478 0.194226 -0.064235 -0.115471 0.976103 0.184091 3.068365
-0.43071 0.194266 -0.063828 -0.115552 0.975994 0.184617 3.069448
-0.43071 0.194266 -0.063828 -0.115552 0.975994 0.184617 3.069448
-0.430367 0.193715 -0.064757 -0.117215 0.975732 0.184954 3.066018
-0.430441 0.194056 -0.064409 -0.116052 0.97598 0.184379 3.067582
-0.430367 0.193715 -0.064757 -0.117215 0.975732 0.184954 3.066018
-0.430493 0.194367 -0.06424 -0.115704 0.976038 0.184291 3.068636
-0.430367 0.193715 -0.064757 -0.117215 0.975732 0.184954 3.066018
-0.430187 0.193985 -0.064994 -0.116786 0.975899 0.18434 3.06599
-0.430367 0.193715 -0.064757 -0.117215 0.975732 0.184954 3.066018
-0.430478 0.194226 -0.064235 -0.115471 0.976103 0.184091 3.068365
-0.43053 0.194537 -0.064066 -0.115122 0.976161 0.184003 3.069419
-0.430599 0.193755 -0.064351 -0.117295 0.975622 0.185481 3.0671
-0.43053 0.194537 -0.064066 -0.115122 0.976161 0.184003 3.069419
-0.43071 0.194266 -0.063828 -0.115552 0.975994 0.184617 3.069448
-0.430419 0.194026 -0.064588 -0.116866 0.97579 0.184867 3.067071
-0.430298 0.194497 -0.064473 -0.115041 0.976269 0.183477 3.068335
-0.430419 0.194026 -0.064588 -0.116866 0.97579 0.184867 3.067071
-0.43053 0.194537 -0.064066 -0.115122 0.976161 0.184003 3.069419
-0.43053 0.194537 -0.064066 -0.115122 0.976161 0.184003 3.069419
-0.430187 0.193985 -0.064994 -0.116786 0.975899 0.18434 3.06599
-0.430261 0.194326 -0.064646 -0.115623 0.976146 0.183765 3.067553
-0.430441 0.194056 -0.064409 -0.116052 0.97598 0.184379 3.067582
-0.430398 0.194568 -0.064449 -0.115299 0.976093 0.18425 3.06734
-0.430599 0.193755 -0.064351 -0.117295 0.975622 0.185481 3.0671
-0.430102 0.194698 -0.065342 -0.114781 0.976323 0.183353 3.06554
-0.430298 0.194497 -0.064473 -0.115041 0.976269 0.183477 3.068335
-0.430261 0.194326 -0.064646 -0.115623 0.976146 0.183765 3.067553
-0.430346 0.194257 -0.064618 -0.115647 0.976035 0.184338 3.066286
-0.43053 0.194537 -0.064066 -0.115122 0.976161 0.184003 3.069419
-0.43071 0.194266 -0.063828 -0.115552 0.975994 0.184617 3.069448
-0.430261 0.194326 -0.064646 -0.115623 0.976146 0.183765 3.067553
-0.43071 0.194266 -0.063828 -0.115552 0.975994 0.184617 3.069448
-0.430478 0.194226 -0.064235 -0.115471 0.976103 0.184091 3.068365
-0.430187 0.193985 -0.064994 -0.116786 0.975899 0.18434 3.06599
-0.430261 0.194326 -0.064646 -0.115623 0.976146 0.183765 3.067553
-0.430599 0.193755 -0.064351 -0.117295 0.975622 0.185481 3.0671
-0.430419 0.194026 -0.064588 -0.116866 0.97579 0.184867 3.067071
-0.430599 0.193755 -0.064351 -0.117295 0.975622 0.185481 3.0671
-0.430367 0.193715 -0.064757 -0.117215 0.975732 0.184954 3.066018
-0.43071 0.194266 -0.063828 -0.115552 0.975994 0.184617 3.069448
-0.430478 0.194226 -0.064235 -0.115471 0.976103 0.184091 3.068365
-0.430673 0.194095 -0.064002 -0.116133 0.97587 0.184905 3.068666
-0.430599 0.193755 -0.064351 -0.117295 0.975622 0.185481 3.0671
-0.430419 0.194026 -0.064588 -0.116866 0.97579 0.184867 3.067071
-0.430478 0.194226 -0.064235 -0.115471 0.976103 0.184091 3.068365
-0.430599 0.193755 -0.064351 -0.117295 0.975622 0.185481 3.0671
-0.430478 0.194226 -0.064235 -0.115471 0.976103 0.184091 3.068365
-0.430673 0.194095 -0.064002 -0.116133 0.97587 0.184905 3.068666
-0.43053 0.194537 -0.064066 -0.115122 0.976161 0.184003 3.069419
-0.430574 0.194095 -0.064663 -0.116278 0.975869 0.184821 3.067168
-0.430441 0.194056 -0.064409 -0.116052 0.97598 0.184379 3.067582
-0.43071 0.194266 -0.063828 -0.115552 0.975994 0.184617 3.069448
-0.43071 0.194266 -0.063828 -0.115552 0.975994 0.184617 3.069448
-0.430493 0.194367 -0.06424 -0.115704 0.976038 0.184291 3.068636
-0.430441 0.194056 -0.064409 -0.116052 0.97598 0.184379 3.067582
-0.430673 0.194095 -0.064002 -0.116133 0.97587 0.184905 3.068666
-0.430382 0.194428 -0.064444 -0.115066 0.976159 0.18405 3.067068
-0.43071 0.194266 -0.063828 -0.115552 0.975994 0.184617 3.069448
-0.430504 0.193958 -0.06456 -0.11689 0.975678 0.185442 3.065804
-0.430504 0.193958 -0.06456 -0.11689 0.975678 0.185442 3.065804
-0.430382 0.194428 -0.064444 -0.115066 0.976159 0.18405 3.067068
-0.430493 0.194367 -0.06424 -0.115704 0.976038 0.184291 3.068636
-0.430419 0.194026 -0.064588 -0.116866 0.97579 0.184867 3.067071
-0.43071 0.194266 -0.063828 -0.115552 0.975994 0.184617 3.069448
-0.430419 0.194026 -0.064588 -0.116866 0.97579 0.184867 3.067071
-0.430478 0.194226 -0.064235 -0.115471 0.976103 0.184091 3.068365
-0.430271 0.193917 -0.064966 -0.11681 0.975788 0.184915 3.064722
-0.43071 0.194266 -0.063828 -0.115552 0.975994 0.184617 3.069448
-0.430419 0.194026 -0.064588 -0.116866 0.97579 0.184867 3.067071
-0.430346 0.194257 -0.064618 -0.115647 0.976035 0.184338 3.066286
-0.430434 0.194739 -0.064276 -0.114718 0.976216 0.183962 3.068122
-0.430367 0.193715 -0.064757 -0.117215 0.975732 0.184954 3.066018
-0.430614 0.194467 -0.064038 -0.115147 0.97605 0.184576 3.068152
-0.43071 0.194266 -0.063828 -0.115552 0.975994 0.184617 3.069448
-0.430404 0.193958 -0.06522 -0.117035 0.975677 0.185357 3.064307
-0.430346 0.194257 -0.064618 -0.115647 0.976035 0.184338 3.066286
-0.430171 0.193917 -0.065626 -0.116955 0.975786 0.184831 3.063224
-0.430246 0.194257 -0.065278 -0.115792 0.976034 0.184255 3.064788
-0.430171 0.193917 -0.065626 -0.116955 0.975786 0.184831 3.063224
-0.430246 0.194257 -0.065278 -0.115792 0.976034 0.184255 3.064788
-0.430504 0.193958 -0.06456 -0.11689 0.975678 0.185442 3.065804
-0.430599 0.193755 -0.064351 -0.117295 0.975622 0.185481 3.0671
-0.430504 0.193958 -0.06456 -0.11689 0.975678 0.185442 3.065804
-0.430614 0.194467 -0.064038 -0.115147 0.97605 0.184576 3.068152
-0.430091 0.194187 -0.065203 -0.116381 0.975955 0.1843 3.064693
-0.430382 0.194428 -0.064444 -0.115066 0.976159 0.18405 3.067068
-0.430673 0.194095 -0.064002 -0.116133 0.97587 0.184905 3.068666
-0.430441 0.194056 -0.064409 -0.116052 0.97598 0.184379 3.067582
-0.430611 0.194266 -0.064489 -0.115697 0.975993 0.184533 3.067951
-0.43071 0.194266 -0.063828 -0.115552 0.975994 0.184617 3.069448
-0.430379 0.194226 -0.064895 -0.115615 0.976102 0.184007 3.066867
-0.430283 0.194428 -0.065105 -0.115211 0.976157 0.183967 3.06557
-0.430611 0.194266 -0.064489 -0.115697 0.975993 0.184533 3.067951
-0.430379 0.194226 -0.064895 -0.115615 0.976102 0.184007 3.066867
-0.430283 0.194428 -0.065105 -0.115211 0.976157 0.183967 3.06557
-0.430712 0.19372 -0.065068 -0.11649 0.975933 0.184348 3.066168
-0.430283 0.194428 -0.065105 -0.115211 0.976157 0.183967 3.06557
-0.430574 0.194095 -0.064663 -0.116278 0.975869 0.184821 3.067168
-0.430574 0.194095 -0.064663 -0.116278 0.975869 0.184821 3.067168
-0.429996 0.193504 -0.065997 -0.117862 0.975715 0.184629 3.062657
-0.430283 0.194428 -0.065105 -0.115211 0.976157 0.183967 3.06557
-0.430246 0.194257 -0.065278 -0.115792 0.976034 0.184255 3.064788
-0.430574 0.194095 -0.064663 -0.116278 0.975869 0.184821 3.067168
-0.430611 0.194266 -0.064489 -0.115697 0.975993 0.184533 3.067951
-0.430283 0.194428 -0.065105 -0.115211 0.976157 0.183967 3.06557
-0.430611 0.194266 -0.064489 -0.115697 0.975993 0.184533 3.067951
-0.430267 0.193715 -0.065418 -0.11736 0.97573 0.184869 3.064521
-0.4305 0.193755 -0.065012 -0.117441 0.975621 0.185396 3.065603
-0.430379 0.194226 -0.064895 -0.115615 0.976102 0.184007 3.066867
-0.430246 0.194257 -0.065278 -0.115792 0.976034 0.184255 3.064788
-0.430574 0.194095 -0.064663 -0.116278 0.975869 0.184821 3.067168
-0.430342 0.194056 -0.065069 -0.116197 0.975978 0.184295 3.066085
-0.430246 0.194257 -0.065278 -0.115792 0.976034 0.184255 3.064788
-0.430271 0.193917 -0.064966 -0.11681 0.975788 0.184915 3.064722
-0.430246 0.194257 -0.065278 -0.115792 0.976034 0.184255 3.064788
-0.430267 0.193715 -0.065418 -0.11736 0.97573 0.184869 3.064521
-0.430342 0.194056 -0.065069 -0.116197 0.975978 0.184295 3.066085
-0.430283 0.194428 -0.065105 -0.115211 0.976157 0.183967 3.06557
-0.430342 0.194056 -0.065069 -0.116197 0.975978 0.184295 3.066085
-0.430382 0.194428 -0.064444 -0.115066 0.976159 0.18405 3.067068
-0.430673 0.194095 -0.064002 -0.116133 0.97587 0.184905 3.068666
-0.430382 0.194428 -0.064444 -0.115066 0.976159 0.18405 3.067068
-0.430271 0.193917 -0.064966 -0.11681 0.975788 0.184915 3.064722
-0.430478 0.194226 -0.064235 -0.115471 0.976103 0.184091 3.068365
-0.430367 0.193715 -0.064757 -0.117215 0.975732 0.184954 3.066018
-0.430673 0.194095 -0.064002 -0.116133 0.97587 0.184905 3.068666
-0.430346 0.194257 -0.064618 -0.115647 0.976035 0.184338 3.066286
-0.430171 0.193917 -0.065626 -0.116955 0.975786 0.184831 3.063224
-0.430271 0.193917 -0.064966 -0.11681 0.975788 0.184915 3.064722
-0.430171 0.193917 -0.065626 -0.116955 0.975786 0.184831 3.063224
-0.430516 0.194467 -0.064698 -0.115292 0.976048 0.184492 3.066655
-0.430404 0.193958 -0.06522 -0.117035 0.975677 0.185357 3.064307
-0.430611 0.194266 -0.064489 -0.115697 0.975993 0.184533 3.067951
-0.430246 0.194257 -0.065278 -0.115792 0.976034 0.184255 3.064788
-0.430246 0.194257 -0.065278 -0.115792 0.976034 0.184255 3.064788
-0.430441 0.194056 -0.064409 -0.116052 0.97598 0.184379 3.067582
-0.430611 0.194266 -0.064489 -0.115697 0.975993 0.184533 3.067951
-0.430171 0.193917 -0.065626 -0.116955 0.975786 0.184831 3.063224
-0.430065 0.194528 -0.065516 -0.115363 0.976201 0.183641 3.064759
-0.430611 0.194266 -0.064489 -0.115697 0.975993 0.184533 3.067951
-0.430342 0.194056 -0.065069 -0.116197 0.975978 0.184295 3.066085
-0.430342 0.194056 -0.065069 -0.116197 0.975978 0.184295 3.066085
-0.430574 0.194095 -0.064663 -0.116278 0.975869 0.184821 3.067168
-0.430283 0.194428 -0.065105 -0.115211 0.976157 0.183967 3.06557
-0.430574 0.194095 -0.064663 -0.116278 0.975869 0.184821 3.067168
-0.43071 0.194266 -0.063828 -0.115552 0.975994 0.184617 3.069448
-0.430441 0.194056 -0.064409 -0.116052 0.97598 0.184379 3.067582
-0.430611 0.194266 -0.064489 -0.115697 0.975993 0.184533 3.067951
-0.430516 0.194467 -0.064698 -0.115292 0.976048 0.184492 3.066655
-0.430379 0.194226 -0.064895 -0.115615 0.976102 0.184007 3.066867
-0.430614 0.194467 -0.064038 -0.115147 0.97605 0.184576 3.068152
-0.430516 0.194467 -0.064698 -0.115292 0.976048 0.184492 3.066655
-0.430382 0.194428 -0.064444 -0.115066 0.976159 0.18405 3.067068
-0.430479 0.194297 -0.064872 -0.115873 0.975925 0.184781 3.065872
-0.430283 0.194428 -0.065105 -0.115211 0.976157 0.183967 3.06557
-0.430065 0.194528 -0.065516 -0.115363 0.976201 0.183641 3.064759
-0.430342 0.194056 -0.065069 -0.116197 0.975978 0.184295 3.066085
-0.430065 0.194528 -0.065516 -0.115363 0.976201 0.183641 3.064759
-0.430065 0.194528 -0.065516 -0.115363 0.976201 0.183641 3.064759
-0.430162 0.194326 -0.065306 -0.115767 0.976145 0.183681 3.066056
-0.430342 0.194056 -0.065069 -0.116197 0.975978 0.184295 3.066085
-0.430171 0.193917 -0.065626 -0.116955 0.975786 0.184831 3.063224
-0.430246 0.194257 -0.065278 -0.115792 0.976034 0.184255 3.064788
-0.430171 0.193917 -0.065626 -0.116955 0.975786 0.184831 3.063224
-0.430065 0.194528 -0.065516 -0.115363 0.976201 0.183641 3.064759
-0.430246 0.194257 -0.065278 -0.115792 0.976034 0.184255 3.064788
-0.430267 0.193715 -0.065418 -0.11736 0.97573 0.184869 3.064521
-0.430162 0.194326 -0.065306 -0.115767 0.976145 0.183681 3.066056
-0.430283 0.194428 -0.065105 -0.115211 0.976157 0.183967 3.06557
-0.430342 0.194056 -0.065069 -0.116197 0.975978 0.184295 3.066085
-0.430479 0.194297 -0.064872 -0.115873 0.975925 0.184781 3.065872
-0.430171 0.193917 -0.065626 -0.116955 0.975786 0.184831 3.063224
-0.430246 0.194257 -0.065278 -0.115792 0.976034 0.184255 3.064788
-0.430611 0.194266 -0.064489 -0.115697 0.975993 0.184533 3.067951
-0.430162 0.194326 -0.065306 -0.115767 0.976145 0.183681 3.066056
-0.430065 0.194528 -0.065516 -0.115363 0.976201 0.183641 3.064759
-0.430246 0.194257 -0.065278 -0.115792 0.976034 0.184255 3.064788
-0.430246 0.194257 -0.065278 -0.115792 0.976034 0.184255 3.064788
-0.430479 0.194297 -0.064872 -0.115873 0.975925 0.184781 3.065872
-0.430065 0.194528 -0.065516 -0.115363 0.976201 0.183641 3.064759
-0.430246 0.194257 -0.065278 -0.115792 0.976034 0.184255 3.064788
-0.430298 0.194568 -0.06511 -0.115443 0.976092 0.184167 3.065842
-0.430267 0.193715 -0.065418 -0.11736 0.97573 0.184869 3.064521
-0.430267 0.193715 -0.065418 -0.11736 0.97573 0.184869 3.064521
-0.430574 0.194095 -0.064663 -0.116278 0.975869 0.184821 3.067168
-0.430479 0.194297 -0.064872 -0.115873 0.975925 0.184781 3.065872
-0.430171 0.193917 -0.065626 -0.116955 0.975786 0.184831 3.063224
-0.430246 0.194257 -0.065278 -0.115792 0.976034 0.184255 3.064788
-0.430246 0.194257 -0.065278 -0.115792 0.976034 0.184255 3.064788
-0.430342 0.194056 -0.065069 -0.116197 0.975978 0.184295 3.066085
-0.430267 0.193715 -0.065418 -0.11736 0.97573 0.184869 3.064521
-0.430342 0.194056 -0.065069 -0.116197 0.975978 0.184295 3.066085
-0.430342 0.194056 -0.065069 -0.116197 0.975978 0.184295 3.066085
-0.430379 0.194226 -0.064895 -0.115615 0.976102 0.184007 3.066867
-0.430479 0.194297 -0.064872 -0.115873 0.975925 0.184781 3.065872
-0.430171 0.193917 -0.065626 -0.116955 0.975786 0.184831 3.063224
-0.430479 0.194297 -0.064872 -0.115873 0.975925 0.184781 3.065872
-0.430342 0.194056 -0.065069 -0.116197 0.975978 0.184295 3.066085
-0.430283 0.194428 -0.065105 -0.115211 0.976157 0.183967 3.06557
-0.430246 0.194257 -0.065278 -0.115792 0.976034 0.184255 3.064788
-0.430267 0.193715 -0.065418 -0.11736 0.97573 0.184869 3.064521
-0.430171 0.193917 -0.065626 -0.116955 0.975786 0.184831 3.063224
-0.430283 0.194428 -0.065105 -0.115211 0.976157 0.183967 3.06557
-0.430246 0.194257 -0.065278 -0.115792 0.976034 0.184255 3.064788
-0.430246 0.194257 -0.065278 -0.115792 0.976034 0.184255 3.064788
-0.430133 0.193748 -0.0658 -0.117537 0.975662 0.185118 3.062443
-0.430479 0.194297 -0.064872 -0.115873 0.975925 0.184781 3.065872
-0.430479 0.194297 -0.064872 -0.115873 0.975925 0.184781 3.065872
-0.430171 0.193917 -0.065626 -0.116955 0.975786 0.184831 3.063224
-0.430283 0.194428 -0.065105 -0.115211 0.976157 0.183967 3.06557
-0.430611 0.194266 -0.064489 -0.115697 0.975993 0.184533 3.067951
-0.430516 0.194467 -0.064698 -0.115292 0.976048 0.184492 3.066655
-0.430611 0.194266 -0.064489 -0.115697 0.975993 0.184533 3.067951
-0.430171 0.193917 -0.065626 -0.116955 0.975786 0.184831 3.063224
-0.430611 0.194266 -0.064489 -0.115697 0.975993 0.184533 3.067951
-0.430283 0.194428 -0.065105 -0.115211 0.976157 0.183967 3.06557
-0.430342 0.194056 -0.065069 -0.116197 0.975978 0.184295 3.066085
-0.430065 0.194528 -0.065516 -0.115363 0.976201 0.183641 3.064759
-0.430065 0.194528 -0.065516 -0.115363 0.976201 0.183641 3.064759
-0.430246 0.194257 -0.065278 -0.115792 0.976034 0.184255 3.064788
-0.430171 0.193917 -0.065626 -0.116955 0.975786 0.184831 3.063224
-0.430516 0.194467 -0.064698 -0.115292 0.976048 0.184492 3.066655
-0.430342 0.194056 -0.065069 -0.116197 0.975978 0.184295 3.066085
-0.430246 0.194257 -0.065278 -0.115792 0.976034 0.184255 3.064788
-0.430479 0.194297 -0.064872 -0.115873 0.975925 0.184781 3.065872
-0.430246 0.194257 -0.065278 -0.115792 0.976034 0.184255 3.064788
-0.430171 0.193917 -0.065626 -0.116955 0.975786 0.184831 3.063224
-0.430246 0.194257 -0.065278 -0.115792 0.976034 0.184255 3.064788
-0.430246 0.194257 -0.065278 -0.115792 0.976034 0.184255 3.064788
-0.430246 0.194257 -0.065278 -0.115792 0.976034 0.184255 3.064788
-0.430283 0.194428 -0.065105 -0.115211 0.976157 0.183967 3.06557
-0.430516 0.194467 -0.064698 -0.115292 0.976048 0.184492 3.066655
-0.430013 0.194217 -0.065684 -0.115711 0.976143 0.183729 3.063704
-0.430065 0.194528 -0.065516 -0.115363 0.976201 0.183641 3.064759
-0.430246 0.194257 -0.065278 -0.115792 0.976034 0.184255 3.064788
-0.430404 0.193958 -0.06522 -0.117035 0.975677 0.185357 3.064307
-0.430637 0.19338 -0.065416 -0.117652 0.975685 0.184925 3.064604
-0.430246 0.194257 -0.065278 -0.115792 0.976034 0.184255 3.064788
-0.430246 0.194257 -0.065278 -0.115792 0.976034 0.184255 3.064788
-0.430171 0.193917 -0.065626 -0.116955 0.975786 0.184831 3.063224
-0.430342 0.194056 -0.065069 -0.116197 0.975978 0.184295 3.066085
-0.430246 0.194257 -0.065278 -0.115792 0.976034 0.184255 3.064788
-0.430283 0.194428 -0.065105 -0.115211 0.976157 0.183967 3.06557
-0.430479 0.194297 -0.064872 -0.115873 0.975925 0.184781 3.065872
-0.430171 0.193917 -0.065626 -0.116955 0.975786 0.184831 3.063224
-0.430342 0.194056 -0.065069 -0.116197 0.975978 0.184295 3.066085
-0.430246 0.194257 -0.065278 -0.115792 0.976034 0.184255 3.064788
-0.430342 0.194056 -0.065069 -0.116197 0.975978 0.184295 3.066085
-0.430246 0.194257 -0.065278 -0.115792 0.976034 0.184255 3.064788
-0.430246 0.194257 -0.065278 -0.115792 0.976034 0.184255 3.064788
-0.430342 0.194056 -0.065069 -0.116197 0.975978 0.184295 3.066085
-0.430267 0.193715 -0.065418 -0.11736 0.97573 0.184869 3.064521
-0.430342 0.194056 -0.065069 -0.116197 0.975978 0.184295 3.066085
-0.430246 0.194257 -0.065278 -0.115792 0.976034 0.184255 3.064788
-0.430246 0.194257 -0.065278 -0.115792 0.976034 0.184255 3.064788
-0.430342 0.194056 -0.065069 -0.116197 0.975978 0.184295 3.066085
-0.430171 0.193917 -0.065626 -0.116955 0.975786 0.184831 3.063224
-0.430246 0.194257 -0.065278 -0.115792 0.976034 0.184255 3.064788
-0.430346 0.194257 -0.064618 -0.115647 0.976035 0.184338 3.066286
-0.430574 0.194095 -0.064663 -0.116278 0.975869 0.184821 3.067168
-0.430283 0.194428 -0.065105 -0.115211 0.976157 0.183967 3.06557
-0.430246 0.194257 -0.065278 -0.115792 0.976034 0.184255 3.064788
-0.430346 0.194257 -0.064618 -0.115647 0.976035 0.184338 3.066286
