-0.234907 0.208807 -0.058338 -0.210619 0.960783 0.180375 2.825618
-0.234868 0.209346 -0.057995 -0.208784 0.961293 0.179793 2.827183
-0.235184 0.208859 -0.05832 -0.209625 0.961228 0.179158 2.82778
-0.235188 0.208993 -0.058 -0.209519 0.961113 0.179901 2.827462
-0.234868 0.209346 -0.057995 -0.208784 0.961293 0.179793 2.827183
-0.234868 0.209346 -0.057995 -0.208784 0.961293 0.179793 2.827183
-0.235188 0.208993 -0.058 -0.209519 0.961113 0.179901 2.827462
-0.234445 0.209067 -0.058503 -0.210434 0.9608 0.180503 2.824417
-0.235419 0.209472 -0.057582 -0.208693 0.961202 0.180383 2.828515
-0.234586 0.20916 -0.058334 -0.209884 0.960964 0.180266 2.825339
-0.234868 0.209346 -0.057995 -0.208784 0.961293 0.179793 2.827183
-0.234907 0.208807 -0.058338 -0.210619 0.960783 0.180375 2.825618
-0.234868 0.209346 -0.057995 -0.208784 0.961293 0.179793 2.827183
-0.234868 0.209346 -0.057995 -0.208784 0.961293 0.179793 2.827183
-0.234586 0.20916 -0.058334 -0.209884 0.960964 0.180266 2.825339
-0.235279 0.209378 -0.057751 -0.209242 0.961038 0.18062 2.827592
-0.234586 0.20916 -0.058334 -0.209884 0.960964 0.180266 2.825339
-0.235329 0.209086 -0.057831 -0.208969 0.961277 0.179664 2.828384
-0.235188 0.208993 -0.058 -0.209519 0.961113 0.179901 2.827462
-0.235325 0.208953 -0.058151 -0.209075 0.961392 0.178921 2.828701
-0.234777 0.20896 -0.058244 -0.20906 0.961367 0.179074 2.827055
-0.234958 0.209732 -0.057747 -0.208508 0.961218 0.180512 2.827312
-0.235188 0.208993 -0.058 -0.209519 0.961113 0.179901 2.827462
-0.235188 0.208993 -0.058 -0.209519 0.961113 0.179901 2.827462
-0.235279 0.209378 -0.057751 -0.209242 0.961038 0.18062 2.827592
-0.235188 0.208993 -0.058 -0.209519 0.961113 0.179901 2.827462
-0.235188 0.208993 -0.058 -0.209519 0.961113 0.179901 2.827462
-0.234868 0.209346 -0.057995 -0.208784 0.961293 0.179793 2.827183
-0.234907 0.208807 -0.058338 -0.210619 0.960783 0.180375 2.825618
-0.235188 0.208993 -0.058 -0.209519 0.961113 0.179901 2.827462
-0.235329 0.209086 -0.057831 -0.208969 0.961277 0.179664 2.828384
-0.235188 0.208993 -0.058 -0.209519 0.961113 0.179901 2.827462
-0.235188 0.208993 -0.058 -0.209519 0.961113 0.179901 2.827462
-0.235188 0.208993 -0.058 -0.209519 0.961113 0.179901 2.827462
-0.234868 0.209346 -0.057995 -0.208784 0.961293 0.179793 2.827183
-0.235329 0.209086 -0.057831 -0.208969 0.961277 0.179664 2.828384
-0.234868 0.209346 -0.057995 -0.208784 0.961293 0.179793 2.827183
-0.235188 0.208993 -0.058 -0.209519 0.961113 0.179901 2.827462
-0.235419 0.209472 -0.057582 -0.208693 0.961202 0.180383 2.828515
-0.234586 0.20916 -0.058334 -0.209884 0.960964 0.180266 2.825339
-0.235188 0.208993 -0.058 -0.209519 0.961113 0.179901 2.827462
-0.234868 0.209346 -0.057995 -0.208784 0.961293 0.179793 2.827183
-0.234907 0.208807 -0.058338 -0.210619 0.960783 0.180375 2.825618
-0.234856 0.2091 -0.058259 -0.210891 0.960544 0.18133 2.824824
-0.234586 0.20916 -0.058334 -0.209884 0.960964 0.180266 2.825339
-0.234958 0.209732 -0.057747 -0.208508 0.961218 0.180512 2.827312
-0.235188 0.208993 -0.058 -0.209519 0.961113 0.179901 2.827462
-0.235279 0.209378 -0.057751 -0.209242 0.961038 0.18062 2.827592
-0.234868 0.209346 -0.057995 -0.208784 0.961293 0.179793 2.827183
-0.234868 0.209346 -0.057995 -0.208784 0.961293 0.179793 2.827183
-0.235188 0.208993 -0.058 -0.209519 0.961113 0.179901 2.827462
-0.235098 0.209825 -0.057577 -0.207958 0.961381 0.180276 2.828235
-0.234902 0.208673 -0.058658 -0.210726 0.960899 0.179631 2.825938
-0.234868 0.209346 -0.057995 -0.208784 0.961293 0.179793 2.827183
-0.234586 0.20916 -0.058334 -0.209884 0.960964 0.180266 2.825339
-0.234868 0.209346 -0.057995 -0.208784 0.961293 0.179793 2.827183
-0.235098 0.209825 -0.057577 -0.207958 0.961381 0.180276 2.828235
-0.234907 0.208807 -0.058338 -0.210619 0.960783 0.180375 2.825618
-0.234868 0.209346 -0.057995 -0.208784 0.961293 0.179793 2.827183
-0.235184 0.208859 -0.05832 -0.209625 0.961228 0.179158 2.82778
-0.234819 0.209086 -0.058426 -0.210095 0.960845 0.180658 2.824641
-0.234907 0.208807 -0.058338 -0.210619 0.960783 0.180375 2.825618
-0.234868 0.209346 -0.057995 -0.208784 0.961293 0.179793 2.827183
-0.235188 0.208993 -0.058 -0.209519 0.961113 0.179901 2.827462
-0.234864 0.209212 -0.058317 -0.208891 0.961408 0.17905 2.8275
-0.235188 0.208993 -0.058 -0.209519 0.961113 0.179901 2.827462
-0.235188 0.208993 -0.058 -0.209519 0.961113 0.179901 2.827462
-0.234868 0.209346 -0.057995 -0.208784 0.961293 0.179793 2.827183
-0.235279 0.209378 -0.057751 -0.209242 0.961038 0.18062 2.827592
-0.235008 0.20944 -0.057826 -0.208234 0.961456 0.179557 2.828106
-0.234868 0.209346 -0.057995 -0.208784 0.961293 0.179793 2.827183
-0.235188 0.208993 -0.058 -0.209519 0.961113 0.179901 2.827462
-0.234868 0.209346 -0.057995 -0.208784 0.961293 0.179793 2.827183
-0.234868 0.209346 -0.057995 -0.208784 0.961293 0.179793 2.827183
-0.234727 0.209253 -0.058165 -0.209334 0.961129 0.18003 2.826261
-0.234445 0.209067 -0.058503 -0.210434 0.9608 0.180503 2.824417
-0.235279 0.209378 -0.057751 -0.209242 0.961038 0.18062 2.827592
-0.234868 0.209346 -0.057995 -0.208784 0.961293 0.179793 2.827183
-0.234868 0.209346 -0.057995 -0.208784 0.961293 0.179793 2.827183
-0.234958 0.209732 -0.057747 -0.208508 0.961218 0.180512 2.827312
-0.234586 0.20916 -0.058334 -0.209884 0.960964 0.180266 2.825339
-0.234868 0.209346 -0.057995 -0.208784 0.961293 0.179793 2.827183
-0.235329 0.209086 -0.057831 -0.208969 0.961277 0.179664 2.828384
-0.235188 0.208993 -0.058 -0.209519 0.961113 0.179901 2.827462
-0.234868 0.209346 -0.057995 -0.208784 0.961293 0.179793 2.827183
-0.235188 0.208993 -0.058 -0.209519 0.961113 0.179901 2.827462
-0.234868 0.209346 -0.057995 -0.208784 0.961293 0.179793 2.827183
-0.235188 0.208993 -0.058 -0.209519 0.961113 0.179901 2.827462
-0.235098 0.209825 -0.057577 -0.207958 0.961381 0.180276 2.828235
-0.235188 0.208993 -0.058 -0.209519 0.961113 0.179901 2.827462
-0.234586 0.20916 -0.058334 -0.209884 0.960964 0.180266 2.825339
-0.235188 0.208993 -0.058 -0.209519 0.961113 0.179901 2.827462
-0.235419 0.209472 -0.057582 -0.208693 0.961202 0.180383 2.828515
-0.234586 0.20916 -0.058334 -0.209884 0.960964 0.180266 2.825339
-0.234868 0.209346 -0.057995 -0.208784 0.961293 0.179793 2.827183
-0.234868 0.209346 -0.057995 -0.208784 0.961293 0.179793 2.827183
-0.234868 0.209346 -0.057995 -0.208784 0.961293 0.179793 2.827183
-0.234868 0.209346 -0.057995 -0.208784 0.961293 0.179793 2.827183
-0.234676 0.209546 -0.058085 -0.209607 0.96089 0.180985 2.825465
-0.234586 0.20916 -0.058334 -0.209884 0.960964 0.180266 2.825339
-0.234816 0.20842 -0.058586 -0.210896 0.960857 0.179656 2.825491
-0.235279 0.209378 -0.057751 -0.209242 0.961038 0.18062 2.827592
-0.235279 0.209378 -0.057751 -0.209242 0.961038 0.18062 2.827592
-0.234868 0.209346 -0.057995 -0.208784 0.961293 0.179793 2.827183
-0.234868 0.209346 -0.057995 -0.208784 0.961293 0.179793 2.827183
-0.235188 0.208993 -0.058 -0.209519 0.961113 0.179901 2.827462
-0.234958 0.209732 -0.057747 -0.208508 0.961218 0.180512 2.827312
-0.234586 0.20916 -0.058334 -0.209884 0.960964 0.180266 2.825339
-0.235188 0.208993 -0.058 -0.209519 0.961113 0.179901 2.827462
-0.234868 0.209346 -0.057995 -0.208784 0.961293 0.179793 2.827183
-0.235048 0.2089 -0.058169 -0.210069 0.960948 0.180138 2.82654
-0.234868 0.209346 -0.057995 -0.208784 0.961293 0.179793 2.827183
-0.235008 0.20944 -0.057826 -0.208234 0.961456 0.179557 2.828106
-0.235188 0.208993 -0.058 -0.209519 0.961113 0.179901 2.827462
-0.234868 0.209346 -0.057995 -0.208784 0.961293 0.179793 2.827183
-0.235188 0.208993 -0.058 -0.209519 0.961113 0.179901 2.827462
-0.234868 0.209346 -0.057995 -0.208784 0.961293 0.179793 2.827183
-0.234868 0.209346 -0.057995 -0.208784 0.961293 0.179793 2.827183
-0.235188 0.208993 -0.058 -0.209519 0.961113 0.179901 2.827462
-0.234868 0.209346 -0.057995 -0.208784 0.961293 0.179793 2.827183
-0.234868 0.209346 -0.057995 -0.208784 0.961293 0.179793 2.827183
-0.234586 0.20916 -0.058334 -0.209884 0.960964 0.180266 2.825339
-0.234586 0.20916 -0.058334 -0.209884 0.960964 0.180266 2.825339
-0.235188 0.208993 -0.058 -0.209519 0.961113 0.179901 2.827462
-0.235188 0.208993 -0.058 -0.209519 0.961113 0.179901 2.827462
-0.235188 0.208993 -0.058 -0.209519 0.961113 0.179901 2.827462
-0.234586 0.20916 -0.058334 -0.209884 0.960964 0.180266 2.825339
-0.235188 0.208993 -0.058 -0.209519 0.961113 0.179901 2.827462
-0.234958 0.209732 -0.057747 -0.208508 0.961218 0.180512 2.827312
-0.234586 0.20916 -0.058334 -0.209884 0.960964 0.180266 2.825339
-0.235008 0.20944 -0.057826 -0.208234 0.961456 0.179557 2.828106
-0.234868 0.209346 -0.057995 -0.208784 0.961293 0.179793 2.827183
-0.235279 0.209378 -0.057751 -0.209242 0.961038 0.18062 2.827592
-0.234586 0.20916 -0.058334 -0.209884 0.960964 0.180266 2.825339
-0.234864 0.209212 -0.058317 -0.208891 0.961408 0.17905 2.8275
-0.235188 0.208993 -0.058 -0.209519 0.961113 0.179901 2.827462
-0.235008 0.20944 -0.057826 -0.208234 0.961456 0.179557 2.828106
-0.235188 0.208993 -0.058 -0.209519 0.961113 0.179901 2.827462
-0.234958 0.209732 -0.057747 -0.208508 0.961218 0.180512 2.827312
-0.234868 0.209346 -0.057995 -0.208784 0.961293 0.179793 2.827183
-0.234868 0.209346 -0.057995 -0.208784 0.961293 0.179793 2.827183
-0.234868 0.209346 -0.057995 -0.208784 0.961293 0.179793 2.827183
-0.234958 0.209732 -0.057747 -0.208508 0.961218 0.180512 2.827312
-0.235188 0.208993 -0.058 -0.209519 0.961113 0.179901 2.827462
-0.235004 0.209306 -0.058147 -0.208341 0.961572 0.178813 2.828422
-0.234868 0.209346 -0.057995 -0.208784 0.961293 0.179793 2.827183
-0.234676 0.209546 -0.058085 -0.209607 0.96089 0.180985 2.825465
-0.235329 0.209086 -0.057831 -0.208969 0.961277 0.179664 2.828384
-0.234868 0.209346 -0.057995 -0.208784 0.961293 0.179793 2.827183
-0.234868 0.209346 -0.057995 -0.208784 0.961293 0.179793 2.827183
-0.234868 0.209346 -0.057995 -0.208784 0.961293 0.179793 2.827183
-0.234676 0.209546 -0.058085 -0.209607 0.96089 0.180985 2.825465
-0.234586 0.20916 -0.058334 -0.209884 0.960964 0.180266 2.825339
-0.234586 0.20916 -0.058334 -0.209884 0.960964 0.180266 2.825339
-0.235188 0.208993 -0.058 -0.209519 0.961113 0.179901 2.827462
-0.234676 0.209546 -0.058085 -0.209607 0.96089 0.180985 2.825465
-0.235008 0.20944 -0.057826 -0.208234 0.961456 0.179557 2.828106
-0.234868 0.209346 -0.057995 -0.208784 0.961293 0.179793 2.827183
-0.235329 0.209086 -0.057831 -0.208969 0.961277 0.179664 2.828384
-0.234868 0.209346 -0.057995 -0.208784 0.961293 0.179793 2.827183
-0.235008 0.20944 -0.057826 -0.208234 0.961456 0.179557 2.828106
-0.235008 0.20944 -0.057826 -0.208234 0.961456 0.179557 2.828106
-0.234868 0.209346 -0.057995 -0.208784 0.961293 0.179793 2.827183
-0.234868 0.209346 -0.057995 -0.208784 0.961293 0.179793 2.827183
-0.235188 0.208993 -0.058 -0.209519 0.961113 0.179901 2.827462
-0.234868 0.209346 -0.057995 -0.208784 0.961293 0.179793 2.827183
-0.234498 0.209439 -0.058421 -0.209361 0.961025 0.18055 2.824361
-0.235008 0.20944 -0.057826 -0.208234 0.961456 0.179557 2.828106
-0.235098 0.209825 -0.057577 -0.207958 0.961381 0.180276 2.828235
-0.234868 0.209346 -0.057995 -0.208784 0.961293 0.179793 2.827183
-0.234868 0.209346 -0.057995 -0.208784 0.961293 0.179793 2.827183
-0.234868 0.209346 -0.057995 -0.208784 0.961293 0.179793 2.827183
-0.234907 0.208807 -0.058338 -0.210619 0.960783 0.180375 2.825618
-0.235008 0.20944 -0.057826 -0.208234 0.961456 0.179557 2.828106
-0.235188 0.208993 -0.058 -0.209519 0.961113 0.179901 2.827462
-0.235188 0.208993 -0.058 -0.209519 0.961113 0.179901 2.827462
-0.234868 0.209346 -0.057995 -0.208784 0.961293 0.179793 2.827183
-0.234868 0.209346 -0.057995 -0.208784 0.961293 0.179793 2.827183
-0.235184 0.208859 -0.05832 -0.209625 0.961228 0.179158 2.82778
-0.234868 0.209346 -0.057995 -0.208784 0.961293 0.179793 2.827183
-0.235188 0.208993 -0.058 -0.209519 0.961113 0.179901 2.827462
-0.234868 0.209346 -0.057995 -0.208784 0.961293 0.179793 2.827183
-0.235008 0.20944 -0.057826 -0.208234 0.961456 0.179557 2.828106
-0.234868 0.209346 -0.057995 -0.208784 0.961293 0.179793 2.827183
-0.234868 0.209346 -0.057995 -0.208784 0.961293 0.179793 2.827183
-0.234868 0.209346 -0.057995 -0.208784 0.961293 0.179793 2.827183
-0.234958 0.209732 -0.057747 -0.208508 0.961218 0.180512 2.827312
-0.235188 0.208993 -0.058 -0.209519 0.961113 0.179901 2.827462
-0.235098 0.209825 -0.057577 -0.207958 0.961381 0.180276 2.828235
-0.235329 0.209086 -0.057831 -0.208969 0.961277 0.179664 2.828384
-0.235098 0.209825 -0.057577 -0.207958 0.961381 0.180276 2.828235
-0.234868 0.209346 -0.057995 -0.208784 0.961293 0.179793 2.827183
-0.235188 0.208993 -0.058 -0.209519 0.961113 0.179901 2.827462
-0.234868 0.209346 -0.057995 -0.208784 0.961293 0.179793 2.827183
-0.234586 0.20916 -0.058334 -0.209884 0.960964 0.180266 2.825339
-0.234868 0.209346 -0.057995 -0.208784 0.961293 0.179793 2.827183
-0.234868 0.209346 -0.057995 -0.208784 0.961293 0.179793 2.827183
-0.234868 0.209346 -0.057995 -0.208784 0.961293 0.179793 2.827183
-0.234868 0.209346 -0.057995 -0.208784 0.961293 0.179793 2.827183
-0.235008 0.20944 -0.057826 -0.208234 0.961456 0.179557 2.828106
-0.234868 0.209346 -0.057995 -0.208784 0.961293 0.179793 2.827183
-0.234868 0.209346 -0.057995 -0.208784 0.961293 0.179793 2.827183
-0.235188 0.208993 -0.058 -0.209519 0.961113 0.179901 2.827462
-0.234868 0.209346 -0.057995 -0.208784 0.961293 0.179793 2.827183
-0.234958 0.209732 -0.057747 -0.208508 0.961218 0.180512 2.827312
-0.234586 0.20916 -0.058334 -0.209884 0.960964 0.180266 2.825339
-0.234868 0.209346 -0.057995 -0.208784 0.961293 0.179793 2.827183
-0.234868 0.209346 -0.057995 -0.208784 0.961293 0.179793 2.827183
-0.234868 0.209346 -0.057995 -0.208784 0.961293 0.179793 2.827183
-0.235098 0.209825 -0.057577 -0.207958 0.961381 0.180276 2.828235
-0.234958 0.209732 -0.057747 -0.208508 0.961218 0.180512 2.827312
-0.235098 0.209825 -0.057577 -0.207958 0.961381 0.180276 2.828235
-0.234868 0.209346 -0.057995 -0.208784 0.961293 0.179793 2.827183
-0.234586 0.20916 -0.058334 -0.209884 0.960964 0.180266 2.825339
-0.234868 0.209346 -0.057995 -0.208784 0.961293 0.179793 2.827183
-0.234868 0.209346 -0.057995 -0.208784 0.961293 0.179793 2.827183
-0.234868 0.209346 -0.057995 -0.208784 0.961293 0.179793 2.827183
-0.234868 0.209346 -0.057995 -0.208784 0.961293 0.179793 2.827183
-0.234868 0.209346 -0.057995 -0.208784 0.961293 0.179793 2.827183
-0.234868 0.209346 -0.057995 -0.208784 0.961293 0.179793 2.827183
-0.234868 0.209346 -0.057995 -0.208784 0.961293 0.179793 2.827183
-0.234868 0.209346 -0.057995 -0.208784 0.961293 0.179793 2.827183
-0.234868 0.209346 -0.057995 -0.208784 0.961293 0.179793 2.827183
-0.234868 0.209346 -0.057995 -0.208784 0.961293 0.179793 2.827183
-0.234868 0.209346 -0.057995 -0.208784 0.961293 0.179793 2.827183
-0.234868 0.209346 -0.057995 -0.208784 0.961293 0.179793 2.827183
-0.235008 0.20944 -0.057826 -0.208234 0.961456 0.179557 2.828106
-0.234868 0.209346 -0.057995 -0.208784 0.961293 0.179793 2.827183
-0.235098 0.209825 -0.057577 -0.207958 0.961381 0.180276 2.828235
-0.235008 0.20944 -0.057826 -0.208234 0.961456 0.179557 2.828106
-0.234868 0.209346 -0.057995 -0.208784 0.961293 0.179793 2.827183
-0.234868 0.209346 -0.057995 -0.208784 0.961293 0.179793 2.827183
-0.234958 0.209732 -0.057747 -0.208508 0.961218 0.180512 2.827312
-0.234868 0.209346 -0.057995 -0.208784 0.961293 0.179793 2.827183
-0.234868 0.209346 -0.057995 -0.208784 0.961293 0.179793 2.827183
-0.234868 0.209346 -0.057995 -0.208784 0.961293 0.179793 2.827183
-0.234868 0.209346 -0.057995 -0.208784 0.961293 0.179793 2.827183
-0.234445 0.209067 -0.058503 -0.210434 0.9608 0.180503 2.824417
-0.234868 0.209346 -0.057995 -0.208784 0.961293 0.179793 2.827183
-0.234586 0.20916 -0.058334 -0.209884 0.960964 0.180266 2.825339
-0.234868 0.209346 -0.057995 -0.208784 0.961293 0.179793 2.827183
-0.234868 0.209346 -0.057995 -0.208784 0.961293 0.179793 2.827183
-0.234868 0.209346 -0.057995 -0.208784 0.961293 0.179793 2.827183
-0.234868 0.209346 -0.057995 -0.208784 0.961293 0.179793 2.827183
-0.234868 0.209346 -0.057995 -0.208784 0.961293 0.179793 2.827183
-0.234445 0.209067 -0.058503 -0.210434 0.9608 0.180503 2.824417
-0.234868 0.209346 -0.057995 -0.208784 0.961293 0.179793 2.827183
-0.234958 0.209732 -0.057747 -0.208508 0.961218 0.180512 2.827312
-0.234958 0.209732 -0.057746 -0.208502 0.961221 0.180502 2.827314
-0.234586 0.20916 -0.058333 -0.209878 0.960968 0.180256 2.825341
-0.234868 0.209346 -0.057995 -0.208772 0.961299 0.179773 2.827188
-0.234868 0.209346 -0.057995 -0.208772 0.961299 0.179773 2.827188
-0.234867 0.209344 -0.057995 -0.208789 0.961296 0.17977 2.827182
-0.234867 0.209343 -0.057996 -0.208798 0.961294 0.179769 2.827178
-0.234862 0.209334 -0.057998 -0.208878 0.961281 0.179745 2.827149
-0.234857 0.209324 -0.058001 -0.208954 0.961273 0.179699 2.827121
-0.234855 0.209317 -0.058001 -0.208973 0.961289 0.179595 2.827096
-0.234942 0.209692 -0.057753 -0.20872 0.961239 0.180153 2.827199
-0.234848 0.209303 -0.058006 -0.20899 0.961334 0.179332 2.826964
-0.234842 0.209299 -0.058011 -0.208986 0.961358 0.179207 2.826822
-0.235064 0.209086 -0.058432 -0.209309 0.961379 0.178717 2.826275
-0.234742 0.209572 -0.058113 -0.20845 0.961468 0.17924 2.825523
-0.235056 0.209088 -0.058444 -0.209226 0.961441 0.178478 2.825962
-0.235051 0.209775 -0.057621 -0.208043 0.961569 0.179172 2.827197
-0.234865 0.209531 -0.058284 -0.207878 0.961851 0.177846 2.826288
-0.235359 0.20941 -0.05764 -0.208797 0.961437 0.179003 2.827144
-0.234837 0.209271 -0.058565 -0.210027 0.961154 0.179083 2.823515
-0.236009 0.209715 -0.057296 -0.206567 0.962224 0.177357 2.830357
-0.235718 0.209514 -0.057645 -0.207729 0.961921 0.177641 2.828289
-0.235709 0.209509 -0.057656 -0.207709 0.961967 0.177415 2.828027
-0.236359 0.209044 -0.05741 -0.208163 0.961937 0.177049 2.829433
-0.236952 0.209248 -0.057196 -0.207783 0.961994 0.177183 2.830092
-0.237372 0.209519 -0.056693 -0.207219 0.962083 0.17736 2.831415
-0.23796 0.209711 -0.056484 -0.206841 0.96218 0.177276 2.831943
-0.23841 0.209439 -0.05633 -0.207021 0.96221 0.176901 2.832866
-0.239103 0.209324 -0.056004 -0.206595 0.962344 0.176668 2.834314
-0.239569 0.20968 -0.055697 -0.205766 0.962537 0.176587 2.835104
-0.240576 0.209898 -0.05524 -0.205731 0.962418 0.177276 2.836064
-0.241032 0.209858 -0.054818 -0.205108 0.962679 0.176576 2.838211
-0.242084 0.210015 -0.054179 -0.20411 0.962979 0.176099 2.841121
-0.242316 0.209888 -0.054302 -0.204174 0.963066 0.175549 2.840794
-0.243474 0.209877 -0.053927 -0.203753 0.963137 0.175645 2.842167
-0.244138 0.21019 -0.053405 -0.202397 0.963612 0.174606 2.845539
-0.245165 0.209808 -0.05349 -0.203156 0.963466 0.174533 2.845412
-0.245213 0.210551 -0.05354 -0.201929 0.963671 0.174823 2.843757
-0.246945 0.210906 -0.052313 -0.200193 0.964075 0.17459 2.848915
-0.247499 0.210405 -0.052451 -0.200959 0.964015 0.174044 2.848865
-0.248679 0.210656 -0.051642 -0.199288 0.96451 0.173219 2.852692
-0.249278 0.210528 -0.051705 -0.198978 0.964656 0.172762 2.852581
-0.250412 0.211047 -0.05081 -0.197654 0.964907 0.172881 2.855678
-0.250837 0.210829 -0.051237 -0.19906 0.964467 0.173719 2.85263
-0.2522 0.211106 -0.050787 -0.197893 0.964874 0.172788 2.856069
-0.252469 0.212304 -0.050411 -0.195894 0.965165 0.173442 2.855433
-0.253409 0.212073 -0.050049 -0.19513 0.965539 0.172217 2.858109
-0.254797 0.212849 -0.049379 -0.193823 0.965626 0.173202 2.859268
-0.254641 0.212174 -0.050324 -0.19627 0.965084 0.17347 2.854797
-0.255496 0.212971 -0.049762 -0.194929 0.96515 0.174606 2.854168
-0.256936 0.213336 -0.048611 -0.193588 0.965441 0.174493 2.858689
-0.258133 0.21334 -0.048485 -0.192894 0.965675 0.173962 2.859512
-0.258511 0.213577 -0.048152 -0.193621 0.965289 0.175296 2.858858
-0.259589 0.214127 -0.048052 -0.192455 0.965505 0.175389 2.858642
-0.260361 0.213689 -0.048389 -0.193296 0.96547 0.174653 2.858702
-0.261162 0.214353 -0.047638 -0.192286 0.965508 0.175559 2.859359
-0.262171 0.214146 -0.047482 -0.192583 0.965435 0.175635 2.859692
-0.263097 0.214515 -0.047166 -0.191982 0.965544 0.175694 2.860422
-0.264167 0.21441 -0.047243 -0.191735 0.965649 0.175388 2.860207
-0.265468 0.214757 -0.046869 -0.190631 0.965851 0.175476 2.861217
-0.265743 0.21413 -0.048048 -0.192185 0.965683 0.174705 2.857185
-0.267008 0.215307 -0.046803 -0.189576 0.966081 0.175353 2.86049
-0.267707 0.214622 -0.047747 -0.19175 0.965637 0.175437 2.856907
-0.268622 0.215245 -0.047123 -0.190474 0.965811 0.175866 2.858264
-0.269566 0.215019 -0.047395 -0.190746 0.965792 0.175678 2.857224
-0.270673 0.215154 -0.047021 -0.1905 0.965831 0.175725 2.858471
-0.271064 0.215156 -0.04745 -0.190913 0.965791 0.175498 2.856523
-0.272668 0.215896 -0.046226 -0.188963 0.966066 0.176094 2.860313
-0.273247 0.215103 -0.047376 -0.191596 0.965504 0.17633 2.855849
-0.274701 0.215141 -0.046348 -0.189849 0.966084 0.175041 2.86131
-0.275675 0.21524 -0.046789 -0.190069 0.965973 0.175413 2.85897
-0.276589 0.215817 -0.046399 -0.189769 0.96586 0.176359 2.859125
-0.27728 0.215391 -0.047061 -0.191079 0.96553 0.176749 2.856142
-0.278343 0.215806 -0.046616 -0.189827 0.965823 0.176496 2.857855
-0.279279 0.21552 -0.046934 -0.190252 0.965798 0.176178 2.856864
-0.279906 0.215558 -0.046766 -0.19113 0.965457 0.177091 2.856311
-0.281634 0.215479 -0.046376 -0.190336 0.965772 0.176228 2.859266
-0.282323 0.215634 -0.046226 -0.189668 0.965929 0.176089 2.859546
-0.283504 0.215127 -0.046281 -0.191165 0.965537 0.17662 2.859329
-0.28481 0.215082 -0.046099 -0.190022 0.965964 0.175514 2.861153
-0.285644 0.215253 -0.046008 -0.191115 0.965476 0.177007 2.859861
-0.28658 0.214949 -0.046357 -0.191509 0.965437 0.176796 2.85892
-0.287478 0.215596 -0.046462 -0.189978 0.965781 0.176564 2.858326
-0.287987 0.215549 -0.04648 -0.191204 0.965321 0.177752 2.856803
-0.289258 0.215391 -0.046275 -0.191207 0.965354 0.177572 2.858197
-0.289783 0.215781 -0.04692 -0.191233 0.965229 0.178224 2.854689
-0.290521 0.215929 -0.046706 -0.191695 0.964912 0.179438 2.853492
-0.292059 0.214957 -0.046433 -0.192744 0.964832 0.178745 2.856184
-0.292828 0.216099 -0.045879 -0.189846 0.965494 0.178266 2.857813
-0.293841 0.215734 -0.046054 -0.19109 0.965168 0.178704 2.857221
-0.294575 0.216193 -0.046075 -0.190341 0.965245 0.179088 2.856436
-0.295505 0.21586 -0.046471 -0.190675 0.965235 0.178786 2.855417
-0.296555 0.216455 -0.045959 -0.189795 0.965271 0.179528 2.856505
-0.296835 0.216637 -0.046732 -0.191053 0.964776 0.180848 2.850794
-0.297861 0.216273 -0.046913 -0.192075 0.964505 0.181209 2.850382
-0.298452 0.216374 -0.047277 -0.191787 0.964608 0.180967 2.848897
-0.29992 0.215614 -0.047358 -0.193185 0.964306 0.181091 2.84975
-0.300277 0.215884 -0.047575 -0.192666 0.964509 0.180559 2.849082
-0.301279 0.215777 -0.047399 -0.193098 0.964283 0.181304 2.849096
-0.302 0.215945 -0.047585 -0.192259 0.964564 0.180701 2.84886
-0.302635 0.215926 -0.047446 -0.193102 0.964232 0.181572 2.848521
-0.303373 0.216079 -0.047892 -0.193118 0.964214 0.181651 2.84706
-0.304251 0.215643 -0.048033 -0.1937 0.964087 0.181703 2.846713
-0.305306 0.215931 -0.047667 -0.192607 0.964395 0.181232 2.848735
-0.306114 0.215733 -0.048142 -0.193661 0.964009 0.182157 2.846415
-0.306793 0.215538 -0.048446 -0.193837 0.964075 0.181621 2.846109
-0.307072 0.215731 -0.049511 -0.194825 0.96366 0.182766 2.840892
-0.307703 0.215458 -0.049521 -0.195327 0.963582 0.182638 2.841153
-0.308953 0.214931 -0.049549 -0.195256 0.963829 0.181408 2.843288
-0.30963 0.215262 -0.049324 -0.194957 0.963734 0.182233 2.843048
-0.3103 0.215048 -0.049645 -0.195228 0.963784 0.181675 2.842751
-0.310682 0.214629 -0.05001 -0.196682 0.963398 0.182155 2.841096
-0.311702 0.215236 -0.049886 -0.194482 0.964079 0.180908 2.843544
-0.312407 0.214975 -0.049583 -0.19499 0.963862 0.181516 2.843607
-0.313716 0.214784 -0.049507 -0.194897 0.963869 0.181582 2.844657
-0.314267 0.21451 -0.050011 -0.195485 0.963796 0.181339 2.843456
-0.31507 0.214617 -0.050027 -0.195425 0.963782 0.181474 2.843685
-0.315612 0.214617 -0.050127 -0.195352 0.963773 0.181604 2.8431
-0.315798 0.214365 -0.05102 -0.197749 0.962977 0.183221 2.838451
-0.317151 0.21416 -0.050504 -0.196474 0.963459 0.182056 2.842137
-0.317444 0.213726 -0.051374 -0.198156 0.963053 0.182384 2.838982
-0.3182 0.213755 -0.05109 -0.198428 0.962884 0.182976 2.839717
-0.318485 0.213583 -0.051843 -0.199209 0.96272 0.182994 2.837215
-0.319616 0.21383 -0.051034 -0.197897 0.96305 0.182677 2.840902
-0.320199 0.213887 -0.051458 -0.197515 0.963193 0.18234 2.8399
-0.320783 0.213771 -0.051038 -0.1986 0.962724 0.183632 2.840098
-0.321113 0.213941 -0.051694 -0.198355 0.962786 0.183573 2.837751
-0.321818 0.213899 -0.051104 -0.198949 0.962456 0.184657 2.838863
-0.322361 0.214094 -0.051375 -0.199059 0.962362 0.185025 2.837736
-0.322931 0.213913 -0.051955 -0.198311 0.962769 0.183707 2.837269
-0.323177 0.213418 -0.052523 -0.200222 0.96222 0.184512 2.834659
-0.324078 0.213309 -0.052545 -0.199534 0.962585 0.183348 2.836502
-0.324243 0.213095 -0.053184 -0.200925 0.96208 0.184475 2.833094
-0.324782 0.213279 -0.053468 -0.201101 0.961966 0.184878 2.831969
-0.325527 0.213049 -0.053336 -0.201026 0.962069 0.184426 2.833468
-0.325288 0.212347 -0.05496 -0.203527 0.961499 0.184652 2.82759
-0.326204 0.213303 -0.053431 -0.201622 0.961731 0.185534 2.831901
-0.326838 0.212813 -0.05396 -0.201604 0.962028 0.184006 2.832387
-0.327204 0.212668 -0.053934 -0.202324 0.961696 0.184947 2.831354
-0.32761 0.21254 -0.054539 -0.202627 0.961687 0.184665 2.829995
-0.328228 0.212523 -0.054159 -0.202348 0.961693 0.184937 2.831042
-0.32885 0.212205 -0.054408 -0.203066 0.961446 0.185433 2.829775
-0.329455 0.211896 -0.054471 -0.203588 0.961349 0.185362 2.830147
-0.329644 0.211999 -0.055136 -0.203587 0.961413 0.185034 2.828561
-0.330679 0.211808 -0.054033 -0.20299 0.961507 0.185202 2.832179
-0.330906 0.211746 -0.055157 -0.203411 0.961492 0.184817 2.829453
-0.330809 0.211904 -0.055378 -0.204342 0.960979 0.18645 2.826103
-0.331331 0.211598 -0.055953 -0.204958 0.960894 0.18621 2.825036
-0.331467 0.211372 -0.056635 -0.205303 0.960864 0.185984 2.822819
-0.332097 0.211536 -0.056427 -0.20528 0.960763 0.186534 2.823375
-0.332786 0.211223 -0.055987 -0.205615 0.960681 0.186585 2.82527
-0.333303 0.210911 -0.056569 -0.20627 0.960579 0.186389 2.824237
-0.333611 0.210406 -0.056668 -0.207003 0.960443 0.186276 2.824605
-0.333627 0.21106 -0.057265 -0.205992 0.960634 0.186411 2.822021
-0.334358 0.210811 -0.057162 -0.205959 0.960718 0.186015 2.823519
-0.334282 0.211045 -0.057532 -0.206394 0.960505 0.186631 2.821261
-0.334733 0.210421 -0.057934 -0.207132 0.960495 0.185867 2.821274
-0.334874 0.210719 -0.057615 -0.206878 0.960468 0.186288 2.821529
-0.335475 0.210405 -0.057691 -0.207355 0.960378 0.186219 2.821994
-0.335633 0.210419 -0.058225 -0.207952 0.960095 0.187015 2.819317
-0.336364 0.210551 -0.057324 -0.205826 0.960901 0.185215 2.824332
-0.336497 0.210467 -0.057815 -0.207673 0.960138 0.187101 2.820952
-0.336481 0.20993 -0.058832 -0.208235 0.960196 0.186175 2.818346
-0.337296 0.209678 -0.058222 -0.208023 0.960285 0.185957 2.821299
-0.33752 0.210012 -0.058946 -0.208397 0.959944 0.187291 2.817602
-0.337629 0.209835 -0.058902 -0.20865 0.959952 0.186967 2.81779
-0.33804 0.209973 -0.059092 -0.208225 0.960008 0.187155 2.817133
-0.338045 0.209831 -0.059355 -0.208367 0.960167 0.186181 2.817531
-0.338798 0.210035 -0.058988 -0.207937 0.960194 0.186519 2.819119
-0.339267 0.209651 -0.059244 -0.208937 0.959926 0.18678 2.818637
-0.339289 0.209693 -0.059602 -0.208714 0.960104 0.186115 2.817961
-0.339608 0.209015 -0.060187 -0.209856 0.959934 0.185709 2.817023
-0.339536 0.209261 -0.060559 -0.210206 0.959726 0.186384 2.81482
-0.340195 0.208696 -0.060282 -0.21027 0.959888 0.185476 2.817319
-0.340376 0.20906 -0.060309 -0.209656 0.960015 0.185512 2.817124
-0.340714 0.208672 -0.060435 -0.210055 0.959916 0.185576 2.816867
-0.340614 0.20866 -0.060963 -0.210268 0.959928 0.185274 2.815273
-0.341582 0.208515 -0.060535 -0.209301 0.960336 0.184247 2.818796
-0.341324 0.208391 -0.060887 -0.210261 0.960033 0.184732 2.816635
-0.341832 0.208644 -0.060172 -0.209368 0.960246 0.184641 2.8193
-0.342214 0.208843 -0.059628 -0.20892 0.960298 0.184877 2.820959
-0.342417 0.208321 -0.060267 -0.209799 0.960194 0.184424 2.819677
-0.342441 0.208569 -0.060116 -0.209977 0.959986 0.185299 2.818999
-0.343311 0.208993 -0.058887 -0.20772 0.960682 0.184233 2.824542
-0.343197 0.20864 -0.059933 -0.208978 0.960315 0.184724 2.820506
-0.342963 0.208484 -0.060504 -0.210156 0.959845 0.185829 2.816765
-0.343738 0.207969 -0.060057 -0.209787 0.960167 0.184576 2.82028
-0.344176 0.208344 -0.060098 -0.209581 0.959978 0.18579 2.819162
-0.344201 0.20859 -0.059944 -0.209771 0.959762 0.186688 2.818516
-0.344773 0.208424 -0.059554 -0.209773 0.959753 0.186734 2.820215
-0.344674 0.20842 -0.060091 -0.209945 0.959767 0.18647 2.818561
-0.345234 0.209024 -0.059258 -0.207925 0.960234 0.186329 2.821453
-0.345191 0.208384 -0.060246 -0.209765 0.959786 0.186572 2.818264
-0.344966 0.208316 -0.060953 -0.210466 0.959622 0.186629 2.815676
-0.345411 0.208088 -0.06074 -0.211013 0.959416 0.187068 2.816371
-0.3454 0.208066 -0.060746 -0.211162 0.959413 0.186914 2.816279
-0.345688 0.208268 -0.060733 -0.210854 0.959454 0.187051 2.81645
-0.346111 0.207808 -0.060675 -0.21103 0.959526 0.186483 2.817698
-0.345891 0.207752 -0.06138 -0.211624 0.959379 0.186569 2.815149
-0.345763 0.207694 -0.061555 -0.212053 0.959252 0.186735 2.814044
-0.345532 0.207625 -0.062266 -0.212797 0.959071 0.186818 2.811434
-0.346311 0.207116 -0.061821 -0.212328 0.959406 0.185625 2.815012
-0.346464 0.207413 -0.06149 -0.21207 0.959357 0.186174 2.815439
-0.346522 0.207714 -0.061693 -0.211955 0.959301 0.186595 2.814331
-0.346666 0.208 -0.06137 -0.211839 0.959211 0.187188 2.814657
-0.347474 0.207549 -0.061284 -0.211031 0.95972 0.185482 2.817773
-0.347101 0.207381 -0.061798 -0.212393 0.95925 0.186356 2.814782
-0.34722 0.20743 -0.061632 -0.211966 0.959422 0.185959 2.815669
-0.347363 0.207718 -0.061309 -0.211817 0.959343 0.186532 2.815959
-0.34739 0.207964 -0.061154 -0.212023 0.959116 0.187463 2.815323
-0.347919 0.207344 -0.061049 -0.212471 0.959124 0.186914 2.816979
-0.347711 0.207488 -0.061635 -0.212453 0.959176 0.186666 2.815047
-0.348464 0.207858 -0.060573 -0.210562 0.959727 0.185979 2.819704
-0.348444 0.207519 -0.061092 -0.21154 0.95938 0.186655 2.817167
-0.348318 0.207458 -0.061265 -0.212008 0.959236 0.186868 2.816146
-0.348496 0.207803 -0.061301 -0.211547 0.959308 0.187021 2.816024
-0.348792 0.207276 -0.061415 -0.212261 0.959192 0.186803 2.816367
-0.348595 0.207511 -0.06165 -0.212114 0.959127 0.187303 2.814447
-0.348742 0.20664 -0.06241 -0.21403 0.958765 0.186979 2.813164
-0.349186 0.206404 -0.062013 -0.212677 0.959452 0.184989 2.816949
-0.348813 0.206239 -0.062527 -0.21408 0.958948 0.18598 2.813997
-0.348767 0.206576 -0.062953 -0.213261 0.959175 0.18575 2.812651
-0.34868 0.20686 -0.063092 -0.213457 0.959081 0.186012 2.812306
-0.34917 0.206098 -0.062974 -0.214312 0.959032 0.185278 2.814501
-0.348976 0.206334 -0.063205 -0.214183 0.958948 0.185863 2.81269
-0.348976 0.206334 -0.063205 -0.214183 0.958948 0.185863 2.81269
-0.348976 0.206334 -0.063205 -0.214183 0.958948 0.185863 2.81269
-0.34892 0.205989 -0.063316 -0.215248 0.958695 0.185939 2.812535
-0.348921 0.20599 -0.063316 -0.215239 0.958696 0.18594 2.812539
-0.349203 0.206346 -0.062813 -0.214517 0.958788 0.186298 2.814004
-0.349159 0.205994 -0.062849 -0.21491 0.958691 0.186347 2.813319
-0.349204 0.206348 -0.062812 -0.2145 0.958792 0.186301 2.81401
-0.349317 0.206296 -0.062516 -0.214647 0.958616 0.187037 2.813805
-0.34909 0.206285 -0.062908 -0.214304 0.958777 0.186604 2.812495
-0.348766 0.206758 -0.06243 -0.213867 0.958753 0.187226 2.812602
-0.349193 0.206243 -0.062687 -0.215106 0.958448 0.187369 2.812824
-0.349107 0.206586 -0.062506 -0.214192 0.958719 0.18703 2.813674
-0.349011 0.206587 -0.063042 -0.214353 0.95871 0.18689 2.812207
-0.349193 0.206244 -0.062687 -0.215097 0.95845 0.18737 2.812827
-0.34922 0.206535 -0.06221 -0.214329 0.958544 0.187767 2.813472
-0.34874 0.206469 -0.062906 -0.214626 0.958661 0.18683 2.811961
-0.349011 0.206587 -0.063042 -0.214353 0.95871 0.18689 2.812207
-0.349124 0.206535 -0.062745 -0.214499 0.958534 0.187626 2.812002
-0.348854 0.206284 -0.063374 -0.214608 0.958787 0.186201 2.811724
-0.34908 0.206296 -0.062983 -0.21495 0.958626 0.186635 2.813033
-0.349193 0.206243 -0.062686 -0.215107 0.958447 0.187369 2.812841
-0.348923 0.205992 -0.063314 -0.215215 0.958701 0.185945 2.812566
-0.348817 0.206082 -0.063199 -0.216508 0.957938 0.188361 2.809889
-0.348798 0.205939 -0.063485 -0.215674 0.958533 0.186277 2.811586
-0.349069 0.20619 -0.062857 -0.215566 0.95828 0.187701 2.811861
-0.34866 0.205781 -0.063531 -0.216755 0.958017 0.187673 2.809413
-0.348911 0.205888 -0.06319 -0.215821 0.958357 0.187013 2.811379
-0.348911 0.205888 -0.06319 -0.215821 0.958357 0.187013 2.811379
-0.349036 0.205942 -0.063019 -0.215353 0.958526 0.186682 2.812363
-0.348729 0.206229 -0.063544 -0.215077 0.958617 0.186533 2.81076
-0.349173 0.206103 -0.062972 -0.214271 0.95904 0.185285 2.814535
-0.348341 0.206952 -0.063439 -0.215014 0.958338 0.188034 2.808894
-0.348621 0.206613 -0.06255 -0.215568 0.958091 0.188658 2.810989
-0.348657 0.206815 -0.062724 -0.213671 0.958938 0.186499 2.812844
-0.348771 0.206765 -0.062427 -0.2138 0.958766 0.187238 2.812646
-0.348772 0.206767 -0.062426 -0.213783 0.958769 0.187241 2.812653
-0.348694 0.206081 -0.063051 -0.215901 0.958128 0.188088 2.810092
-0.348648 0.206715 -0.062597 -0.214233 0.958603 0.187575 2.811676
-0.349013 0.205898 -0.062651 -0.215556 0.958385 0.187171 2.812886
-0.348621 0.206425 -0.063073 -0.214992 0.958511 0.187178 2.811034
-0.349391 0.206761 -0.062524 -0.212849 0.959235 0.185915 2.815214
-0.349043 0.205954 -0.063015 -0.215241 0.958548 0.186701 2.812406
-0.348917 0.2059 -0.063186 -0.215709 0.958378 0.187031 2.811423
-0.348918 0.205901 -0.063185 -0.2157 0.95838 0.187033 2.811426
-0.348805 0.205952 -0.06348 -0.215554 0.958556 0.186297 2.811633
-0.348805 0.205952 -0.06348 -0.215554 0.958556 0.186297 2.811633
-0.348748 0.206481 -0.062901 -0.214507 0.958683 0.186851 2.812025
-0.34969 0.206376 -0.062247 -0.213206 0.959264 0.185355 2.817369
-0.348784 0.206621 -0.062915 -0.214154 0.958708 0.18713 2.811537
-0.348622 0.206427 -0.063072 -0.214974 0.958514 0.187181 2.811041
-0.348844 0.206481 -0.062366 -0.214337 0.958693 0.186993 2.813496
-0.348876 0.206728 -0.062204 -0.21456 0.958445 0.188011 2.813007
-0.348719 0.206426 -0.062537 -0.214815 0.958522 0.187322 2.812526
-0.348775 0.206771 -0.062424 -0.21375 0.958775 0.187247 2.812684
-0.34865 0.206716 -0.062595 -0.214217 0.958606 0.187578 2.8117
-0.34865 0.206716 -0.062595 -0.214217 0.958606 0.187578 2.8117
-0.348844 0.20648 -0.062365 -0.214348 0.958691 0.186992 2.81351
-0.34865 0.206716 -0.062595 -0.214217 0.958606 0.187578 2.8117
-0.348719 0.206426 -0.062537 -0.214815 0.958522 0.187322 2.812526
-0.348719 0.206426 -0.062537 -0.214815 0.958522 0.187322 2.812526
-0.34865 0.206716 -0.062595 -0.214217 0.958606 0.187578 2.8117
-0.348719 0.206426 -0.062537 -0.214815 0.958522 0.187322 2.812526
-0.34865 0.206716 -0.062595 -0.214217 0.958606 0.187578 2.8117
-0.34865 0.206716 -0.062595 -0.214217 0.958606 0.187578 2.8117
-0.349023 0.206879 -0.062082 -0.212816 0.959112 0.186585 2.814651
-0.348606 0.206477 -0.062833 -0.214669 0.958698 0.186586 2.812732
-0.348719 0.206426 -0.062537 -0.214815 0.958522 0.187322 2.812526
-0.348719 0.206426 -0.062537 -0.214815 0.958522 0.187322 2.812526
-0.349023 0.206879 -0.062082 -0.212816 0.959112 0.186585 2.814651
-0.34865 0.206716 -0.062595 -0.214217 0.958606 0.187578 2.8117
-0.348719 0.206426 -0.062537 -0.214815 0.958522 0.187322 2.812526
-0.348719 0.206426 -0.062537 -0.214815 0.958522 0.187322 2.812526
-0.348117 0.206253 -0.063439 -0.215875 0.958174 0.187882 2.808271
-0.348866 0.206577 -0.062416 -0.21307 0.959189 0.185897 2.814168
-0.348368 0.20636 -0.063098 -0.21494 0.958514 0.187221 2.810236
-0.34821 0.206057 -0.06343 -0.215196 0.958591 0.186532 2.809756
-0.348368 0.20636 -0.063098 -0.21494 0.958514 0.187221 2.810236
-0.348493 0.206414 -0.062928 -0.214473 0.958683 0.18689 2.811219
-0.348335 0.206111 -0.06326 -0.214728 0.95876 0.186201 2.810738
-0.348282 0.205962 -0.062847 -0.216302 0.958101 0.187767 2.810566
-0.348792 0.206026 -0.062652 -0.214848 0.958709 0.186327 2.813368
-0.348589 0.206414 -0.062393 -0.214303 0.958694 0.187031 2.81269
-0.347861 0.206434 -0.062906 -0.216043 0.958066 0.188244 2.809196
-0.348657 0.206123 -0.062334 -0.2149 0.95861 0.186776 2.813516
-0.347829 0.206184 -0.063067 -0.215833 0.958313 0.187225 2.809703
-0.348368 0.20636 -0.063098 -0.21494 0.958514 0.187221 2.810236
-0.348368 0.20636 -0.063098 -0.21494 0.958514 0.187221 2.810236
-0.348307 0.206057 -0.062896 -0.215026 0.958601 0.186674 2.811227
-0.34825 0.205712 -0.063008 -0.216091 0.958347 0.186748 2.811071
-0.348413 0.205905 -0.06285 -0.215273 0.958541 0.186698 2.811568
-0.34825 0.205712 -0.063008 -0.216091 0.958347 0.186748 2.811071
-0.348205 0.206346 -0.062554 -0.214429 0.958821 0.186234 2.812654
-0.348055 0.206935 -0.062748 -0.2139 0.958834 0.186773 2.811528
-0.348064 0.206341 -0.062487 -0.214584 0.958837 0.18597 2.813349
-0.348346 0.205712 -0.062473 -0.215921 0.958358 0.186891 2.812541
-0.348403 0.206057 -0.062362 -0.214857 0.958612 0.186816 2.812697
-0.348387 0.20694 -0.061746 -0.213407 0.958837 0.187319 2.813778
-0.348301 0.206346 -0.062019 -0.214255 0.958834 0.186365 2.814129
-0.348107 0.206582 -0.062249 -0.214125 0.958749 0.186951 2.812318
-0.348176 0.206292 -0.06219 -0.214722 0.958665 0.186696 2.813145
-0.348176 0.206292 -0.06219 -0.214722 0.958665 0.186696 2.813145
-0.348176 0.206292 -0.06219 -0.214722 0.958665 0.186696 2.813145
-0.348107 0.206582 -0.062249 -0.214125 0.958749 0.186951 2.812318
-0.347732 0.206421 -0.062761 -0.215527 0.958241 0.187944 2.809369
-0.348271 0.206292 -0.061656 -0.214553 0.958676 0.186838 2.814616
-0.348271 0.206292 -0.061656 -0.214553 0.958676 0.186838 2.814616
-0.348202 0.206582 -0.061715 -0.213955 0.958759 0.187093 2.813789
-0.348176 0.206292 -0.06219 -0.214722 0.958665 0.186696 2.813145
-0.348498 0.206057 -0.061827 -0.214682 0.958625 0.186947 2.814172
-0.348271 0.206292 -0.061656 -0.214553 0.958676 0.186838 2.814616
-0.348176 0.206292 -0.06219 -0.214722 0.958665 0.186696 2.813145
-0.348567 0.205766 -0.061767 -0.215274 0.958544 0.186682 2.815003
-0.34841 0.205463 -0.062099 -0.215531 0.95862 0.185993 2.814524
-0.34795 0.206279 -0.062581 -0.214376 0.958829 0.186252 2.811843
-0.34795 0.206279 -0.062581 -0.214376 0.958829 0.186252 2.811843
-0.348046 0.206279 -0.062047 -0.214207 0.958839 0.186394 2.813314
-0.34774 0.205826 -0.062501 -0.216206 0.958247 0.18713 2.811193
-0.348202 0.206582 -0.061715 -0.21395 0.958763 0.187082 2.813793
-0.347671 0.206117 -0.062559 -0.215609 0.958331 0.187387 2.810367
-0.348271 0.206292 -0.061656 -0.214547 0.958679 0.186827 2.81462
-0.34816 0.20634 -0.061952 -0.214415 0.958852 0.18609 2.814842
-0.348271 0.20629 -0.061655 -0.214558 0.958677 0.186826 2.814634
-0.347972 0.206679 -0.061931 -0.21418 0.958651 0.187388 2.812484
-0.34849 0.206345 -0.060949 -0.213922 0.958856 0.186637 2.817089
-0.348283 0.206539 -0.061217 -0.212866 0.959244 0.185847 2.816425
-0.348737 0.206454 -0.060606 -0.212989 0.959192 0.185975 2.819058
-0.348135 0.206388 -0.061338 -0.214608 0.958578 0.187274 2.81478
-0.348389 0.206387 -0.06117 -0.213114 0.959184 0.185871 2.816766
-0.34791 0.206376 -0.06173 -0.214268 0.958739 0.186841 2.813475
-0.347979 0.206085 -0.061671 -0.214865 0.958655 0.186586 2.814302
-0.348508 0.206552 -0.060824 -0.213209 0.959084 0.186282 2.817734
-0.348165 0.206442 -0.061701 -0.214311 0.958737 0.186802 2.814294
-0.347613 0.2069 -0.061619 -0.213541 0.958873 0.186985 2.813093
-0.348171 0.207422 -0.061135 -0.211585 0.959457 0.186209 2.816038
-0.347962 0.206967 -0.061056 -0.213415 0.958881 0.187088 2.815382
-0.347807 0.206664 -0.061388 -0.213671 0.958958 0.1864 2.814904
-0.347807 0.206664 -0.061388 -0.213671 0.958958 0.1864 2.814904
-0.347807 0.206664 -0.061388 -0.213671 0.958958 0.1864 2.814904
-0.347931 0.206719 -0.061217 -0.213204 0.959126 0.186069 2.815888
-0.347862 0.207009 -0.061277 -0.212606 0.959209 0.186323 2.815061
-0.347738 0.206955 -0.061447 -0.213068 0.959044 0.186643 2.814081
-0.348025 0.206719 -0.060683 -0.21303 0.959139 0.1862 2.817364
-0.348149 0.206774 -0.060511 -0.212563 0.959307 0.185869 2.818349
-0.348025 0.206719 -0.060683 -0.21303 0.959139 0.1862 2.817364
-0.348326 0.207175 -0.060228 -0.211032 0.959724 0.185459 2.819489
-0.348255 0.206621 -0.060465 -0.212811 0.959247 0.185894 2.81869
-0.347746 0.206555 -0.060664 -0.214261 0.958644 0.187333 2.815881
-0.348118 0.206719 -0.060149 -0.212861 0.959149 0.186341 2.818836
-0.347596 0.20723 -0.060431 -0.211793 0.959442 0.186048 2.817149
-0.348103 0.207491 -0.059708 -0.210851 0.95964 0.186099 2.819939
-0.347943 0.207298 -0.059867 -0.211668 0.95945 0.186154 2.819441
-0.347719 0.207286 -0.06026 -0.211326 0.95961 0.185717 2.818134
-0.347666 0.20694 -0.060371 -0.212391 0.959359 0.185796 2.817978
-0.347666 0.20694 -0.060371 -0.212391 0.959359 0.185796 2.817978
-0.347418 0.20683 -0.060714 -0.213324 0.959024 0.186457 2.816008
-0.347789 0.206995 -0.0602 -0.211924 0.959526 0.185465 2.818963
-0.347789 0.206995 -0.0602 -0.211924 0.959526 0.185465 2.818963
-0.347811 0.207286 -0.059726 -0.211158 0.959619 0.185857 2.819606
-0.348035 0.207298 -0.059333 -0.2115 0.959459 0.186294 2.820914
-0.348057 0.207397 -0.059383 -0.210225 0.959952 0.185194 2.821576
-0.34828 0.207409 -0.058988 -0.210568 0.959793 0.185632 2.822886
-0.348057 0.207397 -0.059383 -0.210225 0.959952 0.185194 2.821576
-0.348302 0.206526 -0.059604 -0.212017 0.95957 0.185131 2.821798
-0.348004 0.207051 -0.059494 -0.21129 0.959703 0.185275 2.82142
-0.348004 0.207051 -0.059494 -0.21129 0.959703 0.185275 2.82142
-0.348386 0.207119 -0.059331 -0.211163 0.959577 0.18607 2.82145
-0.347934 0.207341 -0.059555 -0.210692 0.959786 0.185526 2.820591
-0.347934 0.207341 -0.059555 -0.210692 0.959786 0.185526 2.820591
-0.347934 0.207341 -0.059555 -0.210692 0.959786 0.185526 2.820591
-0.348127 0.207107 -0.059322 -0.210823 0.959869 0.184944 2.822406
-0.348127 0.207107 -0.059322 -0.210823 0.959869 0.184944 2.822406
-0.347972 0.206995 -0.059132 -0.211588 0.959546 0.185746 2.821907
-0.348257 0.207347 -0.05855 -0.210199 0.959789 0.186071 2.822844
-0.348602 0.207414 -0.057982 -0.210076 0.959795 0.186177 2.825141
-0.348327 0.207057 -0.058489 -0.210797 0.959706 0.18582 2.823673
-0.348257 0.207347 -0.05855 -0.210199 0.959789 0.186071 2.822844
-0.348501 0.207458 -0.058206 -0.209267 0.960121 0.185407 2.824815
-0.348379 0.207402 -0.058378 -0.209733 0.959955 0.185739 2.823829
-0.348379 0.207402 -0.058378 -0.209733 0.959955 0.185739 2.823829
-0.348501 0.207458 -0.058206 -0.209267 0.960121 0.185407 2.824815
-0.348501 0.207458 -0.058206 -0.209267 0.960121 0.185407 2.824815
-0.348571 0.207168 -0.058145 -0.209866 0.960038 0.185158 2.825645
-0.348571 0.207168 -0.058145 -0.209866 0.960038 0.185158 2.825645
-0.348501 0.207458 -0.058206 -0.209267 0.960121 0.185407 2.824815
-0.348501 0.207458 -0.058206 -0.209267 0.960121 0.185407 2.824815
-0.348571 0.207168 -0.058145 -0.209866 0.960038 0.185158 2.825645
-0.348411 0.207458 -0.05874 -0.209434 0.960111 0.185268 2.823342
-0.348533 0.207514 -0.058568 -0.208968 0.960276 0.184937 2.824328
-0.348482 0.207168 -0.058679 -0.210032 0.960028 0.185019 2.824172
-0.348302 0.207509 -0.059039 -0.209292 0.960284 0.184531 2.823546
-0.348482 0.207168 -0.058679 -0.210032 0.960028 0.185019 2.824172
-0.348372 0.207219 -0.058978 -0.20989 0.960201 0.184282 2.824377
-0.348482 0.207168 -0.058679 -0.210032 0.960028 0.185019 2.824172
-0.348327 0.207057 -0.058489 -0.210797 0.959706 0.18582 2.823673
-0.348462 0.207219 -0.058443 -0.209724 0.960211 0.184421 2.82585
-0.348327 0.207057 -0.058489 -0.210797 0.959706 0.18582 2.823673
-0.348846 0.207526 -0.057637 -0.209146 0.960126 0.185515 2.827115
-0.348724 0.20747 -0.05781 -0.209611 0.959961 0.185846 2.826128
-0.348693 0.207224 -0.057972 -0.2094 0.960203 0.184827 2.826632
-0.348693 0.207224 -0.057972 -0.2094 0.960203 0.184827 2.826632
-0.348623 0.207514 -0.058034 -0.208801 0.960286 0.185075 2.825801
-0.348449 0.207112 -0.058317 -0.210331 0.959872 0.185489 2.824659
-0.348571 0.207168 -0.058145 -0.209866 0.960038 0.185158 2.825645
-0.348815 0.207281 -0.057799 -0.208934 0.960369 0.184496 2.827619
-0.348744 0.20757 -0.057861 -0.208336 0.960451 0.184744 2.826788
-0.348815 0.207281 -0.057799 -0.208934 0.960369 0.184496 2.827619
-0.348815 0.207281 -0.057799 -0.208934 0.960369 0.184496 2.827619
-0.348815 0.207281 -0.057799 -0.208934 0.960369 0.184496 2.827619
-0.348815 0.207281 -0.057799 -0.208934 0.960369 0.184496 2.827619
-0.348571 0.207168 -0.058145 -0.209866 0.960038 0.185158 2.825645
-0.348815 0.207281 -0.057799 -0.208934 0.960369 0.184496 2.827619
-0.348706 0.207332 -0.058098 -0.208792 0.960541 0.183759 2.827823
-0.349089 0.207638 -0.057292 -0.208215 0.960456 0.184852 2.82909
-0.348501 0.207458 -0.058206 -0.209267 0.960121 0.185407 2.824815
-0.348655 0.20757 -0.058396 -0.208502 0.960441 0.184605 2.825314
-0.349089 0.207638 -0.057292 -0.208215 0.960456 0.184852 2.82909
-0.348937 0.207337 -0.057627 -0.208468 0.960533 0.184165 2.828606
-0.349089 0.207638 -0.057292 -0.208215 0.960456 0.184852 2.82909
-0.348987 0.207684 -0.057516 -0.207404 0.96078 0.18408 2.82876
-0.348937 0.207337 -0.057627 -0.208468 0.960533 0.184165 2.828606
-0.349089 0.207638 -0.057292 -0.208215 0.960456 0.184852 2.82909
-0.348775 0.207816 -0.057698 -0.208547 0.960208 0.185763 2.826285
-0.348937 0.207337 -0.057627 -0.208468 0.960533 0.184165 2.828606
-0.348937 0.207337 -0.057627 -0.208468 0.960533 0.184165 2.828606
-0.348866 0.207627 -0.057689 -0.20787 0.960616 0.184412 2.827774
-0.348937 0.207337 -0.057627 -0.208468 0.960533 0.184165 2.828606
-0.348937 0.207337 -0.057627 -0.208468 0.960533 0.184165 2.828606
-0.348693 0.207224 -0.057972 -0.2094 0.960203 0.184827 2.826632
-0.348937 0.207337 -0.057627 -0.208468 0.960533 0.184165 2.828606
-0.348693 0.207224 -0.057972 -0.2094 0.960203 0.184827 2.826632
-0.349018 0.207928 -0.057353 -0.207616 0.960538 0.185099 2.828259
-0.348693 0.207224 -0.057972 -0.2094 0.960203 0.184827 2.826632
-0.348937 0.207337 -0.057627 -0.208468 0.960533 0.184165 2.828606
-0.348937 0.207337 -0.057627 -0.208468 0.960533 0.184165 2.828606
-0.348937 0.207337 -0.057627 -0.208468 0.960533 0.184165 2.828606
-0.348693 0.207224 -0.057972 -0.2094 0.960203 0.184827 2.826632
-0.348937 0.207337 -0.057627 -0.208468 0.960533 0.184165 2.828606
-0.348937 0.207337 -0.057627 -0.208468 0.960533 0.184165 2.828606
-0.348866 0.207627 -0.057689 -0.20787 0.960616 0.184412 2.827774
-0.348937 0.207337 -0.057627 -0.208468 0.960533 0.184165 2.828606
-0.348937 0.207337 -0.057627 -0.208468 0.960533 0.184165 2.828606
-0.348937 0.207337 -0.057627 -0.208468 0.960533 0.184165 2.828606
-0.348709 0.207434 -0.057846 -0.208684 0.960427 0.184472 2.827279
-0.349225 0.207905 -0.056992 -0.207036 0.960843 0.184167 2.830728
-0.348496 0.207567 -0.058029 -0.209828 0.959854 0.186153 2.824802
-0.348343 0.207266 -0.058364 -0.210082 0.959931 0.185465 2.824319
-0.34879 0.208025 -0.057572 -0.207833 0.960432 0.185407 2.826934
-0.348587 0.207378 -0.058019 -0.20915 0.960262 0.184803 2.826292
-0.348752 0.207787 -0.05781 -0.208289 0.960523 0.184423 2.827967
-0.348406 0.207567 -0.058564 -0.209995 0.959844 0.186014 2.823329
-0.348861 0.207735 -0.057511 -0.208432 0.96035 0.18516 2.827764
-0.348343 0.207266 -0.058364 -0.210082 0.959931 0.185465 2.824319
-0.348114 0.207364 -0.058583 -0.210298 0.959825 0.185772 2.822992
-0.34874 0.207679 -0.057684 -0.208897 0.960185 0.185491 2.826777
-0.348358 0.207476 -0.058238 -0.209366 0.960156 0.18511 2.824965
-0.348724 0.207645 -0.05772 -0.207969 0.960651 0.184118 2.827927
-0.348358 0.207476 -0.058238 -0.209366 0.960156 0.18511 2.824965
-0.348963 0.207657 -0.057627 -0.207143 0.961091 0.182742 2.830442
-0.348371 0.207583 -0.058365 -0.208759 0.960494 0.184042 2.826156
-0.34848 0.207532 -0.058066 -0.2089 0.960321 0.184779 2.825952
-0.34848 0.207532 -0.058066 -0.2089 0.960321 0.184779 2.825952
-0.348845 0.207702 -0.057548 -0.207503 0.960815 0.183787 2.828914
-0.348773 0.207991 -0.05761 -0.206904 0.960897 0.184033 2.828081
-0.348409 0.207822 -0.058127 -0.208302 0.960404 0.185028 2.825121
-0.348371 0.207583 -0.058365 -0.208759 0.960494 0.184042 2.826156
-0.348531 0.207878 -0.057955 -0.207836 0.960568 0.184696 2.826108
-0.348602 0.207588 -0.057893 -0.208435 0.960486 0.184448 2.826939
-0.348602 0.207588 -0.057893 -0.208435 0.960486 0.184448 2.826939
-0.348966 0.207759 -0.057375 -0.207037 0.960979 0.183456 2.829901
-0.348805 0.208235 -0.057446 -0.207118 0.960655 0.185052 2.827583
-0.348531 0.207878 -0.057955 -0.207836 0.960568 0.184696 2.826108
-0.348531 0.207878 -0.057955 -0.207836 0.960568 0.184696 2.826108
-0.34883 0.207491 -0.057674 -0.208219 0.960592 0.184141 2.828266
-0.349193 0.207662 -0.057155 -0.206821 0.961084 0.183148 2.831228
-0.348493 0.207639 -0.058192 -0.208292 0.960658 0.183712 2.827143
-0.348602 0.207588 -0.057893 -0.208435 0.960486 0.184448 2.826939
-0.348966 0.207759 -0.057375 -0.207037 0.960979 0.183456 2.829901
-0.348894 0.208048 -0.057437 -0.206438 0.96106 0.183702 2.829068
-0.348531 0.207878 -0.057955 -0.207836 0.960568 0.184696 2.826108
-0.348531 0.207878 -0.057955 -0.207836 0.960568 0.184696 2.826108
-0.348602 0.207588 -0.057893 -0.208435 0.960486 0.184448 2.826939
-0.348652 0.207935 -0.057782 -0.20737 0.960733 0.184365 2.827095
-0.349314 0.20772 -0.056982 -0.206355 0.961247 0.182817 2.832215
-0.348951 0.207548 -0.057501 -0.207753 0.960756 0.18381 2.829253
-0.348773 0.207991 -0.05761 -0.206904 0.960897 0.184033 2.828081
-0.348845 0.207702 -0.057548 -0.207503 0.960815 0.183787 2.828914
-0.348664 0.208043 -0.05791 -0.206762 0.961068 0.183296 2.828282
-0.349135 0.208163 -0.057092 -0.205506 0.961386 0.183039 2.831042
-0.348531 0.207878 -0.057955 -0.207836 0.960568 0.184696 2.826108
-0.349208 0.207874 -0.057029 -0.206105 0.961305 0.182794 2.831876
-0.349434 0.207778 -0.056809 -0.205889 0.96141 0.182486 2.833203
-0.348845 0.207702 -0.057548 -0.207503 0.960815 0.183787 2.828914
-0.348966 0.207759 -0.057375 -0.207037 0.960979 0.183456 2.829901
-0.348966 0.207759 -0.057375 -0.207037 0.960979 0.183456 2.829901
-0.348966 0.207759 -0.057375 -0.207037 0.960979 0.183456 2.829901
-0.349193 0.207662 -0.057155 -0.206821 0.961084 0.183148 2.831228
-0.348966 0.207759 -0.057375 -0.207037 0.960979 0.183456 2.829901
-0.349193 0.207662 -0.057155 -0.206821 0.961084 0.183148 2.831228
-0.349122 0.207952 -0.057218 -0.206223 0.961165 0.183393 2.830394
-0.348966 0.207759 -0.057375 -0.207037 0.960979 0.183456 2.829901
-0.348894 0.208048 -0.057437 -0.206438 0.96106 0.183702 2.829068
-0.348966 0.207759 -0.057375 -0.207037 0.960979 0.183456 2.829901
-0.348857 0.207811 -0.057674 -0.206893 0.96115 0.182719 2.830103
-0.348785 0.2081 -0.057737 -0.206295 0.961232 0.182965 2.829269
-0.348966 0.207759 -0.057375 -0.207037 0.960979 0.183456 2.829901
-0.348894 0.208048 -0.057437 -0.206438 0.96106 0.183702 2.829068
-0.348857 0.207811 -0.057674 -0.206893 0.96115 0.182719 2.830103
-0.349193 0.207662 -0.057155 -0.206821 0.961084 0.183148 2.831228
-0.348966 0.207759 -0.057375 -0.207037 0.960979 0.183456 2.829901
-0.349193 0.207662 -0.057155 -0.206821 0.961084 0.183148 2.831228
-0.349555 0.207836 -0.056636 -0.205423 0.961572 0.182155 2.83419
-0.349193 0.207662 -0.057155 -0.206821 0.961084 0.183148 2.831228
-0.348857 0.207811 -0.057674 -0.206893 0.96115 0.182719 2.830103
-0.349328 0.207932 -0.056856 -0.205639 0.961468 0.182463 2.832864
-0.348966 0.207759 -0.057375 -0.207037 0.960979 0.183456 2.829901
-0.348966 0.207759 -0.057375 -0.207037 0.960979 0.183456 2.829901
-0.348966 0.207759 -0.057375 -0.207037 0.960979 0.183456 2.829901
-0.348966 0.207759 -0.057375 -0.207037 0.960979 0.183456 2.829901
-0.348966 0.207759 -0.057375 -0.207037 0.960979 0.183456 2.829901
-0.349122 0.207952 -0.057218 -0.206223 0.961165 0.183393 2.830394
-0.349555 0.207836 -0.056636 -0.205423 0.961572 0.182155 2.83419
-0.349122 0.207952 -0.057218 -0.206223 0.961165 0.183393 2.830394
-0.349328 0.207932 -0.056856 -0.205639 0.961468 0.182463 2.832864
-0.348894 0.208048 -0.057437 -0.206438 0.96106 0.183702 2.829068
-0.349122 0.207952 -0.057218 -0.206223 0.961165 0.183393 2.830394
-0.348966 0.207759 -0.057375 -0.207037 0.960979 0.183456 2.829901
-0.348894 0.208048 -0.057437 -0.206438 0.96106 0.183702 2.829068
-0.349328 0.207932 -0.056856 -0.205639 0.961468 0.182463 2.832864
-0.348966 0.207759 -0.057375 -0.207037 0.960979 0.183456 2.829901
-0.348966 0.207759 -0.057375 -0.207037 0.960979 0.183456 2.829901
-0.348966 0.207759 -0.057375 -0.207037 0.960979 0.183456 2.829901
-0.349482 0.208125 -0.0567 -0.204825 0.961653 0.182399 2.833355
-0.349015 0.208106 -0.057265 -0.205972 0.961224 0.183371 2.830055
-0.349087 0.207817 -0.057202 -0.206571 0.961142 0.183125 2.830889
-0.348894 0.208048 -0.057437 -0.206438 0.96106 0.183702 2.829068
-0.349328 0.207932 -0.056856 -0.205639 0.961468 0.182463 2.832864
-0.349012 0.208004 -0.057518 -0.206079 0.961337 0.182657 2.830595
-0.348966 0.207759 -0.057375 -0.207037 0.960979 0.183456 2.829901
-0.348966 0.207759 -0.057375 -0.207037 0.960979 0.183456 2.829901
-0.348966 0.207759 -0.057375 -0.207037 0.960979 0.183456 2.829901
-0.349218 0.207985 -0.057155 -0.205494 0.961638 0.181727 2.833064
-0.349555 0.207836 -0.056636 -0.205423 0.961572 0.182155 2.83419
-0.348894 0.208048 -0.057437 -0.206438 0.96106 0.183702 2.829068
-0.348966 0.207759 -0.057375 -0.207037 0.960979 0.183456 2.829901
-0.348894 0.208048 -0.057437 -0.206438 0.96106 0.183702 2.829068
-0.348966 0.207759 -0.057375 -0.207037 0.960979 0.183456 2.829901
-0.349122 0.207952 -0.057218 -0.206223 0.961165 0.183393 2.830394
-0.348966 0.207759 -0.057375 -0.207037 0.960979 0.183456 2.829901
