-0.233772 0.306495 0.155873 -0.038002 -0.961105 -0.273558 3.048281
-0.233772 0.306495 0.155873 -0.038002 -0.961105 -0.273558 3.048281
-0.233772 0.306495 0.155873 -0.038002 -0.961105 -0.273558 3.048281
-0.233772 0.306495 0.155873 -0.038002 -0.961105 -0.273558 3.048281
-0.233652 0.306251 0.15533 -0.037324 -0.961151 -0.273488 3.049738
-0.233532 0.306495 0.156232 -0.038214 -0.961102 -0.273538 3.046807
-0.233641 0.30629 0.155582 -0.03762 -0.961225 -0.273187 3.048465
-0.233772 0.306495 0.155873 -0.038002 -0.961105 -0.273558 3.048281
-0.23363 0.306328 0.155834 -0.037916 -0.961299 -0.272886 3.047192
-0.233891 0.306251 0.154972 -0.037113 -0.961154 -0.273507 3.051213
-0.233434 0.306661 0.15663 -0.038511 -0.960904 -0.27419 3.046421
-0.233772 0.306495 0.155873 -0.038002 -0.961105 -0.273558 3.048281
-0.233869 0.306328 0.155476 -0.037705 -0.961302 -0.272905 3.048667
-0.233891 0.306251 0.154972 -0.037113 -0.961154 -0.273507 3.051213
-0.233532 0.306495 0.156232 -0.038214 -0.961102 -0.273538 3.046807
-0.233532 0.306495 0.156232 -0.038214 -0.961102 -0.273538 3.046807
-0.23352 0.306533 0.156484 -0.038509 -0.961176 -0.273237 3.045533
-0.233532 0.306495 0.156232 -0.038214 -0.961102 -0.273538 3.046807
-0.233532 0.306495 0.156232 -0.038214 -0.961102 -0.273538 3.046807
-0.233772 0.306495 0.155873 -0.038002 -0.961105 -0.273558 3.048281
-0.233801 0.306526 0.156665 -0.038737 -0.961319 -0.272701 3.044322
-0.233772 0.306495 0.155873 -0.038002 -0.961105 -0.273558 3.048281
-0.233532 0.306495 0.156232 -0.038214 -0.961102 -0.273538 3.046807
-0.233783 0.306457 0.155621 -0.037707 -0.961031 -0.273858 3.049555
-0.233532 0.306495 0.156232 -0.038214 -0.961102 -0.273538 3.046807
-0.233772 0.306495 0.155873 -0.038002 -0.961105 -0.273558 3.048281
-0.233772 0.306495 0.155873 -0.038002 -0.961105 -0.273558 3.048281
-0.233772 0.306495 0.155873 -0.038002 -0.961105 -0.273558 3.048281
-0.233891 0.306251 0.154972 -0.037113 -0.961154 -0.273507 3.051213
-0.23363 0.306328 0.155834 -0.037916 -0.961299 -0.272886 3.047192
-0.23388 0.30629 0.155224 -0.037409 -0.961228 -0.273206 3.04994
-0.233772 0.306495 0.155873 -0.038002 -0.961105 -0.273558 3.048281
-0.233772 0.306495 0.155873 -0.038002 -0.961105 -0.273558 3.048281
-0.233532 0.306495 0.156232 -0.038214 -0.961102 -0.273538 3.046807
-0.233532 0.306495 0.156232 -0.038214 -0.961102 -0.273538 3.046807
-0.233532 0.306495 0.156232 -0.038214 -0.961102 -0.273538 3.046807
-0.233772 0.306495 0.155873 -0.038002 -0.961105 -0.273558 3.048281
-0.233772 0.306495 0.155873 -0.038002 -0.961105 -0.273558 3.048281
-0.233532 0.306495 0.156232 -0.038214 -0.961102 -0.273538 3.046807
-0.233825 0.306449 0.156161 -0.038146 -0.961171 -0.273303 3.046869
-0.233772 0.306495 0.155873 -0.038002 -0.961105 -0.273558 3.048281
-0.233772 0.306495 0.155873 -0.038002 -0.961105 -0.273558 3.048281
-0.233772 0.306495 0.155873 -0.038002 -0.961105 -0.273558 3.048281
-0.233772 0.306495 0.155873 -0.038002 -0.961105 -0.273558 3.048281
-0.233869 0.306328 0.155476 -0.037705 -0.961302 -0.272905 3.048667
-0.233772 0.306495 0.155873 -0.038002 -0.961105 -0.273558 3.048281
-0.23376 0.306533 0.156126 -0.038298 -0.961178 -0.273257 3.047008
-0.233641 0.30629 0.155582 -0.03762 -0.961225 -0.273187 3.048465
-0.233794 0.306419 0.155369 -0.037411 -0.960956 -0.274159 3.050828
-0.233772 0.306495 0.155873 -0.038002 -0.961105 -0.273558 3.048281
-0.233772 0.306495 0.155873 -0.038002 -0.961105 -0.273558 3.048281
-0.233532 0.306495 0.156232 -0.038214 -0.961102 -0.273538 3.046807
-0.233772 0.306495 0.155873 -0.038002 -0.961105 -0.273558 3.048281
-0.233532 0.306495 0.156232 -0.038214 -0.961102 -0.273538 3.046807
-0.233772 0.306495 0.155873 -0.038002 -0.961105 -0.273558 3.048281
-0.233652 0.306251 0.15533 -0.037324 -0.961151 -0.273488 3.049738
-0.233869 0.306328 0.155476 -0.037705 -0.961302 -0.272905 3.048667
-0.233772 0.306495 0.155873 -0.038002 -0.961105 -0.273558 3.048281
-0.233891 0.306251 0.154972 -0.037113 -0.961154 -0.273507 3.051213
-0.233772 0.306495 0.155873 -0.038002 -0.961105 -0.273558 3.048281
-0.233772 0.306495 0.155873 -0.038002 -0.961105 -0.273558 3.048281
-0.233783 0.306457 0.155621 -0.037707 -0.961031 -0.273858 3.049555
-0.233555 0.306419 0.155728 -0.037622 -0.960954 -0.27414 3.049354
-0.233869 0.306328 0.155476 -0.037705 -0.961302 -0.272905 3.048667
-0.233772 0.306495 0.155873 -0.038002 -0.961105 -0.273558 3.048281
-0.233772 0.306495 0.155873 -0.038002 -0.961105 -0.273558 3.048281
-0.233532 0.306495 0.156232 -0.038214 -0.961102 -0.273538 3.046807
-0.233532 0.306495 0.156232 -0.038214 -0.961102 -0.273538 3.046807
-0.233772 0.306495 0.155873 -0.038002 -0.961105 -0.273558 3.048281
-0.233532 0.306495 0.156232 -0.038214 -0.961102 -0.273538 3.046807
-0.233772 0.306495 0.155873 -0.038002 -0.961105 -0.273558 3.048281
-0.233532 0.306495 0.156232 -0.038214 -0.961102 -0.273538 3.046807
-0.23363 0.306328 0.155834 -0.037916 -0.961299 -0.272886 3.047192
-0.233772 0.306495 0.155873 -0.038002 -0.961105 -0.273558 3.048281
-0.23376 0.306533 0.156126 -0.038298 -0.961178 -0.273257 3.047008
-0.233532 0.306495 0.156232 -0.038214 -0.961102 -0.273538 3.046807
-0.233869 0.306328 0.155476 -0.037705 -0.961302 -0.272905 3.048667
-0.233532 0.306495 0.156232 -0.038214 -0.961102 -0.273538 3.046807
-0.233532 0.306495 0.156232 -0.038214 -0.961102 -0.273538 3.046807
-0.233772 0.306495 0.155873 -0.038002 -0.961105 -0.273558 3.048281
-0.233772 0.306495 0.155873 -0.038002 -0.961105 -0.273558 3.048281
-0.23388 0.30629 0.155224 -0.037409 -0.961228 -0.273206 3.04994
-0.233772 0.306495 0.155873 -0.038002 -0.961105 -0.273558 3.048281
-0.233532 0.306495 0.156232 -0.038214 -0.961102 -0.273538 3.046807
-0.233532 0.306495 0.156232 -0.038214 -0.961102 -0.273538 3.046807
-0.233794 0.306419 0.155369 -0.037411 -0.960956 -0.274159 3.050828
-0.233532 0.306495 0.156232 -0.038214 -0.961102 -0.273538 3.046807
-0.233772 0.306495 0.155873 -0.038002 -0.961105 -0.273558 3.048281
-0.233532 0.306495 0.156232 -0.038214 -0.961102 -0.273538 3.046807
-0.233772 0.306495 0.155873 -0.038002 -0.961105 -0.273558 3.048281
-0.233532 0.306495 0.156232 -0.038214 -0.961102 -0.273538 3.046807
-0.233772 0.306495 0.155873 -0.038002 -0.961105 -0.273558 3.048281
-0.233772 0.306495 0.155873 -0.038002 -0.961105 -0.273558 3.048281
-0.233532 0.306495 0.156232 -0.038214 -0.961102 -0.273538 3.046807
-0.233869 0.306328 0.155476 -0.037705 -0.961302 -0.272905 3.048667
-0.233891 0.306251 0.154972 -0.037113 -0.961154 -0.273507 3.051213
-0.233772 0.306495 0.155873 -0.038002 -0.961105 -0.273558 3.048281
-0.233532 0.306495 0.156232 -0.038214 -0.961102 -0.273538 3.046807
-0.233544 0.306457 0.15598 -0.037918 -0.961028 -0.273839 3.04808
-0.233772 0.306495 0.155873 -0.038002 -0.961105 -0.273558 3.048281
-0.233436 0.306781 0.15617 -0.038902 -0.961087 -0.273494 3.047481
-0.233555 0.306419 0.155728 -0.037622 -0.960954 -0.27414 3.049354
-0.233532 0.306495 0.156232 -0.038214 -0.961102 -0.273538 3.046807
-0.233555 0.306419 0.155728 -0.037622 -0.960954 -0.27414 3.049354
-0.233532 0.306495 0.156232 -0.038214 -0.961102 -0.273538 3.046807
-0.233772 0.306495 0.155873 -0.038002 -0.961105 -0.273558 3.048281
-0.233532 0.306495 0.156232 -0.038214 -0.961102 -0.273538 3.046807
-0.233783 0.306457 0.155621 -0.037707 -0.961031 -0.273858 3.049555
-0.233772 0.306495 0.155873 -0.038002 -0.961105 -0.273558 3.048281
-0.233434 0.306661 0.15663 -0.038511 -0.960904 -0.27419 3.046421
-0.233772 0.306495 0.155873 -0.038002 -0.961105 -0.273558 3.048281
-0.233532 0.306495 0.156232 -0.038214 -0.961102 -0.273538 3.046807
-0.233532 0.306495 0.156232 -0.038214 -0.961102 -0.273538 3.046807
-0.233772 0.306495 0.155873 -0.038002 -0.961105 -0.273558 3.048281
-0.233532 0.306495 0.156232 -0.038214 -0.961102 -0.273538 3.046807
-0.233532 0.306495 0.156232 -0.038214 -0.961102 -0.273538 3.046807
-0.233532 0.306495 0.156232 -0.038214 -0.961102 -0.273538 3.046807
-0.233772 0.306495 0.155873 -0.038002 -0.961105 -0.273558 3.048281
-0.233772 0.306495 0.155873 -0.038002 -0.961105 -0.273558 3.048281
-0.233772 0.306495 0.155873 -0.038002 -0.961105 -0.273558 3.048281
-0.233772 0.306495 0.155873 -0.038002 -0.961105 -0.273558 3.048281
-0.233652 0.306251 0.15533 -0.037324 -0.961151 -0.273488 3.049738
-0.233532 0.306495 0.156232 -0.038214 -0.961102 -0.273538 3.046807
-0.233532 0.306495 0.156232 -0.038214 -0.961102 -0.273538 3.046807
-0.233532 0.306495 0.156232 -0.038214 -0.961102 -0.273538 3.046807
-0.233544 0.306457 0.15598 -0.037918 -0.961028 -0.273839 3.04808
-0.233532 0.306495 0.156232 -0.038214 -0.961102 -0.273538 3.046807
-0.233532 0.306495 0.156232 -0.038214 -0.961102 -0.273538 3.046807
-0.233652 0.306251 0.15533 -0.037324 -0.961151 -0.273488 3.049738
-0.233532 0.306495 0.156232 -0.038214 -0.961102 -0.273538 3.046807
-0.233532 0.306495 0.156232 -0.038214 -0.961102 -0.273538 3.046807
-0.23363 0.306328 0.155834 -0.037916 -0.961299 -0.272886 3.047192
-0.233772 0.306495 0.155873 -0.038002 -0.961105 -0.273558 3.048281
-0.233772 0.306495 0.155873 -0.038002 -0.961105 -0.273558 3.048281
-0.233532 0.306495 0.156232 -0.038214 -0.961102 -0.273538 3.046807
-0.233532 0.306495 0.156232 -0.038214 -0.961102 -0.273538 3.046807
-0.233772 0.306495 0.155873 -0.038002 -0.961105 -0.273558 3.048281
-0.233532 0.306495 0.156232 -0.038214 -0.961102 -0.273538 3.046807
-0.233532 0.306495 0.156232 -0.038214 -0.961102 -0.273538 3.046807
-0.233532 0.306495 0.156232 -0.038214 -0.961102 -0.273538 3.046807
-0.233794 0.306419 0.155369 -0.037411 -0.960956 -0.274159 3.050828
-0.233891 0.306251 0.154972 -0.037113 -0.961154 -0.273507 3.051213
-0.233772 0.306495 0.155873 -0.038002 -0.961105 -0.273558 3.048281
-0.233532 0.306495 0.156232 -0.038214 -0.961102 -0.273538 3.046807
-0.233532 0.306495 0.156232 -0.038214 -0.961102 -0.273538 3.046807
-0.233532 0.306495 0.156232 -0.038214 -0.961102 -0.273538 3.046807
-0.233532 0.306495 0.156232 -0.038214 -0.961102 -0.273538 3.046807
-0.233772 0.306495 0.155873 -0.038002 -0.961105 -0.273558 3.048281
-0.233434 0.306661 0.15663 -0.038511 -0.960904 -0.27419 3.046421
-0.233532 0.306495 0.156232 -0.038214 -0.961102 -0.273538 3.046807
-0.233772 0.306495 0.155873 -0.038002 -0.961105 -0.273558 3.048281
-0.233532 0.306495 0.156232 -0.038214 -0.961102 -0.273538 3.046807
-0.23352 0.306533 0.156484 -0.038509 -0.961176 -0.273237 3.045533
-0.233532 0.306495 0.156232 -0.038214 -0.961102 -0.273538 3.046807
-0.23352 0.306533 0.156484 -0.038509 -0.961176 -0.273237 3.045533
-0.23376 0.306533 0.156126 -0.038298 -0.961178 -0.273257 3.047008
-0.23352 0.306533 0.156484 -0.038509 -0.961176 -0.273237 3.045533
-0.23376 0.306533 0.156126 -0.038298 -0.961178 -0.273257 3.047008
-0.23352 0.306533 0.156484 -0.038509 -0.961176 -0.273237 3.045533
-0.23352 0.306533 0.156484 -0.038509 -0.961176 -0.273237 3.045533
-0.23352 0.306533 0.156484 -0.038509 -0.961176 -0.273237 3.045533
-0.233422 0.306699 0.156882 -0.038806 -0.960978 -0.273889 3.045147
-0.23352 0.306533 0.156484 -0.038509 -0.961176 -0.273237 3.045533
-0.233783 0.306457 0.155621 -0.037707 -0.961031 -0.273858 3.049555
-0.23352 0.306533 0.156484 -0.038509 -0.961176 -0.273237 3.045533
-0.23376 0.306533 0.156126 -0.038298 -0.961178 -0.273257 3.047008
-0.23352 0.306533 0.156484 -0.038509 -0.961176 -0.273237 3.045533
-0.23352 0.306533 0.156484 -0.038509 -0.961176 -0.273237 3.045533
-0.23352 0.306533 0.156484 -0.038509 -0.961176 -0.273237 3.045533
-0.23352 0.306533 0.156484 -0.038509 -0.961176 -0.273237 3.045533
-0.23352 0.306533 0.156484 -0.038509 -0.961176 -0.273237 3.045533
-0.233547 0.306565 0.157275 -0.039244 -0.961389 -0.272379 3.041573
-0.233618 0.306367 0.156087 -0.038212 -0.961373 -0.272584 3.045919
-0.23352 0.306533 0.156484 -0.038509 -0.961176 -0.273237 3.045533
-0.233825 0.306449 0.156161 -0.038146 -0.961171 -0.273303 3.046869
-0.23352 0.306533 0.156484 -0.038509 -0.961176 -0.273237 3.045533
-0.23352 0.306533 0.156484 -0.038509 -0.961176 -0.273237 3.045533
-0.23352 0.306533 0.156484 -0.038509 -0.961176 -0.273237 3.045533
-0.23352 0.306533 0.156484 -0.038509 -0.961176 -0.273237 3.045533
-0.23352 0.306533 0.156484 -0.038509 -0.961176 -0.273237 3.045533
-0.233662 0.306699 0.156524 -0.038594 -0.960981 -0.273909 3.046621
-0.23376 0.306533 0.156126 -0.038298 -0.961178 -0.273257 3.047008
-0.23352 0.306533 0.156484 -0.038509 -0.961176 -0.273237 3.045533
-0.23352 0.306533 0.156484 -0.038509 -0.961176 -0.273237 3.045533
-0.23352 0.306533 0.156484 -0.038509 -0.961176 -0.273237 3.045533
-0.23376 0.306533 0.156126 -0.038298 -0.961178 -0.273257 3.047008
-0.233547 0.306565 0.157275 -0.039244 -0.961389 -0.272379 3.041573
-0.233618 0.306367 0.156087 -0.038212 -0.961373 -0.272584 3.045919
-0.23352 0.306533 0.156484 -0.038509 -0.961176 -0.273237 3.045533
-0.23376 0.306533 0.156126 -0.038298 -0.961178 -0.273257 3.047008
-0.23352 0.306533 0.156484 -0.038509 -0.961176 -0.273237 3.045533
-0.23352 0.306533 0.156484 -0.038509 -0.961176 -0.273237 3.045533
-0.23352 0.306533 0.156484 -0.038509 -0.961176 -0.273237 3.045533
-0.23352 0.306533 0.156484 -0.038509 -0.961176 -0.273237 3.045533
-0.233869 0.306328 0.155476 -0.037705 -0.961302 -0.272905 3.048667
-0.233544 0.306457 0.15598 -0.037918 -0.961028 -0.273839 3.04808
-0.23352 0.306533 0.156484 -0.038509 -0.961176 -0.273237 3.045533
-0.23352 0.306533 0.156484 -0.038509 -0.961176 -0.273237 3.045533
-0.23352 0.306533 0.156484 -0.038509 -0.961176 -0.273237 3.045533
-0.23376 0.306533 0.156126 -0.038298 -0.961178 -0.273257 3.047008
-0.23376 0.306533 0.156126 -0.038298 -0.961178 -0.273257 3.047008
-0.23352 0.306533 0.156484 -0.038509 -0.961176 -0.273237 3.045533
-0.23376 0.306533 0.156126 -0.038298 -0.961178 -0.273257 3.047008
-0.23352 0.306533 0.156484 -0.038509 -0.961176 -0.273237 3.045533
-0.23376 0.306533 0.156126 -0.038298 -0.961178 -0.273257 3.047008
-0.23376 0.306533 0.156126 -0.038298 -0.961178 -0.273257 3.047008
-0.23352 0.306533 0.156484 -0.038509 -0.961176 -0.273237 3.045533
-0.23376 0.306533 0.156126 -0.038298 -0.961178 -0.273257 3.047008
-0.23376 0.306533 0.156126 -0.038298 -0.961178 -0.273257 3.047008
-0.23376 0.306533 0.156126 -0.038298 -0.961178 -0.273257 3.047008
-0.23352 0.306533 0.156484 -0.038509 -0.961176 -0.273237 3.045533
-0.233631 0.30645 0.156578 -0.038466 -0.960967 -0.273975 3.047067
-0.23352 0.306533 0.156484 -0.038509 -0.961176 -0.273237 3.045533
-0.233422 0.306699 0.156882 -0.038806 -0.960978 -0.273889 3.045147
-0.23352 0.306533 0.156484 -0.038509 -0.961176 -0.273237 3.045533
-0.233618 0.306367 0.156087 -0.038212 -0.961373 -0.272584 3.045919
-0.23352 0.306533 0.156484 -0.038509 -0.961176 -0.273237 3.045533
-0.23352 0.306533 0.156484 -0.038509 -0.961176 -0.273237 3.045533
-0.23376 0.306533 0.156126 -0.038298 -0.961178 -0.273257 3.047008
-0.23352 0.306533 0.156484 -0.038509 -0.961176 -0.273237 3.045533
-0.23376 0.306533 0.156126 -0.038298 -0.961178 -0.273257 3.047008
-0.233641 0.30629 0.155582 -0.03762 -0.961225 -0.273187 3.048465
-0.233544 0.306457 0.15598 -0.037918 -0.961028 -0.273839 3.04808
-0.23352 0.306533 0.156484 -0.038509 -0.961176 -0.273237 3.045533
-0.233544 0.306457 0.15598 -0.037918 -0.961028 -0.273839 3.04808
-0.23376 0.306533 0.156126 -0.038298 -0.961178 -0.273257 3.047008
-0.23352 0.306533 0.156484 -0.038509 -0.961176 -0.273237 3.045533
-0.23352 0.306533 0.156484 -0.038509 -0.961176 -0.273237 3.045533
-0.23352 0.306533 0.156484 -0.038509 -0.961176 -0.273237 3.045533
-0.233857 0.306367 0.155728 -0.038002 -0.961376 -0.272604 3.047394
-0.23352 0.306533 0.156484 -0.038509 -0.961176 -0.273237 3.045533
-0.23352 0.306533 0.156484 -0.038509 -0.961176 -0.273237 3.045533
-0.233508 0.306572 0.156736 -0.038805 -0.961249 -0.272936 3.044259
-0.233508 0.306572 0.156736 -0.038805 -0.961249 -0.272936 3.044259
-0.233508 0.306572 0.156736 -0.038805 -0.961249 -0.272936 3.044259
-0.23352 0.306533 0.156484 -0.038509 -0.961176 -0.273237 3.045533
-0.233508 0.306572 0.156736 -0.038805 -0.961249 -0.272936 3.044259
-0.233508 0.306572 0.156736 -0.038805 -0.961249 -0.272936 3.044259
-0.233508 0.306572 0.156736 -0.038805 -0.961249 -0.272936 3.044259
-0.23363 0.306328 0.155834 -0.037916 -0.961299 -0.272886 3.047192
-0.233508 0.306572 0.156736 -0.038805 -0.961249 -0.272936 3.044259
-0.233508 0.306572 0.156736 -0.038805 -0.961249 -0.272936 3.044259
-0.233508 0.306572 0.156736 -0.038805 -0.961249 -0.272936 3.044259
-0.233508 0.306572 0.156736 -0.038805 -0.961249 -0.272936 3.044259
-0.233508 0.306572 0.156736 -0.038805 -0.961249 -0.272936 3.044259
-0.233508 0.306572 0.156736 -0.038805 -0.961249 -0.272936 3.044259
-0.233508 0.306572 0.156736 -0.038805 -0.961249 -0.272936 3.044259
-0.233508 0.306572 0.156736 -0.038805 -0.961249 -0.272936 3.044259
-0.233508 0.306572 0.156736 -0.038805 -0.961249 -0.272936 3.044259
-0.233508 0.306572 0.156736 -0.038805 -0.961249 -0.272936 3.044259
-0.233508 0.306572 0.156736 -0.038805 -0.961249 -0.272936 3.044259
-0.233508 0.306572 0.156736 -0.038805 -0.961249 -0.272936 3.044259
-0.233606 0.306405 0.156339 -0.038508 -0.961446 -0.272283 3.044646
-0.233508 0.306572 0.156736 -0.038805 -0.961249 -0.272936 3.044259
-0.233508 0.306572 0.156736 -0.038805 -0.961249 -0.272936 3.044259
-0.233508 0.306572 0.156736 -0.038805 -0.961249 -0.272936 3.044259
-0.233508 0.306572 0.156736 -0.038805 -0.961249 -0.272936 3.044259
-0.233508 0.306572 0.156736 -0.038805 -0.961249 -0.272936 3.044259
-0.233508 0.306572 0.156736 -0.038805 -0.961249 -0.272936 3.044259
-0.233532 0.306495 0.156232 -0.038214 -0.961102 -0.273538 3.046807
-0.23363 0.306328 0.155834 -0.037916 -0.961299 -0.272886 3.047192
-0.233508 0.306572 0.156736 -0.038805 -0.961249 -0.272936 3.044259
-0.233748 0.306572 0.156378 -0.038594 -0.961252 -0.272956 3.045734
-0.233748 0.306572 0.156378 -0.038594 -0.961252 -0.272956 3.045734
-0.233508 0.306572 0.156736 -0.038805 -0.961249 -0.272936 3.044259
-0.233508 0.306572 0.156736 -0.038805 -0.961249 -0.272936 3.044259
-0.233532 0.306495 0.156232 -0.038214 -0.961102 -0.273538 3.046807
-0.233508 0.306572 0.156736 -0.038805 -0.961249 -0.272936 3.044259
-0.233748 0.306572 0.156378 -0.038594 -0.961252 -0.272956 3.045734
-0.23363 0.306328 0.155834 -0.037916 -0.961299 -0.272886 3.047192
-0.233508 0.306572 0.156736 -0.038805 -0.961249 -0.272936 3.044259
-0.233508 0.306572 0.156736 -0.038805 -0.961249 -0.272936 3.044259
-0.233606 0.306405 0.156339 -0.038508 -0.961446 -0.272283 3.044646
-0.233508 0.306572 0.156736 -0.038805 -0.961249 -0.272936 3.044259
-0.233508 0.306572 0.156736 -0.038805 -0.961249 -0.272936 3.044259
-0.233508 0.306572 0.156736 -0.038805 -0.961249 -0.272936 3.044259
-0.233508 0.306572 0.156736 -0.038805 -0.961249 -0.272936 3.044259
-0.233508 0.306572 0.156736 -0.038805 -0.961249 -0.272936 3.044259
-0.233508 0.306572 0.156736 -0.038805 -0.961249 -0.272936 3.044259
-0.233748 0.306572 0.156378 -0.038594 -0.961252 -0.272956 3.045734
-0.233508 0.306572 0.156736 -0.038805 -0.961249 -0.272936 3.044259
-0.233508 0.306572 0.156736 -0.038805 -0.961249 -0.272936 3.044259
-0.233508 0.306572 0.156736 -0.038805 -0.961249 -0.272936 3.044259
-0.233508 0.306572 0.156736 -0.038805 -0.961249 -0.272936 3.044259
-0.233857 0.306367 0.155728 -0.038002 -0.961376 -0.272604 3.047394
-0.233748 0.306572 0.156378 -0.038594 -0.961252 -0.272956 3.045734
-0.23363 0.306328 0.155834 -0.037916 -0.961299 -0.272886 3.047192
-0.23363 0.306328 0.155834 -0.037916 -0.961299 -0.272886 3.047192
-0.23352 0.306533 0.156484 -0.038509 -0.961176 -0.273237 3.045533
-0.233846 0.306405 0.15598 -0.038298 -0.961449 -0.272303 3.046121
-0.233508 0.306572 0.156736 -0.038805 -0.961249 -0.272936 3.044259
-0.233508 0.306572 0.156736 -0.038805 -0.961249 -0.272936 3.044259
-0.233396 0.306775 0.157386 -0.039396 -0.961125 -0.273287 3.042598
-0.23339 0.30645 0.156936 -0.038677 -0.960964 -0.273955 3.045592
-0.233508 0.306572 0.156736 -0.038805 -0.961249 -0.272936 3.044259
-0.233508 0.306572 0.156736 -0.038805 -0.961249 -0.272936 3.044259
-0.233508 0.306572 0.156736 -0.038805 -0.961249 -0.272936 3.044259
-0.233508 0.306572 0.156736 -0.038805 -0.961249 -0.272936 3.044259
-0.233508 0.306572 0.156736 -0.038805 -0.961249 -0.272936 3.044259
-0.233508 0.306572 0.156736 -0.038805 -0.961249 -0.272936 3.044259
-0.233508 0.306572 0.156736 -0.038805 -0.961249 -0.272936 3.044259
-0.233748 0.306572 0.156378 -0.038594 -0.961252 -0.272956 3.045734
-0.233508 0.306572 0.156736 -0.038805 -0.961249 -0.272936 3.044259
-0.233508 0.306572 0.156736 -0.038805 -0.961249 -0.272936 3.044259
-0.233508 0.306572 0.156736 -0.038805 -0.961249 -0.272936 3.044259
-0.233748 0.306572 0.156378 -0.038594 -0.961252 -0.272956 3.045734
-0.233508 0.306572 0.156736 -0.038805 -0.961249 -0.272936 3.044259
-0.233508 0.306572 0.156736 -0.038805 -0.961249 -0.272936 3.044259
-0.233508 0.306572 0.156736 -0.038805 -0.961249 -0.272936 3.044259
-0.233508 0.306572 0.156736 -0.038805 -0.961249 -0.272936 3.044259
-0.233508 0.306572 0.156736 -0.038805 -0.961249 -0.272936 3.044259
-0.233869 0.306328 0.155476 -0.037705 -0.961302 -0.272905 3.048667
-0.233748 0.306572 0.156378 -0.038594 -0.961252 -0.272956 3.045734
-0.23363 0.306328 0.155834 -0.037916 -0.961299 -0.272886 3.047192
-0.233508 0.306572 0.156736 -0.038805 -0.961249 -0.272936 3.044259
-0.233508 0.306572 0.156736 -0.038805 -0.961249 -0.272936 3.044259
-0.233409 0.306737 0.157134 -0.039101 -0.961052 -0.273588 3.043873
-0.233508 0.306572 0.156736 -0.038805 -0.961249 -0.272936 3.044259
-0.233532 0.306495 0.156232 -0.038214 -0.961102 -0.273538 3.046807
-0.23363 0.306328 0.155834 -0.037916 -0.961299 -0.272886 3.047192
-0.233508 0.306572 0.156736 -0.038805 -0.961249 -0.272936 3.044259
-0.233508 0.306572 0.156736 -0.038805 -0.961249 -0.272936 3.044259
-0.233748 0.306572 0.156378 -0.038594 -0.961252 -0.272956 3.045734
-0.233378 0.306488 0.157188 -0.038972 -0.961038 -0.273654 3.044318
-0.233396 0.306775 0.157386 -0.039396 -0.961125 -0.273287 3.042598
-0.233748 0.306572 0.156378 -0.038594 -0.961252 -0.272956 3.045734
-0.233508 0.306572 0.156736 -0.038805 -0.961249 -0.272936 3.044259
-0.233508 0.306572 0.156736 -0.038805 -0.961249 -0.272936 3.044259
-0.233508 0.306572 0.156736 -0.038805 -0.961249 -0.272936 3.044259
-0.233508 0.306572 0.156736 -0.038805 -0.961249 -0.272936 3.044259
-0.233508 0.306572 0.156736 -0.038805 -0.961249 -0.272936 3.044259
-0.233508 0.306572 0.156736 -0.038805 -0.961249 -0.272936 3.044259
-0.233508 0.306572 0.156736 -0.038805 -0.961249 -0.272936 3.044259
-0.233508 0.306572 0.156736 -0.038805 -0.961249 -0.272936 3.044259
-0.233618 0.306367 0.156087 -0.038212 -0.961373 -0.272584 3.045919
-0.233508 0.306572 0.156736 -0.038805 -0.961249 -0.272936 3.044259
-0.233508 0.306572 0.156736 -0.038805 -0.961249 -0.272936 3.044259
-0.233508 0.306572 0.156736 -0.038805 -0.961249 -0.272936 3.044259
-0.233508 0.30657 0.156736 -0.038793 -0.961246 -0.272949 3.044253
-0.233508 0.306569 0.156737 -0.038781 -0.961242 -0.272963 3.044248
-0.233533 0.30649 0.156233 -0.038167 -0.961088 -0.273593 3.046783
-0.23351 0.306563 0.156738 -0.038724 -0.961228 -0.273021 3.044212
-0.233511 0.306558 0.156739 -0.038677 -0.961215 -0.273076 3.044189
-0.233512 0.306552 0.156741 -0.038628 -0.9612 -0.273134 3.044149
-0.233753 0.306547 0.156387 -0.038371 -0.961188 -0.273214 3.045545
-0.233513 0.30656 0.156766 -0.038706 -0.961156 -0.273277 3.043835
-0.233513 0.306567 0.156784 -0.038785 -0.961128 -0.273364 3.043606
-0.233516 0.306564 0.156807 -0.038775 -0.961075 -0.273554 3.043287
-0.233518 0.306564 0.156829 -0.038796 -0.961039 -0.273677 3.042994
-0.23352 0.30657 0.156851 -0.038859 -0.960996 -0.273819 3.042706
-0.233764 0.306564 0.156518 -0.03861 -0.960941 -0.274048 3.04381
-0.233527 0.306556 0.156906 -0.038791 -0.960888 -0.274207 3.041908
-0.233532 0.306547 0.156935 -0.03873 -0.960815 -0.274472 3.041483
-0.233647 0.306334 0.156317 -0.038095 -0.960878 -0.274338 3.042681
-0.233774 0.306077 0.155444 -0.037163 -0.960911 -0.274351 3.04513
-0.233779 0.30607 0.155479 -0.037108 -0.960812 -0.274704 3.044648
-0.233772 0.306108 0.155775 -0.037445 -0.960818 -0.27464 3.042768
-0.233743 0.306075 0.155012 -0.036722 -0.960559 -0.275641 3.046309
-0.233737 0.306109 0.1553 -0.036984 -0.960514 -0.275764 3.044559
-0.233794 0.305954 0.154419 -0.036347 -0.96049 -0.275932 3.046862
-0.233908 0.305607 0.154268 -0.035215 -0.960337 -0.276609 3.046822
-0.234209 0.305386 0.152765 -0.033815 -0.960219 -0.277193 3.051917
-0.234326 0.305129 0.151913 -0.032924 -0.960221 -0.277293 3.054069
-0.233876 0.305553 0.152083 -0.033857 -0.960237 -0.277126 3.052522
-0.234432 0.304948 0.151612 -0.032616 -0.96023 -0.277297 3.053093
-0.234578 0.304573 0.150085 -0.031319 -0.960298 -0.277211 3.056959
-0.234686 0.304243 0.149943 -0.030338 -0.96013 -0.277903 3.056832
-0.234659 0.304274 0.148725 -0.030113 -0.960438 -0.27686 3.058535
-0.235479 0.303322 0.14717 -0.027046 -0.960204 -0.277987 3.063538
-0.235456 0.302994 0.146777 -0.026336 -0.959922 -0.279028 3.065651
-0.235996 0.302622 0.145954 -0.025196 -0.960293 -0.277853 3.064448
-0.236341 0.302128 0.143564 -0.022856 -0.960194 -0.278398 3.072073
-0.236352 0.302151 0.143884 -0.023079 -0.960143 -0.278555 3.069829
-0.236771 0.301511 0.142313 -0.021148 -0.96027 -0.278272 3.073086
-0.237172 0.300956 0.14118 -0.019345 -0.960171 -0.278742 3.075718
-0.237267 0.300492 0.139409 -0.017505 -0.960137 -0.27898 3.080539
-0.237587 0.299994 0.138234 -0.01561 -0.960061 -0.279356 3.083208
-0.238102 0.299791 0.137189 -0.014791 -0.960106 -0.279245 3.085339
-0.238476 0.299091 0.135377 -0.012507 -0.960133 -0.279264 3.089555
-0.23882 0.29857 0.133523 -0.01061 -0.960143 -0.279309 3.094598
-0.239026 0.298431 0.13255 -0.009964 -0.960117 -0.279422 3.096721
-0.239551 0.297402 0.131129 -0.007269 -0.960041 -0.279766 3.098375
-0.239862 0.296783 0.128865 -0.005311 -0.960237 -0.279136 3.103638
-0.240289 0.29679 0.128468 -0.00497 -0.96015 -0.279442 3.103985
-0.240587 0.296033 0.12639 -0.002335 -0.960054 -0.279804 3.109572
-0.241085 0.29608 0.125211 -0.001735 -0.960265 -0.279085 3.112415
-0.24121 0.295491 0.124234 0.000207 -0.959878 -0.280417 3.116113
-0.241876 0.294598 0.122456 0.00229 -0.960317 -0.278903 3.118278
-0.242081 0.294194 0.120845 0.003695 -0.960378 -0.278677 3.12176
-0.242632 0.293394 0.118969 0.006149 -0.960427 -0.278462 3.125675
-0.242796 0.292943 0.117109 0.007848 -0.960395 -0.278532 3.130328
-0.243314 0.292417 0.116107 0.009492 -0.960413 -0.27842 3.131697
-0.243541 0.291674 0.114286 0.011844 -0.960437 -0.278244 3.135873
-0.244011 0.291261 0.112871 0.012885 -0.960568 -0.277748 3.137981
-0.24473 0.289957 0.111052 0.015893 -0.960761 -0.276921 3.140404
-0.245088 0.289792 0.109011 -0.017129 0.960976 0.276102 3.138172
-0.245361 0.28876 0.107794 -0.019366 0.961069 0.275628 3.13633
-0.245718 0.288635 0.104565 -0.021109 0.961356 0.274496 3.128364
-0.246497 0.287539 0.10275 -0.023945 0.961331 0.274352 3.124745
-0.246267 0.287151 0.100912 -0.02558 0.961139 0.274877 3.11883
-0.247278 0.286311 0.099843 -0.027543 0.961382 0.273835 3.119535
-0.247014 0.286032 0.097825 -0.028576 0.96147 0.273421 3.113889
-0.247412 0.285445 0.096579 -0.030498 0.961371 0.273561 3.111568
-0.248063 0.283993 0.093856 -0.034552 0.961331 0.27322 3.105116
-0.247718 0.283901 0.091503 -0.035761 0.961531 0.272358 3.100477
-0.248486 0.282868 0.090189 -0.038075 0.961683 0.271506 3.099442
-0.248332 0.282678 0.089279 -0.038925 0.961479 0.27211 3.096425
-0.248935 0.281797 0.08671 -0.041754 0.961531 0.271505 3.090967
-0.249389 0.281109 0.085594 -0.043049 0.961804 0.270332 3.09067
-0.249552 0.280082 0.083063 -0.045955 0.961906 0.269489 3.085266
-0.249755 0.279657 0.082462 -0.047098 0.961728 0.269928 3.08402
-0.250117 0.279011 0.079592 -0.049306 0.96201 0.268525 3.079278
-0.250164 0.278359 0.07888 -0.051084 0.961707 0.269276 3.076818
-0.250146 0.27743 0.076241 -0.054523 0.961346 0.269892 3.069659
-0.250347 0.276463 0.073559 -0.056996 0.961764 0.267885 3.0656
-0.250478 0.276053 0.07188 -0.05834 0.961654 0.26799 3.060389
-0.250633 0.275214 0.070663 -0.06026 0.961729 0.267295 3.059446
-0.250647 0.274155 0.068146 -0.063179 0.96181 0.266325 3.05398
-0.250948 0.273944 0.067355 -0.063738 0.961887 0.265915 3.053527
-0.251136 0.273228 0.065289 -0.065761 0.96219 0.264321 3.050821
-0.25153 0.272062 0.062394 -0.068926 0.96221 0.263442 3.043413
-0.251422 0.271239 0.06067 -0.07141 0.961917 0.263849 3.038179
-0.251652 0.270682 0.059542 -0.072224 0.962223 0.262507 3.037841
-0.25226 0.270053 0.058554 -0.073628 0.962132 0.262451 3.036389
-0.251978 0.268604 0.055196 -0.077568 0.962174 0.26116 3.028171
-0.252133 0.268096 0.053791 -0.078651 0.962345 0.260205 3.026072
-0.252011 0.267297 0.052305 -0.080803 0.962319 0.259639 3.023775
-0.252069 0.267175 0.051227 -0.081339 0.962361 0.259316 3.021855
-0.25206 0.265737 0.048684 -0.084469 0.96262 0.257349 3.017624
-0.251923 0.265104 0.046919 -0.087023 0.962325 0.257598 3.012883
-0.252237 0.26497 0.046373 -0.087013 0.962521 0.256871 3.013495
-0.252012 0.263876 0.0439 -0.089805 0.962576 0.255702 3.007872
-0.252338 0.263147 0.042437 -0.091062 0.962911 0.253988 3.006282
-0.252334 0.262668 0.041173 -0.092616 0.962834 0.253719 3.003831
-0.252489 0.261237 0.039395 -0.095599 0.962876 0.25245 3.001392
-0.251771 0.261046 0.037194 -0.096821 0.962879 0.251972 2.995127
-0.251927 0.260173 0.035325 -0.098981 0.962778 0.251516 2.990737
-0.252278 0.259482 0.0341 -0.099744 0.963331 0.249087 2.991885
-0.251732 0.258852 0.032486 -0.101869 0.962959 0.249665 2.986092
-0.251935 0.258106 0.031412 -0.10308 0.963195 0.248255 2.985855
-0.251772 0.257554 0.029918 -0.104923 0.963091 0.247885 2.982195
-0.251573 0.257091 0.028264 -0.106279 0.963112 0.247224 2.978737
-0.251556 0.256174 0.026717 -0.108371 0.963207 0.245943 2.97631
-0.251402 0.255438 0.025119 -0.110111 0.963297 0.244816 2.97328
-0.251229 0.255254 0.023808 -0.110961 0.963248 0.244625 2.969942
-0.250923 0.25447 0.022372 -0.112701 0.963242 0.24385 2.967303
-0.250641 0.253662 0.020561 -0.114769 0.963231 0.242927 2.963364
-0.250854 0.253248 0.01929 -0.114829 0.963806 0.240607 2.96359
-0.250425 0.252749 0.01819 -0.116159 0.963639 0.240637 2.960221
-0.249884 0.251767 0.015899 -0.119261 0.963385 0.240138 2.953776
-0.250007 0.250978 0.015274 -0.120497 0.963497 0.23907 2.955834
-0.249554 0.250618 0.013498 -0.12234 0.96323 0.23921 2.950166
-0.249766 0.249944 0.013077 -0.122746 0.96361 0.237466 2.952547
-0.249408 0.249671 0.011533 -0.124084 0.963463 0.237365 2.947835
-0.24989 0.248563 0.010495 -0.125765 0.963597 0.235931 2.947529
-0.249015 0.248049 0.008854 -0.127195 0.963616 0.235085 2.943645
-0.248928 0.247518 0.007519 -0.127929 0.963819 0.233853 2.941416
-0.248909 0.246327 0.005755 -0.130662 0.963681 0.232909 2.937554
-0.248864 0.246274 0.00493 -0.130805 0.963847 0.232139 2.936408
-0.248242 0.245988 0.00372 -0.131436 0.964012 0.231095 2.934096
-0.24844 0.244967 0.002438 -0.133205 0.964094 0.229739 2.932591
-0.247776 0.244873 0.001332 -0.13395 0.96403 0.229572 2.929571
-0.247644 0.244308 0.000384 -0.134704 0.964208 0.228379 2.928776
-0.247701 0.243753 -0.000523 -0.136062 0.964049 0.228248 2.926755
-0.247436 0.243124 -0.002081 -0.137268 0.964135 0.227159 2.923211
-0.247627 0.243013 -0.002254 -0.136795 0.964403 0.226304 2.924823
-0.247379 0.242545 -0.00308 -0.13791 0.964366 0.225786 2.923501
-0.24692 0.241446 -0.004636 -0.140487 0.964184 0.224972 2.920047
-0.246967 0.241514 -0.005223 -0.139898 0.964497 0.223995 2.919859
-0.246989 0.240114 -0.006537 -0.142842 0.964296 0.223001 2.917856
-0.246837 0.239722 -0.00751 -0.143761 0.964352 0.222169 2.916132
-0.246791 0.239241 -0.008231 -0.144041 0.964634 0.220759 2.916136
-0.24638 0.238645 -0.009277 -0.145916 0.964446 0.220344 2.913742
-0.246571 0.2377 -0.010202 -0.147356 0.9645 0.219146 2.913206
-0.246288 0.237219 -0.011012 -0.148549 0.964449 0.218568 2.911912
-0.246254 0.236658 -0.01194 -0.149638 0.964471 0.217724 2.910473
-0.246531 0.236005 -0.012562 -0.150758 0.964402 0.217256 2.910078
-0.246031 0.235735 -0.013682 -0.151743 0.964288 0.217078 2.906621
-0.246142 0.235253 -0.014004 -0.152257 0.964423 0.216115 2.907803
-0.245281 0.234511 -0.015494 -0.154249 0.964234 0.215548 2.903314
-0.245742 0.234471 -0.015436 -0.153967 0.964415 0.214935 2.90571
-0.245291 0.233711 -0.016429 -0.155419 0.964368 0.214099 2.903976
-0.244976 0.23323 -0.017236 -0.156586 0.964332 0.213414 2.902476
-0.244732 0.23314 -0.017898 -0.156617 0.964459 0.212813 2.901215
-0.244518 0.232572 -0.018822 -0.157217 0.964649 0.211509 2.900028
-0.244766 0.23193 -0.01945 -0.15824 0.9646 0.210967 2.89939
-0.244125 0.231362 -0.020502 -0.158982 0.964805 0.209468 2.897649
-0.243978 0.231576 -0.020872 -0.158681 0.964815 0.20965 2.896492
-0.243298 0.23119 -0.022186 -0.160242 0.964575 0.209567 2.892064
-0.24392 0.230423 -0.021911 -0.160923 0.96468 0.208558 2.896109
-0.243513 0.230236 -0.022795 -0.161471 0.964688 0.208099 2.893602
-0.242857 0.230205 -0.024005 -0.16183 0.964789 0.207347 2.889786
-0.242837 0.229429 -0.024603 -0.162599 0.965019 0.205667 2.890726
-0.242739 0.229043 -0.025414 -0.164337 0.964619 0.206163 2.887858
-0.242418 0.22808 -0.026455 -0.16599 0.964652 0.204682 2.886399
-0.242134 0.227674 -0.027294 -0.167035 0.964563 0.20425 2.884344
-0.242019 0.227385 -0.027883 -0.167364 0.964616 0.203726 2.883874
-0.242044 0.227678 -0.027664 -0.16657 0.964741 0.203787 2.885295
-0.241906 0.2274 -0.028289 -0.166881 0.964811 0.203199 2.884147
-0.241429 0.226355 -0.029536 -0.168843 0.964751 0.201859 2.881532
-0.241451 0.22627 -0.029589 -0.168464 0.964823 0.201831 2.881255
-0.241052 0.225994 -0.030431 -0.168889 0.964995 0.200649 2.880499
-0.241014 0.225955 -0.030775 -0.169402 0.964887 0.200741 2.879658
-0.240759 0.22545 -0.031327 -0.169971 0.96492 0.200097 2.878107
-0.240433 0.225537 -0.031911 -0.170433 0.964782 0.200373 2.875884
-0.240209 0.224877 -0.032649 -0.171704 0.964713 0.199614 2.874614
-0.240534 0.225093 -0.032188 -0.170552 0.964954 0.19944 2.877332
-0.23981 0.224976 -0.03295 -0.170913 0.965067 0.19858 2.875356
-0.240053 0.224316 -0.033209 -0.171902 0.964996 0.19807 2.876051
-0.240164 0.224412 -0.033345 -0.17156 0.965116 0.197781 2.875989
-0.240124 0.224318 -0.034017 -0.171916 0.965143 0.197344 2.875615
-0.239802 0.223843 -0.034405 -0.17277 0.965137 0.196623 2.875658
-0.239485 0.223419 -0.035234 -0.173891 0.965043 0.196097 2.873492
-0.239649 0.223509 -0.035 -0.17346 0.965143 0.195989 2.874995
-0.238835 0.222554 -0.036462 -0.175606 0.964984 0.194853 2.870968
-0.239188 0.222278 -0.036251 -0.174983 0.965278 0.193958 2.873735
-0.238699 0.222344 -0.036712 -0.175959 0.964881 0.195048 2.869967
-0.238392 0.221672 -0.037943 -0.176532 0.965223 0.192826 2.868662
-0.237914 0.221179 -0.038977 -0.177843 0.965058 0.192447 2.865258
-0.238247 0.221389 -0.038525 -0.176774 0.965288 0.192273 2.867968
-0.237763 0.220882 -0.039558 -0.17817 0.965124 0.19181 2.864577
-0.237751 0.220696 -0.039956 -0.177982 0.965319 0.191004 2.864445
-0.237995 0.220507 -0.039625 -0.1781 0.965346 0.190754 2.867019
-0.237666 0.220095 -0.040439 -0.179021 0.965299 0.190127 2.864823
-0.237816 0.220683 -0.039964 -0.178117 0.965326 0.190839 2.866357
-0.237544 0.22028 -0.040423 -0.178852 0.96528 0.190383 2.865458
-0.23721 0.219871 -0.04124 -0.179779 0.965223 0.189801 2.863178
-0.236945 0.219489 -0.041691 -0.18032 0.965206 0.189372 2.862306
-0.236586 0.219599 -0.042275 -0.180577 0.965134 0.189494 2.859738
-0.236933 0.219908 -0.041505 -0.179474 0.965218 0.190114 2.861932
-0.236415 0.219323 -0.042875 -0.180808 0.9652 0.188939 2.858561
-0.236751 0.219543 -0.042435 -0.179695 0.96544 0.188772 2.861141
-0.236431 0.219221 -0.042909 -0.180569 0.965257 0.188873 2.858663
-0.236128 0.219306 -0.04313 -0.180879 0.965159 0.18908 2.8576
-0.236215 0.219011 -0.043009 -0.181502 0.96507 0.188939 2.85908
-0.236319 0.21911 -0.043147 -0.181215 0.96515 0.188804 2.859034
-0.23602 0.219211 -0.043367 -0.181395 0.965069 0.189042 2.857952
-0.235654 0.218423 -0.043931 -0.183117 0.964866 0.188422 2.856915
-0.235468 0.218125 -0.044536 -0.183432 0.96497 0.187577 2.855586
-0.235712 0.217933 -0.044212 -0.183563 0.965006 0.187266 2.858071
-0.235815 0.218015 -0.044345 -0.183421 0.965058 0.187139 2.858173
-0.234967 0.217215 -0.04535 -0.185857 0.964672 0.186722 2.854591
-0.235299 0.217433 -0.044928 -0.184803 0.964909 0.186543 2.856921
-0.234947 0.217039 -0.045742 -0.185605 0.964866 0.185968 2.85443
-0.234838 0.21677 -0.045978 -0.185536 0.964997 0.185356 2.854609
-0.23511 0.216416 -0.046345 -0.186415 0.964823 0.185379 2.853724
-0.234493 0.216372 -0.046773 -0.186333 0.964945 0.184827 2.85244
-0.234998 0.216112 -0.04657 -0.186645 0.964885 0.184824 2.854206
-0.234876 0.215807 -0.04681 -0.186852 0.964977 0.184134 2.854381
-0.234887 0.215808 -0.046795 -0.186854 0.964955 0.184249 2.854692
-0.234598 0.215388 -0.047241 -0.187641 0.964909 0.183687 2.853779
-0.234863 0.215601 -0.047176 -0.186783 0.965137 0.183366 2.854744
-0.234708 0.215491 -0.047366 -0.187331 0.964983 0.183615 2.853982
-0.234748 0.214722 -0.047835 -0.188809 0.964787 0.183131 2.853333
-0.234683 0.21473 -0.048185 -0.188917 0.964772 0.1831 2.852035
-0.234042 0.214625 -0.048819 -0.190105 0.964442 0.183607 2.84862
-0.234544 0.214953 -0.0482 -0.188543 0.964799 0.18334 2.851981
-0.234257 0.214553 -0.048644 -0.189166 0.964781 0.182793 2.851003
-0.234266 0.21455 -0.04863 -0.189172 0.964769 0.182851 2.851285
-0.234198 0.214535 -0.048975 -0.189446 0.964729 0.182776 2.850121
-0.233305 0.213627 -0.050284 -0.191976 0.96445 0.181609 2.846901
-0.233479 0.213733 -0.05007 -0.191466 0.964568 0.181521 2.848184
-0.233651 0.21384 -0.049858 -0.190965 0.964679 0.181457 2.849432
-0.233653 0.213549 -0.050105 -0.191699 0.964606 0.181073 2.849187
-0.233659 0.213534 -0.050091 -0.191824 0.964567 0.181144 2.849503
-0.233505 0.213186 -0.050544 -0.193194 0.964219 0.181541 2.847387
-0.233177 0.212967 -0.050938 -0.194259 0.963944 0.181865 2.845492
-0.233362 0.212798 -0.051104 -0.193311 0.964451 0.180179 2.847817
-0.232823 0.212296 -0.052104 -0.194542 0.964305 0.179634 2.84423
-0.232543 0.211985 -0.052226 -0.195236 0.964123 0.17986 2.842857
-0.232865 0.212105 -0.052138 -0.194187 0.964517 0.178882 2.84542
-0.232869 0.2121 -0.05213 -0.194226 0.964503 0.178915 2.845595
-0.233044 0.212206 -0.051918 -0.193722 0.96462 0.178828 2.846871
-0.23305 0.212197 -0.051906 -0.193788 0.964598 0.178876 2.847131
-0.232382 0.211727 -0.052689 -0.196125 0.964023 0.179427 2.843398
-0.232042 0.211761 -0.052995 -0.1959 0.964087 0.17933 2.84114
-0.23236 0.211869 -0.052912 -0.194981 0.964445 0.178402 2.843685
-0.231723 0.211242 -0.053748 -0.196678 0.96416 0.178083 2.840583
-0.232387 0.21136 -0.053116 -0.195422 0.96448 0.177731 2.844155
-0.231902 0.211372 -0.053543 -0.196009 0.964299 0.178065 2.841708
-0.232398 0.211381 -0.053109 -0.1953 0.96447 0.177919 2.84429
-0.232006 0.211203 -0.053111 -0.196427 0.964104 0.178662 2.842576
-0.232011 0.211193 -0.053099 -0.196499 0.964085 0.178686 2.84283
-0.231993 0.211067 -0.053406 -0.196693 0.964184 0.177933 2.843464
-0.232093 0.210876 -0.052971 -0.197236 0.963989 0.178392 2.844406
-0.232099 0.210874 -0.052961 -0.197248 0.963978 0.178439 2.844612
-0.231624 0.210348 -0.053603 -0.198514 0.963802 0.177983 2.842481
-0.231914 0.210652 -0.053469 -0.1979 0.963942 0.177908 2.844164
-0.231874 0.210186 -0.053293 -0.198434 0.963876 0.177671 2.844669
-0.231896 0.210582 -0.053545 -0.197524 0.964044 0.177771 2.84336
-0.2319 0.210581 -0.053538 -0.197533 0.964036 0.17781 2.843493
-0.231735 0.210467 -0.053729 -0.198091 0.963891 0.177971 2.842636
-0.231886 0.210472 -0.053845 -0.197624 0.964139 0.177144 2.84409
-0.231914 0.210581 -0.053518 -0.197538 0.96401 0.177941 2.843901
-0.231416 0.209962 -0.054482 -0.198765 0.963968 0.176799 2.841994
-0.231405 0.210478 -0.054259 -0.19828 0.963923 0.177588 2.841919
-0.231114 0.209545 -0.054914 -0.199476 0.963927 0.176224 2.841026
-0.231343 0.209868 -0.054386 -0.199125 0.963942 0.176539 2.84312
-0.231131 0.210128 -0.05435 -0.199212 0.963702 0.177743 2.841149
-0.23149 0.210128 -0.054113 -0.199264 0.963773 0.177301 2.843926
-0.231209 0.209832 -0.054234 -0.199813 0.963631 0.177455 2.842447
-0.23112 0.210021 -0.054652 -0.199265 0.963813 0.177081 2.841817
-0.231133 0.20985 -0.054585 -0.199865 0.963619 0.177463 2.841035
-0.230735 0.209635 -0.055447 -0.19992 0.963793 0.176451 2.83915
-0.230762 0.209746 -0.055125 -0.199839 0.963665 0.177239 2.838881
-0.230603 0.209349 -0.055689 -0.199946 0.963914 0.175761 2.838997
-0.230222 0.20969 -0.055183 -0.19956 0.963818 0.176724 2.838982
-0.230645 0.209232 -0.055526 -0.201025 0.963584 0.176335 2.839472
-0.230463 0.209318 -0.055545 -0.200622 0.963604 0.176685 2.838169
-0.230857 0.209152 -0.055362 -0.200107 0.963948 0.175389 2.841599
-0.230642 0.209427 -0.055337 -0.200103 0.963727 0.176606 2.839407
-0.23062 0.209324 -0.055655 -0.200134 0.963849 0.175904 2.839748
-0.230647 0.209432 -0.055331 -0.200068 0.963721 0.176676 2.839525
-0.230649 0.209432 -0.055328 -0.200074 0.963714 0.176707 2.839585
-0.230627 0.209324 -0.055645 -0.200139 0.963835 0.175975 2.839944
-0.23063 0.209319 -0.055639 -0.200171 0.963826 0.175987 2.840081
-0.230288 0.209085 -0.056027 -0.201327 0.963537 0.17625 2.838172
-0.230315 0.209661 -0.055603 -0.199489 0.963971 0.175968 2.840031
-0.23018 0.209367 -0.055847 -0.19957 0.964085 0.175246 2.839854
-0.230157 0.20879 -0.056262 -0.201405 0.963647 0.175557 2.83815
-0.22984 0.209143 -0.056236 -0.200644 0.963812 0.175524 2.837905
-0.230038 0.209366 -0.055717 -0.200037 0.963815 0.176197 2.838666
-0.230041 0.20937 -0.055715 -0.200008 0.963816 0.176223 2.838718
-0.229942 0.20897 -0.055805 -0.201094 0.963624 0.176039 2.83878
-0.230402 0.209373 -0.055478 -0.200048 0.963882 0.175816 2.841502
-0.230118 0.209063 -0.055595 -0.200702 0.963722 0.175948 2.8401
-0.230428 0.209466 -0.05515 -0.200098 0.963733 0.176575 2.841402
-0.230205 0.209174 -0.05575 -0.20033 0.963847 0.175689 2.83967
-0.230102 0.208776 -0.055846 -0.201403 0.96366 0.175488 2.839624
-0.229998 0.209239 -0.055897 -0.201366 0.96345 0.176679 2.837896
-0.230413 0.209182 -0.055402 -0.200785 0.963672 0.176131 2.840898
-0.230102 0.208776 -0.055846 -0.201409 0.963657 0.175499 2.839625
-0.230102 0.208776 -0.055846 -0.201409 0.963657 0.175499 2.839625
-0.230102 0.208776 -0.055846 -0.201409 0.963657 0.175499 2.839625
-0.230413 0.209182 -0.055402 -0.200785 0.963672 0.176131 2.840898
-0.230241 0.209069 -0.0556 -0.201335 0.963535 0.176251 2.839876
-0.230413 0.209182 -0.055402 -0.200785 0.963672 0.176131 2.840898
-0.229929 0.208663 -0.056043 -0.201959 0.96352 0.175618 2.838604
-0.230413 0.209182 -0.055402 -0.200785 0.963672 0.176131 2.840898
-0.230102 0.208776 -0.055846 -0.201409 0.963657 0.175499 2.839625
-0.229929 0.208663 -0.056043 -0.201959 0.96352 0.175618 2.838604
-0.230241 0.209069 -0.0556 -0.201335 0.963535 0.176251 2.839876
-0.230413 0.209182 -0.055402 -0.200785 0.963672 0.176131 2.840898
-0.230102 0.208776 -0.055846 -0.201409 0.963657 0.175499 2.839625
-0.230413 0.209182 -0.055402 -0.200785 0.963672 0.176131 2.840898
-0.229929 0.208663 -0.056043 -0.201959 0.96352 0.175618 2.838604
-0.230413 0.209182 -0.055402 -0.200785 0.963672 0.176131 2.840898
-0.230015 0.208663 -0.05569 -0.201802 0.963528 0.175753 2.840082
-0.230413 0.209182 -0.055402 -0.200785 0.963672 0.176131 2.840898
-0.230413 0.209182 -0.055402 -0.200785 0.963672 0.176131 2.840898
-0.230102 0.208776 -0.055846 -0.201409 0.963657 0.175499 2.839625
-0.230102 0.208777 -0.055846 -0.201399 0.963659 0.175501 2.83961
-0.230241 0.20907 -0.0556 -0.201325 0.963537 0.176253 2.839862
-0.230413 0.209184 -0.055403 -0.200775 0.963673 0.176134 2.840884
-0.230102 0.208777 -0.055846 -0.201399 0.963659 0.175501 2.83961
-0.230102 0.208777 -0.055846 -0.201399 0.963659 0.175501 2.83961
-0.230275 0.208891 -0.055649 -0.200849 0.963795 0.175382 2.840631
-0.230102 0.208777 -0.055846 -0.201399 0.963659 0.175501 2.83961
-0.23036 0.208891 -0.055296 -0.200691 0.963803 0.175516 2.84211
-0.230102 0.208777 -0.055846 -0.201399 0.963659 0.175501 2.83961
-0.230413 0.209184 -0.055403 -0.200775 0.963673 0.176134 2.840884
-0.230343 0.209466 -0.055503 -0.200262 0.963722 0.176451 2.839924
-0.230102 0.208779 -0.055847 -0.201389 0.96366 0.175503 2.839596
-0.230413 0.209185 -0.055403 -0.200765 0.963675 0.176136 2.840869
-0.230102 0.208779 -0.055847 -0.201389 0.96366 0.175503 2.839596
-0.230241 0.209073 -0.055601 -0.201305 0.96354 0.176258 2.839833
-0.230413 0.209187 -0.055404 -0.200755 0.963677 0.176138 2.840855
-0.229929 0.208667 -0.056045 -0.201929 0.963525 0.175625 2.838561
-0.230413 0.209187 -0.055404 -0.200755 0.963677 0.176138 2.840855
-0.230388 0.20908 -0.055724 -0.200809 0.963802 0.175388 2.841141
-0.230413 0.209187 -0.055404 -0.200755 0.963677 0.176138 2.840855
-0.230102 0.208782 -0.055848 -0.201368 0.963664 0.175508 2.839567
-0.230413 0.209188 -0.055404 -0.200745 0.963678 0.176141 2.84084
-0.230102 0.208782 -0.055848 -0.201368 0.963664 0.175508 2.839567
-0.230102 0.208783 -0.055849 -0.201358 0.963665 0.17551 2.839553
-0.230413 0.20919 -0.055405 -0.200735 0.96368 0.176143 2.840826
-0.229929 0.20867 -0.056046 -0.201909 0.963528 0.17563 2.838532
-0.230413 0.20919 -0.055405 -0.200735 0.96368 0.176143 2.840826
-0.229929 0.20867 -0.056046 -0.201909 0.963528 0.17563 2.838532
-0.230413 0.20919 -0.055405 -0.200735 0.96368 0.176143 2.840826
-0.229929 0.208671 -0.056047 -0.201899 0.96353 0.175632 2.838518
-0.230413 0.209191 -0.055406 -0.200724 0.963682 0.176145 2.840812
-0.230388 0.209084 -0.055726 -0.200779 0.963807 0.175395 2.841098
-0.230413 0.209191 -0.055406 -0.200724 0.963682 0.176145 2.840812
-0.230413 0.209191 -0.055406 -0.200724 0.963682 0.176145 2.840812
-0.230413 0.209191 -0.055406 -0.200724 0.963682 0.176145 2.840812
-0.230275 0.208898 -0.055652 -0.200798 0.963804 0.175393 2.840559
-0.229929 0.208673 -0.056047 -0.201888 0.963532 0.175634 2.838503
-0.230275 0.2089 -0.055653 -0.200788 0.963805 0.175395 2.840545
-0.229929 0.208673 -0.056047 -0.201888 0.963532 0.175634 2.838503
-0.230413 0.209192 -0.055406 -0.200714 0.963683 0.176147 2.840797
-0.229929 0.208673 -0.056047 -0.201888 0.963532 0.175634 2.838503
-0.230413 0.209194 -0.055407 -0.200704 0.963685 0.17615 2.840783
-0.230102 0.208788 -0.055851 -0.201328 0.96367 0.175517 2.83951
-0.230594 0.208551 -0.055678 -0.20152 0.963642 0.175453 2.840822
-0.229929 0.208674 -0.056048 -0.201878 0.963534 0.175637 2.838489
-0.230343 0.209476 -0.055508 -0.200191 0.963734 0.176468 2.839824
-0.229904 0.208566 -0.056367 -0.201933 0.963658 0.174887 2.838777
-0.230068 0.208967 -0.055802 -0.201804 0.963412 0.176389 2.83874
-0.230413 0.209194 -0.055407 -0.200704 0.963685 0.17615 2.840783
-0.230413 0.209194 -0.055407 -0.200704 0.963685 0.17615 2.840783
-0.229929 0.208674 -0.056048 -0.201878 0.963534 0.175637 2.838489
-0.230413 0.209194 -0.055407 -0.200704 0.963685 0.17615 2.840783
-0.230413 0.209195 -0.055407 -0.200694 0.963687 0.176152 2.840769
-0.230413 0.209195 -0.055407 -0.200694 0.963687 0.176152 2.840769
-0.230413 0.209195 -0.055407 -0.200694 0.963687 0.176152 2.840769
-0.229929 0.208676 -0.056048 -0.201868 0.963535 0.175639 2.838475
-0.230413 0.209195 -0.055407 -0.200694 0.963687 0.176152 2.840769
-0.229929 0.208676 -0.056048 -0.201868 0.963535 0.175639 2.838475
-0.230241 0.209082 -0.055605 -0.201244 0.96355 0.176272 2.839747
-0.230413 0.209195 -0.055407 -0.200694 0.963687 0.176152 2.840769
-0.230275 0.208903 -0.055654 -0.200768 0.963809 0.1754 2.840516
-0.230102 0.208789 -0.055851 -0.201318 0.963672 0.17552 2.839495
-0.230275 0.208903 -0.055654 -0.200768 0.963809 0.1754 2.840516
-0.230413 0.209195 -0.055407 -0.200694 0.963687 0.176152 2.840769
-0.230204 0.209185 -0.055755 -0.200255 0.963857 0.175718 2.839556
-0.230413 0.209195 -0.055407 -0.200694 0.963687 0.176152 2.840769
-0.230413 0.209195 -0.055407 -0.200694 0.963687 0.176152 2.840769
-0.229929 0.208676 -0.056048 -0.201868 0.963535 0.175639 2.838475
-0.230413 0.209195 -0.055407 -0.200694 0.963687 0.176152 2.840769
-0.230241 0.209082 -0.055605 -0.201244 0.96355 0.176272 2.839747
-0.229756 0.208562 -0.056245 -0.202419 0.963398 0.175758 2.837454
-0.230241 0.209082 -0.055605 -0.201244 0.96355 0.176272 2.839747
-0.230343 0.209478 -0.055508 -0.200181 0.963735 0.17647 2.839809
-0.230102 0.208789 -0.055851 -0.201318 0.963672 0.17552 2.839495
-0.230077 0.208682 -0.056171 -0.201373 0.963797 0.17477 2.839783
-0.230216 0.208975 -0.055925 -0.201299 0.963676 0.175522 2.840034
-0.229756 0.208562 -0.056245 -0.202419 0.963398 0.175758 2.837454
-0.229894 0.208856 -0.056 -0.202344 0.963276 0.176511 2.837704
-0.229929 0.208676 -0.056048 -0.201868 0.963535 0.175639 2.838475
-0.230241 0.209082 -0.055605 -0.201244 0.96355 0.176272 2.839747
-0.229731 0.208454 -0.056564 -0.202474 0.963523 0.175009 2.837743
-0.229894 0.208856 -0.056 -0.202344 0.963276 0.176511 2.837704
-0.229582 0.208449 -0.056442 -0.202969 0.96326 0.175878 2.836434
-0.229894 0.208856 -0.056 -0.202344 0.963276 0.176511 2.837704
-0.230068 0.208969 -0.055802 -0.201794 0.963413 0.176391 2.838726
-0.230068 0.208969 -0.055802 -0.201794 0.963413 0.176391 2.838726
-0.230241 0.209082 -0.055605 -0.201244 0.96355 0.176272 2.839747
-0.230153 0.208969 -0.055449 -0.201636 0.963422 0.176526 2.840204
-0.230241 0.209082 -0.055605 -0.201244 0.96355 0.176272 2.839747
-0.230068 0.208969 -0.055802 -0.201794 0.963413 0.176391 2.838726
-0.230102 0.208789 -0.055851 -0.201318 0.963672 0.17552 2.839495
-0.230068 0.208969 -0.055802 -0.201794 0.963413 0.176391 2.838726
-0.230068 0.208969 -0.055802 -0.201794 0.963413 0.176391 2.838726
-0.229998 0.209252 -0.055903 -0.201281 0.963462 0.17671 2.837767
-0.229842 0.208562 -0.055893 -0.202261 0.963406 0.175894 2.838932
-0.230068 0.208969 -0.055802 -0.201794 0.963413 0.176391 2.838726
-0.229721 0.208743 -0.056197 -0.202893 0.963139 0.17663 2.836683
-0.230153 0.208969 -0.055449 -0.201636 0.963422 0.176526 2.840204
-0.230068 0.208969 -0.055802 -0.201794 0.963413 0.176391 2.838726
-0.230068 0.208969 -0.055802 -0.201794 0.963413 0.176391 2.838726
-0.230068 0.208969 -0.055802 -0.201794 0.963413 0.176391 2.838726
-0.230068 0.208969 -0.055802 -0.201794 0.963413 0.176391 2.838726
-0.230153 0.208969 -0.055449 -0.201636 0.963422 0.176526 2.840204
-0.229582 0.208449 -0.056442 -0.202969 0.96326 0.175878 2.836434
-0.230068 0.208969 -0.055802 -0.201794 0.963413 0.176391 2.838726
-0.230068 0.208969 -0.055802 -0.201794 0.963413 0.176391 2.838726
-0.230068 0.208969 -0.055802 -0.201794 0.963413 0.176391 2.838726
-0.229349 0.208799 -0.056065 -0.202069 0.963435 0.175957 2.83762
-0.230153 0.208969 -0.055449 -0.201636 0.963422 0.176526 2.840204
-0.230068 0.208969 -0.055802 -0.201794 0.963413 0.176391 2.838726
-0.229748 0.209319 -0.055777 -0.201052 0.963579 0.176336 2.838433
-0.230068 0.208969 -0.055802 -0.201794 0.963413 0.176391 2.838726
-0.229929 0.208676 -0.056048 -0.201868 0.963535 0.175639 2.838475
-0.229582 0.208449 -0.056442 -0.202969 0.96326 0.175878 2.836434
-0.230153 0.208969 -0.055449 -0.201636 0.963422 0.176526 2.840204
-0.230068 0.208969 -0.055802 -0.201794 0.963413 0.176391 2.838726
-0.229582 0.208449 -0.056442 -0.202969 0.96326 0.175878 2.836434
-0.230068 0.208969 -0.055802 -0.201794 0.963413 0.176391 2.838726
-0.230153 0.208969 -0.055449 -0.201636 0.963422 0.176526 2.840204
-0.22998 0.208856 -0.055647 -0.202185 0.963285 0.176646 2.839182
-0.22998 0.208856 -0.055647 -0.202185 0.963285 0.176646 2.839182
-0.22998 0.208856 -0.055647 -0.202185 0.963285 0.176646 2.839182
-0.229894 0.208856 -0.056 -0.202344 0.963276 0.176511 2.837704
-0.229894 0.208856 -0.056 -0.202344 0.963276 0.176511 2.837704
-0.22998 0.208856 -0.055647 -0.202185 0.963285 0.176646 2.839182
-0.229894 0.208856 -0.056 -0.202344 0.963276 0.176511 2.837704
-0.229807 0.208743 -0.055844 -0.202735 0.963147 0.176766 2.838161
-0.229807 0.208743 -0.055844 -0.202735 0.963147 0.176766 2.838161
-0.229487 0.209093 -0.055819 -0.201994 0.963313 0.176709 2.837868
-0.229633 0.208631 -0.056041 -0.203285 0.963009 0.176886 2.837139
-0.229547 0.208631 -0.056393 -0.203443 0.963001 0.17675 2.835662
-0.229314 0.20898 -0.056017 -0.202543 0.963176 0.176828 2.836846
-0.229147 0.208112 -0.05668 -0.204461 0.962854 0.176372 2.83485
-0.229314 0.20898 -0.056017 -0.202543 0.963176 0.176828 2.836846
-0.229158 0.209263 -0.056468 -0.202189 0.963216 0.177013 2.834411
-0.229244 0.209263 -0.056116 -0.202031 0.963225 0.177148 2.835889
-0.229314 0.20898 -0.056017 -0.202543 0.963176 0.176828 2.836846
-0.229564 0.208914 -0.056141 -0.202772 0.963058 0.177206 2.836182
-0.229459 0.208518 -0.056238 -0.203834 0.962871 0.177005 2.836118
-0.229071 0.209152 -0.056314 -0.20257 0.963089 0.177271 2.834853
-0.22914 0.208869 -0.056214 -0.203083 0.96304 0.17695 2.83581
-0.229071 0.209152 -0.056314 -0.20257 0.963089 0.177271 2.834853
-0.22914 0.208869 -0.056214 -0.203083 0.96304 0.17695 2.83581
-0.228984 0.209152 -0.056665 -0.202729 0.96308 0.177135 2.833375
-0.228897 0.20904 -0.05651 -0.20312 0.962951 0.17739 2.833832
-0.229285 0.208408 -0.056435 -0.204374 0.962734 0.177127 2.835083
-0.228897 0.20904 -0.05651 -0.20312 0.962951 0.17739 2.833832
-0.229216 0.208691 -0.056535 -0.203861 0.962784 0.177449 2.834126
-0.228897 0.20904 -0.05651 -0.20312 0.962951 0.17739 2.833832
-0.228966 0.208756 -0.056411 -0.203633 0.962902 0.177069 2.834789
-0.228897 0.20904 -0.05651 -0.20312 0.962951 0.17739 2.833832
-0.228897 0.20904 -0.05651 -0.20312 0.962951 0.17739 2.833832
-0.228758 0.208745 -0.056756 -0.203198 0.963073 0.176638 2.833586
-0.228966 0.208756 -0.056411 -0.203633 0.962902 0.177069 2.834789
-0.228897 0.20904 -0.05651 -0.20312 0.962951 0.17739 2.833832
-0.228966 0.208756 -0.056411 -0.203633 0.962902 0.177069 2.834789
-0.228897 0.20904 -0.05651 -0.20312 0.962951 0.17739 2.833832
-0.229071 0.209152 -0.056314 -0.20257 0.963089 0.177271 2.834853
-0.228897 0.20904 -0.05651 -0.20312 0.962951 0.17739 2.833832
-0.228897 0.20904 -0.05651 -0.20312 0.962951 0.17739 2.833832
-0.22939 0.208803 -0.056338 -0.203312 0.962922 0.177329 2.835147
-0.228897 0.20904 -0.05651 -0.20312 0.962951 0.17739 2.833832
-0.229285 0.208408 -0.056435 -0.204374 0.962734 0.177127 2.835083
-0.228897 0.20904 -0.05651 -0.20312 0.962951 0.17739 2.833832
-0.229216 0.208691 -0.056535 -0.203861 0.962784 0.177449 2.834126
-0.228966 0.208756 -0.056411 -0.203633 0.962902 0.177069 2.834789
-0.228897 0.20904 -0.05651 -0.20312 0.962951 0.17739 2.833832
-0.228897 0.20904 -0.05651 -0.20312 0.962951 0.17739 2.833832
-0.228897 0.20904 -0.05651 -0.20312 0.962951 0.17739 2.833832
-0.228897 0.20904 -0.05651 -0.20312 0.962951 0.17739 2.833832
-0.228897 0.20904 -0.05651 -0.20312 0.962951 0.17739 2.833832
-0.228896 0.209039 -0.056511 -0.203129 0.96295 0.177389 2.833829
-0.228722 0.208927 -0.056707 -0.203679 0.962811 0.177509 2.832808
-0.228872 0.20893 -0.056831 -0.203187 0.963075 0.176639 2.834119
-0.228896 0.209039 -0.056511 -0.203129 0.96295 0.177389 2.833829
-0.228872 0.20893 -0.056831 -0.203187 0.963075 0.176639 2.834119
-0.228698 0.208817 -0.057027 -0.203737 0.962937 0.176759 2.833099
-0.228698 0.208817 -0.057027 -0.203737 0.962937 0.176759 2.833099
-0.228872 0.20893 -0.056831 -0.203187 0.963075 0.176639 2.834119
-0.228872 0.20893 -0.056831 -0.203187 0.963075 0.176639 2.834119
-0.228872 0.20893 -0.056831 -0.203187 0.963075 0.176639 2.834119
-0.228966 0.208756 -0.056411 -0.203641 0.9629 0.177068 2.834786
-0.228896 0.209039 -0.056511 -0.203129 0.96295 0.177389 2.833829
-0.228791 0.208643 -0.056608 -0.204191 0.962762 0.177187 2.833765
-0.228871 0.208929 -0.056831 -0.203195 0.963074 0.176638 2.834116
-0.229034 0.209332 -0.056265 -0.20306 0.962825 0.17814 2.834072
-0.228791 0.208643 -0.056608 -0.2042 0.96276 0.177186 2.833761
-0.228896 0.209038 -0.056511 -0.203138 0.962948 0.177388 2.833826
-0.229034 0.209332 -0.056265 -0.20306 0.962825 0.17814 2.834072
-0.228721 0.208926 -0.056708 -0.203687 0.96281 0.177508 2.832805
-0.228721 0.208926 -0.056708 -0.203687 0.96281 0.177508 2.832805
-0.229009 0.209224 -0.056585 -0.203118 0.962952 0.177391 2.834362
-0.229208 0.209444 -0.056068 -0.20251 0.962963 0.17802 2.835094
-0.22886 0.209221 -0.056462 -0.203609 0.962687 0.17826 2.83305
-0.228791 0.208643 -0.056608 -0.2042 0.96276 0.177186 2.833761
-0.229034 0.209332 -0.056265 -0.20306 0.962825 0.17814 2.834072
-0.229034 0.209332 -0.056265 -0.20306 0.962825 0.17814 2.834072
-0.228721 0.208926 -0.056708 -0.203687 0.96281 0.177508 2.832805
-0.229034 0.209332 -0.056265 -0.20306 0.962825 0.17814 2.834072
-0.228896 0.209038 -0.056511 -0.203138 0.962948 0.177388 2.833826
-0.229208 0.209444 -0.056068 -0.20251 0.962963 0.17802 2.835094
-0.228721 0.208926 -0.056708 -0.203687 0.96281 0.177508 2.832805
-0.228896 0.209038 -0.056511 -0.203138 0.962948 0.177388 2.833826
-0.228808 0.208926 -0.056357 -0.203528 0.962818 0.177643 2.834282
-0.229156 0.20915 -0.055963 -0.202428 0.963094 0.177403 2.836324
-0.228808 0.208926 -0.056357 -0.203528 0.962818 0.177643 2.834282
-0.228634 0.208814 -0.056553 -0.204078 0.96268 0.177764 2.833261
-0.228808 0.208926 -0.056357 -0.203528 0.962818 0.177643 2.834282
-0.228877 0.208643 -0.056257 -0.20404 0.962769 0.177322 2.835239
-0.22912 0.209332 -0.055914 -0.2029 0.962834 0.178276 2.83555
-0.229015 0.208937 -0.056012 -0.203962 0.962647 0.178075 2.835483
-0.228877 0.208643 -0.056257 -0.20404 0.962769 0.177322 2.835239
-0.228982 0.209038 -0.05616 -0.202978 0.962957 0.177523 2.835303
-0.228808 0.208926 -0.056357 -0.203528 0.962818 0.177643 2.834282
-0.228634 0.208814 -0.056553 -0.204078 0.96268 0.177764 2.833261
-0.228634 0.208814 -0.056553 -0.204078 0.96268 0.177764 2.833261
-0.228841 0.208826 -0.056209 -0.204511 0.962508 0.178194 2.834461
-0.22912 0.209332 -0.055914 -0.2029 0.962834 0.178276 2.83555
-0.228808 0.208926 -0.056357 -0.203528 0.962818 0.177643 2.834282
-0.228634 0.208814 -0.056553 -0.204078 0.96268 0.177764 2.833261
-0.22912 0.209332 -0.055914 -0.2029 0.962834 0.178276 2.83555
-0.228877 0.208643 -0.056257 -0.20404 0.962769 0.177322 2.835239
-0.22912 0.209332 -0.055914 -0.2029 0.962834 0.178276 2.83555
-0.22912 0.209332 -0.055914 -0.2029 0.962834 0.178276 2.83555
-0.228808 0.208926 -0.056357 -0.203528 0.962818 0.177643 2.834282
-0.228634 0.208814 -0.056553 -0.204078 0.96268 0.177764 2.833261
-0.22912 0.209332 -0.055914 -0.2029 0.962834 0.178276 2.83555
-0.228982 0.209038 -0.05616 -0.202978 0.962957 0.177523 2.835303
-0.228808 0.208926 -0.056357 -0.203528 0.962818 0.177643 2.834282
-0.228982 0.209038 -0.05616 -0.202978 0.962957 0.177523 2.835303
-0.229363 0.209161 -0.055617 -0.202864 0.962923 0.177835 2.837528
-0.228982 0.209038 -0.05616 -0.202978 0.962957 0.177523 2.835303
-0.228634 0.208814 -0.056553 -0.204078 0.96268 0.177764 2.833261
-0.228946 0.209221 -0.056111 -0.203449 0.962696 0.178396 2.834528
-0.22912 0.209332 -0.055914 -0.2029 0.962834 0.178276 2.83555
-0.228808 0.208926 -0.056357 -0.203528 0.962818 0.177643 2.834282
-0.228634 0.208814 -0.056553 -0.204078 0.96268 0.177764 2.833261
-0.22912 0.209332 -0.055914 -0.2029 0.962834 0.178276 2.83555
-0.228982 0.209038 -0.05616 -0.202978 0.962957 0.177523 2.835303
-0.22912 0.209332 -0.055914 -0.2029 0.962834 0.178276 2.83555
-0.228808 0.208926 -0.056357 -0.203528 0.962818 0.177643 2.834282
-0.22912 0.209332 -0.055914 -0.2029 0.962834 0.178276 2.83555
-0.228808 0.208926 -0.056357 -0.203528 0.962818 0.177643 2.834282
-0.22912 0.209332 -0.055914 -0.2029 0.962834 0.178276 2.83555
-0.228808 0.208926 -0.056357 -0.203528 0.962818 0.177643 2.834282
-0.22912 0.209332 -0.055914 -0.2029 0.962834 0.178276 2.83555
-0.228772 0.209109 -0.056308 -0.203999 0.962557 0.178516 2.833506
-0.22912 0.209332 -0.055914 -0.2029 0.962834 0.178276 2.83555
-0.229293 0.209444 -0.055717 -0.202351 0.962972 0.178155 2.836572
-0.22912 0.209332 -0.055914 -0.2029 0.962834 0.178276 2.83555
-0.228946 0.209221 -0.056111 -0.203449 0.962696 0.178396 2.834528
-0.22912 0.209332 -0.055914 -0.2029 0.962834 0.178276 2.83555
-0.22912 0.209332 -0.055914 -0.2029 0.962834 0.178276 2.83555
-0.22912 0.209332 -0.055914 -0.2029 0.962834 0.178276 2.83555
-0.22912 0.209332 -0.055914 -0.2029 0.962834 0.178276 2.83555
-0.229431 0.209738 -0.05547 -0.202273 0.962849 0.178907 2.836819
-0.229431 0.209738 -0.05547 -0.202273 0.962849 0.178907 2.836819
-0.228946 0.209221 -0.056111 -0.203449 0.962696 0.178396 2.834528
-0.229015 0.208937 -0.056012 -0.203962 0.962647 0.178075 2.835483
-0.228946 0.209221 -0.056111 -0.203449 0.962696 0.178396 2.834528
-0.229431 0.209738 -0.05547 -0.202273 0.962849 0.178907 2.836819
-0.229084 0.209515 -0.055864 -0.20337 0.962573 0.179148 2.834773
-0.229431 0.209738 -0.05547 -0.202273 0.962849 0.178907 2.836819
-0.229293 0.209444 -0.055717 -0.202351 0.962972 0.178155 2.836572
-0.229431 0.209738 -0.05547 -0.202273 0.962849 0.178907 2.836819
-0.229258 0.209627 -0.055667 -0.202822 0.962711 0.179028 2.835796
-0.228946 0.209221 -0.056111 -0.203449 0.962696 0.178396 2.834528
-0.22912 0.209332 -0.055914 -0.2029 0.962834 0.178276 2.83555
-0.229604 0.20985 -0.055272 -0.201724 0.962986 0.178787 2.837842
-0.229293 0.209444 -0.055717 -0.202351 0.962972 0.178155 2.836572
-0.229431 0.209738 -0.05547 -0.202273 0.962849 0.178907 2.836819
-0.229293 0.209444 -0.055717 -0.202351 0.962972 0.178155 2.836572
-0.229431 0.209738 -0.05547 -0.202273 0.962849 0.178907 2.836819
-0.229293 0.209444 -0.055717 -0.202351 0.962972 0.178155 2.836572
-0.22912 0.209332 -0.055914 -0.2029 0.962834 0.178276 2.83555
-0.22912 0.209332 -0.055914 -0.2029 0.962834 0.178276 2.83555
-0.229293 0.209444 -0.055717 -0.202351 0.962972 0.178155 2.836572
-0.22912 0.209332 -0.055914 -0.2029 0.962834 0.178276 2.83555
-0.229431 0.209738 -0.05547 -0.202273 0.962849 0.178907 2.836819
-0.229431 0.209738 -0.05547 -0.202273 0.962849 0.178907 2.836819
-0.229431 0.209738 -0.05547 -0.202273 0.962849 0.178907 2.836819
-0.229431 0.209738 -0.05547 -0.202273 0.962849 0.178907 2.836819
-0.228946 0.209221 -0.056111 -0.203449 0.962696 0.178396 2.834528
-0.22912 0.209332 -0.055914 -0.2029 0.962834 0.178276 2.83555
-0.229293 0.209444 -0.055717 -0.202351 0.962972 0.178155 2.836572
-0.229431 0.209738 -0.05547 -0.202273 0.962849 0.178907 2.836819
-0.22912 0.209332 -0.055914 -0.2029 0.962834 0.178276 2.83555
-0.228946 0.209221 -0.056111 -0.203449 0.962696 0.178396 2.834528
-0.229431 0.209738 -0.05547 -0.202273 0.962849 0.178907 2.836819
-0.228946 0.209221 -0.056111 -0.203449 0.962696 0.178396 2.834528
-0.229431 0.209738 -0.05547 -0.202273 0.962849 0.178907 2.836819
-0.228946 0.209221 -0.056111 -0.203449 0.962696 0.178396 2.834528
-0.229169 0.209514 -0.055512 -0.20322 0.96258 0.179281 2.836264
-0.229516 0.209737 -0.055117 -0.202123 0.962856 0.17904 2.838311
-0.229205 0.209331 -0.055562 -0.20275 0.962841 0.178409 2.837041
-0.2295 0.209453 -0.05537 -0.202797 0.962798 0.178585 2.837789
-0.229516 0.209737 -0.055117 -0.202123 0.962856 0.17904 2.838311
-0.229032 0.209219 -0.055759 -0.203299 0.962703 0.178529 2.836019
-0.229516 0.209737 -0.055117 -0.202123 0.962856 0.17904 2.838311
-0.229431 0.209737 -0.055469 -0.202283 0.962847 0.178905 2.836833
-0.229585 0.209453 -0.055018 -0.202637 0.962807 0.17872 2.839266
-0.229431 0.209737 -0.055469 -0.202283 0.962847 0.178905 2.836833
-0.229516 0.209737 -0.055117 -0.202123 0.962856 0.17904 2.838311
-0.229516 0.209737 -0.055117 -0.202123 0.962856 0.17904 2.838311
-0.229585 0.209453 -0.055018 -0.202637 0.962807 0.17872 2.839266
-0.229516 0.209737 -0.055117 -0.202123 0.962856 0.17904 2.838311
-0.229516 0.209737 -0.055117 -0.202123 0.962856 0.17904 2.838311
-0.229516 0.209737 -0.055117 -0.202123 0.962856 0.17904 2.838311
-0.229516 0.209737 -0.055117 -0.202123 0.962856 0.17904 2.838311
-0.229516 0.209737 -0.055117 -0.202123 0.962856 0.17904 2.838311
-0.229032 0.209219 -0.055759 -0.203299 0.962703 0.178529 2.836019
-0.229379 0.209443 -0.055364 -0.202201 0.962979 0.178288 2.838063
-0.229343 0.209625 -0.055315 -0.202671 0.962718 0.179161 2.837287
-0.229205 0.209331 -0.055562 -0.20275 0.962841 0.178409 2.837041
-0.228858 0.209108 -0.055956 -0.203848 0.962564 0.17865 2.834997
-0.228821 0.209292 -0.055907 -0.204317 0.962303 0.179523 2.834219
-0.228684 0.208997 -0.056153 -0.204397 0.962426 0.17877 2.833975
-0.229032 0.209219 -0.055759 -0.203299 0.962703 0.178529 2.836019
-0.229169 0.209514 -0.055512 -0.20322 0.96258 0.179281 2.836264
-0.228858 0.209108 -0.055956 -0.203848 0.962564 0.17865 2.834997
-0.228684 0.208997 -0.056153 -0.204397 0.962426 0.17877 2.833975
-0.228858 0.209108 -0.055956 -0.203848 0.962564 0.17865 2.834997
-0.229169 0.209514 -0.055512 -0.20322 0.96258 0.179281 2.836264
-0.228995 0.209403 -0.05571 -0.203769 0.962441 0.179402 2.835241
-0.228995 0.209403 -0.05571 -0.203769 0.962441 0.179402 2.835241
-0.228995 0.209403 -0.05571 -0.203769 0.962441 0.179402 2.835241
-0.229169 0.209514 -0.055512 -0.20322 0.96258 0.179281 2.836264
-0.228509 0.208886 -0.05635 -0.204946 0.962286 0.178891 2.832953
-0.228858 0.209108 -0.055956 -0.203848 0.962564 0.17865 2.834997
-0.229064 0.209119 -0.055611 -0.204282 0.962392 0.179081 2.836196
-0.229032 0.209219 -0.055759 -0.203299 0.962703 0.178529 2.836019
-0.228995 0.209403 -0.05571 -0.203769 0.962441 0.179402 2.835241
-0.228995 0.209403 -0.05571 -0.203769 0.962441 0.179402 2.835241
-0.229316 0.209054 -0.055733 -0.204509 0.962273 0.179462 2.835538
-0.228821 0.209292 -0.055907 -0.204317 0.962303 0.179523 2.834219
-0.228858 0.209108 -0.055956 -0.203848 0.962564 0.17865 2.834997
-0.228995 0.209403 -0.05571 -0.203769 0.962441 0.179402 2.835241
-0.228684 0.208997 -0.056153 -0.204397 0.962426 0.17877 2.833975
-0.228995 0.209403 -0.05571 -0.203769 0.962441 0.179402 2.835241
-0.229169 0.209514 -0.055512 -0.20322 0.96258 0.179281 2.836264
-0.228858 0.209108 -0.055956 -0.203848 0.962564 0.17865 2.834997
-0.228995 0.209403 -0.05571 -0.203769 0.962441 0.179402 2.835241
-0.228509 0.208886 -0.05635 -0.204946 0.962286 0.178891 2.832953
-0.229169 0.209514 -0.055512 -0.20322 0.96258 0.179281 2.836264
-0.228927 0.208824 -0.055857 -0.204361 0.962515 0.178328 2.835952
-0.228509 0.208886 -0.05635 -0.204946 0.962286 0.178891 2.832953
-0.228509 0.208886 -0.05635 -0.204946 0.962286 0.178891 2.832953
-0.228995 0.209403 -0.05571 -0.203769 0.962441 0.179402 2.835241
-0.229169 0.209514 -0.055512 -0.20322 0.96258 0.179281 2.836264
-0.229238 0.20923 -0.055413 -0.203734 0.962531 0.178961 2.837219
-0.228509 0.208886 -0.05635 -0.204946 0.962286 0.178891 2.832953
-0.229169 0.209514 -0.055512 -0.20322 0.96258 0.179281 2.836264
-0.228684 0.208997 -0.056153 -0.204397 0.962426 0.17877 2.833975
-0.228684 0.208997 -0.056153 -0.204397 0.962426 0.17877 2.833975
-0.228684 0.208997 -0.056153 -0.204397 0.962426 0.17877 2.833975
-0.228684 0.208997 -0.056153 -0.204397 0.962426 0.17877 2.833975
-0.228684 0.208997 -0.056153 -0.204397 0.962426 0.17877 2.833975
-0.228995 0.209403 -0.05571 -0.203769 0.962441 0.179402 2.835241
-0.228684 0.208997 -0.056153 -0.204397 0.962426 0.17877 2.833975
-0.228578 0.208602 -0.056251 -0.205459 0.962237 0.178568 2.833907
-0.228647 0.209181 -0.056104 -0.204866 0.962163 0.179643 2.833196
-0.228509 0.208886 -0.05635 -0.204946 0.962286 0.178891 2.832953
-0.228858 0.209108 -0.055956 -0.203848 0.962564 0.17865 2.834997
-0.229316 0.209054 -0.055733 -0.204509 0.962273 0.179462 2.835538
-0.228995 0.209403 -0.05571 -0.203769 0.962441 0.179402 2.835241
-0.229146 0.209405 -0.055833 -0.203279 0.962707 0.178532 2.836555
-0.22889 0.209008 -0.055808 -0.204831 0.962253 0.179201 2.835173
-0.229169 0.209514 -0.055512 -0.20322 0.96258 0.179281 2.836264
-0.228821 0.209292 -0.055907 -0.204317 0.962303 0.179523 2.834219
-0.228995 0.209403 -0.05571 -0.203769 0.962441 0.179402 2.835241
-0.228995 0.209403 -0.05571 -0.203769 0.962441 0.179402 2.835241
-0.228684 0.208997 -0.056153 -0.204397 0.962426 0.17877 2.833975
-0.228995 0.209403 -0.05571 -0.203769 0.962441 0.179402 2.835241
-0.229178 0.20876 -0.055979 -0.204589 0.962396 0.17871 2.835292
-0.229064 0.209119 -0.055611 -0.204282 0.962392 0.179081 2.836196
-0.228995 0.209403 -0.05571 -0.203769 0.962441 0.179402 2.835241
-0.228684 0.208997 -0.056153 -0.204397 0.962426 0.17877 2.833975
-0.229003 0.208649 -0.056176 -0.205138 0.962257 0.178831 2.83427
-0.228995 0.209403 -0.05571 -0.203769 0.962441 0.179402 2.835241
-0.228858 0.209108 -0.055956 -0.203848 0.962564 0.17865 2.834997
-0.229169 0.209514 -0.055512 -0.20322 0.96258 0.179281 2.836264
-0.228858 0.209108 -0.055956 -0.203848 0.962564 0.17865 2.834997
-0.229169 0.209514 -0.055512 -0.20322 0.96258 0.179281 2.836264
-0.229064 0.209119 -0.055611 -0.204282 0.962392 0.179081 2.836196
-0.228752 0.208713 -0.056054 -0.20491 0.962376 0.178448 2.83493
-0.228967 0.208833 -0.056127 -0.205606 0.961994 0.179704 2.833493
-0.228509 0.208886 -0.05635 -0.204946 0.962286 0.178891 2.832953
-0.228927 0.208824 -0.055857 -0.204361 0.962515 0.178328 2.835952
-0.228995 0.209403 -0.05571 -0.203769 0.962441 0.179402 2.835241
-0.228647 0.209181 -0.056104 -0.204866 0.962163 0.179643 2.833196
-0.228995 0.209403 -0.05571 -0.203769 0.962441 0.179402 2.835241
-0.229169 0.209514 -0.055512 -0.20322 0.96258 0.179281 2.836264
-0.229169 0.209514 -0.055512 -0.20322 0.96258 0.179281 2.836264
-0.229238 0.20923 -0.055413 -0.203734 0.962531 0.178961 2.837219
-0.228995 0.209403 -0.05571 -0.203769 0.962441 0.179402 2.835241
-0.228684 0.208997 -0.056153 -0.204397 0.962426 0.17877 2.833975
-0.228858 0.209108 -0.055956 -0.203848 0.962564 0.17865 2.834997
-0.228995 0.209403 -0.05571 -0.203769 0.962441 0.179402 2.835241
-0.229169 0.209514 -0.055512 -0.20322 0.96258 0.179281 2.836264
-0.228684 0.208997 -0.056153 -0.204397 0.962426 0.17877 2.833975
-0.22872 0.208813 -0.056202 -0.203928 0.962687 0.177897 2.834752
-0.228995 0.209403 -0.05571 -0.203769 0.962441 0.179402 2.835241
-0.228995 0.209403 -0.05571 -0.203769 0.962441 0.179402 2.835241
-0.228995 0.209403 -0.05571 -0.203769 0.962441 0.179402 2.835241
-0.228995 0.209403 -0.05571 -0.203769 0.962441 0.179402 2.835241
-0.228858 0.209108 -0.055956 -0.203848 0.962564 0.17865 2.834997
-0.228995 0.209403 -0.05571 -0.203769 0.962441 0.179402 2.835241
-0.228858 0.209108 -0.055956 -0.203848 0.962564 0.17865 2.834997
-0.229169 0.209514 -0.055512 -0.20322 0.96258 0.179281 2.836264
-0.228858 0.209108 -0.055956 -0.203848 0.962564 0.17865 2.834997
-0.228995 0.209403 -0.05571 -0.203769 0.962441 0.179402 2.835241
-0.229352 0.208871 -0.055782 -0.20404 0.962535 0.178589 2.836314
-0.228995 0.209403 -0.05571 -0.203769 0.962441 0.179402 2.835241
-0.229169 0.209514 -0.055512 -0.20322 0.96258 0.179281 2.836264
-0.229169 0.209514 -0.055512 -0.20322 0.96258 0.179281 2.836264
-0.228858 0.209108 -0.055956 -0.203848 0.962564 0.17865 2.834997
-0.228509 0.208886 -0.05635 -0.204946 0.962286 0.178891 2.832953
-0.228509 0.208886 -0.05635 -0.204946 0.962286 0.178891 2.832953
-0.229169 0.209514 -0.055512 -0.20322 0.96258 0.179281 2.836264
-0.229169 0.209514 -0.055512 -0.20322 0.96258 0.179281 2.836264
-0.228684 0.208997 -0.056153 -0.204397 0.962426 0.17877 2.833975
-0.228995 0.209403 -0.05571 -0.203769 0.962441 0.179402 2.835241
-0.229169 0.209514 -0.055512 -0.20322 0.96258 0.179281 2.836264
-0.228995 0.209403 -0.05571 -0.203769 0.962441 0.179402 2.835241
-0.228684 0.208997 -0.056153 -0.204397 0.962426 0.17877 2.833975
-0.228509 0.208886 -0.05635 -0.204946 0.962286 0.178891 2.832953
-0.228821 0.209292 -0.055907 -0.204317 0.962303 0.179523 2.834219
-0.228858 0.209108 -0.055956 -0.203848 0.962564 0.17865 2.834997
-0.228647 0.209181 -0.056104 -0.204866 0.962163 0.179643 2.833196
-0.228995 0.209403 -0.05571 -0.203769 0.962441 0.179402 2.835241
-0.228647 0.209181 -0.056104 -0.204866 0.962163 0.179643 2.833196
-0.228995 0.209403 -0.05571 -0.203769 0.962441 0.179402 2.835241
-0.228821 0.209292 -0.055907 -0.204317 0.962303 0.179523 2.834219
-0.228858 0.209108 -0.055956 -0.203848 0.962564 0.17865 2.834997
-0.228995 0.209403 -0.05571 -0.203769 0.962441 0.179402 2.835241
-0.229169 0.209514 -0.055512 -0.20322 0.96258 0.179281 2.836264
-0.229169 0.209514 -0.055512 -0.20322 0.96258 0.179281 2.836264
-0.228858 0.209108 -0.055956 -0.203848 0.962564 0.17865 2.834997
-0.228752 0.208713 -0.056054 -0.20491 0.962376 0.178448 2.83493
-0.228684 0.208997 -0.056153 -0.204397 0.962426 0.17877 2.833975
-0.228647 0.209181 -0.056104 -0.204866 0.962163 0.179643 2.833196
-0.228684 0.208997 -0.056153 -0.204397 0.962426 0.17877 2.833975
-0.228995 0.209403 -0.05571 -0.203769 0.962441 0.179402 2.835241
-0.228858 0.209108 -0.055956 -0.203848 0.962564 0.17865 2.834997
-0.228509 0.208886 -0.05635 -0.204946 0.962286 0.178891 2.832953
-0.228858 0.209108 -0.055956 -0.203848 0.962564 0.17865 2.834997
-0.228684 0.208997 -0.056153 -0.204397 0.962426 0.17877 2.833975
-0.229169 0.209514 -0.055512 -0.20322 0.96258 0.179281 2.836264
-0.229169 0.209514 -0.055512 -0.20322 0.96258 0.179281 2.836264
-0.228995 0.209403 -0.05571 -0.203769 0.962441 0.179402 2.835241
-0.228995 0.209403 -0.05571 -0.203769 0.962441 0.179402 2.835241
-0.228684 0.208997 -0.056153 -0.204397 0.962426 0.17877 2.833975
-0.228858 0.209108 -0.055956 -0.203848 0.962564 0.17865 2.834997
-0.228647 0.209181 -0.056104 -0.204866 0.962163 0.179643 2.833196
-0.228858 0.209108 -0.055956 -0.203848 0.962564 0.17865 2.834997
-0.228858 0.209108 -0.055956 -0.203848 0.962564 0.17865 2.834997
-0.228509 0.208886 -0.05635 -0.204946 0.962286 0.178891 2.832953
-0.228995 0.209403 -0.05571 -0.203769 0.962441 0.179402 2.835241
-0.229169 0.209514 -0.055512 -0.20322 0.96258 0.179281 2.836264
-0.229032 0.209219 -0.055759 -0.203299 0.962703 0.178529 2.836019
-0.228684 0.208997 -0.056153 -0.204397 0.962426 0.17877 2.833975
-0.228821 0.209292 -0.055907 -0.204317 0.962303 0.179523 2.834219
-0.228509 0.208886 -0.05635 -0.204946 0.962286 0.178891 2.832953
-0.228647 0.209181 -0.056104 -0.204866 0.962163 0.179643 2.833196
-0.229169 0.209514 -0.055512 -0.20322 0.96258 0.179281 2.836264
-0.229032 0.209219 -0.055759 -0.203299 0.962703 0.178529 2.836019
-0.228509 0.208886 -0.05635 -0.204946 0.962286 0.178891 2.832953
-0.228684 0.208997 -0.056153 -0.204397 0.962426 0.17877 2.833975
-0.228995 0.209403 -0.05571 -0.203769 0.962441 0.179402 2.835241
-0.228995 0.209403 -0.05571 -0.203769 0.962441 0.179402 2.835241
-0.228995 0.209403 -0.05571 -0.203769 0.962441 0.179402 2.835241
-0.228684 0.208997 -0.056153 -0.204397 0.962426 0.17877 2.833975
-0.228684 0.208997 -0.056153 -0.204397 0.962426 0.17877 2.833975
-0.228684 0.208997 -0.056153 -0.204397 0.962426 0.17877 2.833975
-0.228858 0.209108 -0.055956 -0.203848 0.962564 0.17865 2.834997
-0.228509 0.208886 -0.05635 -0.204946 0.962286 0.178891 2.832953
-0.228647 0.209181 -0.056104 -0.204866 0.962163 0.179643 2.833196
-0.229064 0.209119 -0.055611 -0.204282 0.962392 0.179081 2.836196
-0.228821 0.209292 -0.055907 -0.204317 0.962303 0.179523 2.834219
-0.228684 0.208997 -0.056153 -0.204397 0.962426 0.17877 2.833975
-0.228858 0.209108 -0.055956 -0.203848 0.962564 0.17865 2.834997
-0.228684 0.208997 -0.056153 -0.204397 0.962426 0.17877 2.833975
-0.228995 0.209403 -0.05571 -0.203769 0.962441 0.179402 2.835241
-0.228509 0.208886 -0.05635 -0.204946 0.962286 0.178891 2.832953
-0.228684 0.208997 -0.056153 -0.204397 0.962426 0.17877 2.833975
-0.228995 0.209403 -0.05571 -0.203769 0.962441 0.179402 2.835241
-0.228995 0.209403 -0.05571 -0.203769 0.962441 0.179402 2.835241
-0.228684 0.208997 -0.056153 -0.204397 0.962426 0.17877 2.833975
-0.228858 0.209108 -0.055956 -0.203848 0.962564 0.17865 2.834997
-0.228995 0.209403 -0.05571 -0.203769 0.962441 0.179402 2.835241
-0.228858 0.209108 -0.055956 -0.203848 0.962564 0.17865 2.834997
-0.228684 0.208997 -0.056153 -0.204397 0.962426 0.17877 2.833975
-0.228578 0.208602 -0.056251 -0.205459 0.962237 0.178568 2.833907
-0.228972 0.209294 -0.05603 -0.203828 0.962568 0.178653 2.835533
-0.228684 0.208997 -0.056153 -0.204397 0.962426 0.17877 2.833975
-0.228578 0.208602 -0.056251 -0.205459 0.962237 0.178568 2.833907
-0.228684 0.208997 -0.056153 -0.204397 0.962426 0.17877 2.833975
-0.228995 0.209403 -0.05571 -0.203769 0.962441 0.179402 2.835241
-0.228509 0.208886 -0.05635 -0.204946 0.962286 0.178891 2.832953
-0.228684 0.208997 -0.056153 -0.204397 0.962426 0.17877 2.833975
-0.228995 0.209403 -0.05571 -0.203769 0.962441 0.179402 2.835241
-0.228684 0.208997 -0.056153 -0.204397 0.962426 0.17877 2.833975
-0.228509 0.208886 -0.05635 -0.204946 0.962286 0.178891 2.832953
-0.228509 0.208886 -0.05635 -0.204946 0.962286 0.178891 2.832953
-0.228821 0.209292 -0.055907 -0.204317 0.962303 0.179523 2.834219
-0.228334 0.208775 -0.056546 -0.205496 0.962147 0.179011 2.831931
-0.228334 0.208775 -0.056546 -0.205496 0.962147 0.179011 2.831931
-0.228578 0.208602 -0.056251 -0.205459 0.962237 0.178568 2.833907
-0.228334 0.208775 -0.056546 -0.205496 0.962147 0.179011 2.831931
-0.228472 0.209071 -0.056301 -0.205415 0.962024 0.179764 2.832173
-0.228647 0.209181 -0.056104 -0.204866 0.962163 0.179643 2.833196
-0.228509 0.208886 -0.05635 -0.204946 0.962286 0.178891 2.832953
-0.228647 0.209181 -0.056104 -0.204866 0.962163 0.179643 2.833196
-0.228334 0.208775 -0.056546 -0.205496 0.962147 0.179011 2.831931
-0.228647 0.209181 -0.056104 -0.204866 0.962163 0.179643 2.833196
-0.228159 0.208664 -0.056742 -0.206045 0.962007 0.179132 2.830909
-0.228647 0.209181 -0.056104 -0.204866 0.962163 0.179643 2.833196
-0.228647 0.209181 -0.056104 -0.204866 0.962163 0.179643 2.833196
-0.228647 0.209181 -0.056104 -0.204866 0.962163 0.179643 2.833196
-0.228472 0.209071 -0.056301 -0.205415 0.962024 0.179764 2.832173
-0.228334 0.208775 -0.056546 -0.205496 0.962147 0.179011 2.831931
-0.228334 0.208775 -0.056546 -0.205496 0.962147 0.179011 2.831931
-0.228647 0.209181 -0.056104 -0.204866 0.962163 0.179643 2.833196
-0.228472 0.209071 -0.056301 -0.205415 0.962024 0.179764 2.832173
-0.228334 0.208775 -0.056546 -0.205496 0.962147 0.179011 2.831931
-0.228472 0.209071 -0.056301 -0.205415 0.962024 0.179764 2.832173
-0.228159 0.208664 -0.056742 -0.206045 0.962007 0.179132 2.830909
-0.228472 0.209071 -0.056301 -0.205415 0.962024 0.179764 2.832173
-0.228647 0.209181 -0.056104 -0.204866 0.962163 0.179643 2.833196
-0.228334 0.208775 -0.056546 -0.205496 0.962147 0.179011 2.831931
-0.228578 0.209465 -0.056202 -0.204352 0.962212 0.179966 2.832242
-0.228266 0.209059 -0.056644 -0.204983 0.962196 0.179334 2.830977
-0.228266 0.209059 -0.056644 -0.204983 0.962196 0.179334 2.830977
-0.22809 0.208948 -0.056841 -0.205532 0.962056 0.179455 2.829956
-0.228578 0.209465 -0.056202 -0.204352 0.962212 0.179966 2.832242
-0.228578 0.209465 -0.056202 -0.204352 0.962212 0.179966 2.832242
-0.228403 0.209355 -0.056399 -0.204901 0.962073 0.180087 2.83122
-0.22809 0.208948 -0.056841 -0.205532 0.962056 0.179455 2.829956
-0.22844 0.209169 -0.056448 -0.204433 0.962335 0.179213 2.831999
-0.22809 0.208948 -0.056841 -0.205532 0.962056 0.179455 2.829956
-0.22844 0.209169 -0.056448 -0.204433 0.962335 0.179213 2.831999
-0.228578 0.209465 -0.056202 -0.204352 0.962212 0.179966 2.832242
-0.22809 0.208948 -0.056841 -0.205532 0.962056 0.179455 2.829956
-0.22809 0.208948 -0.056841 -0.205532 0.962056 0.179455 2.829956
-0.228509 0.208886 -0.05635 -0.204946 0.962286 0.178891 2.832953
-0.228159 0.208664 -0.056742 -0.206045 0.962007 0.179132 2.830909
-0.228266 0.209059 -0.056644 -0.204983 0.962196 0.179334 2.830977
-0.22809 0.208948 -0.056841 -0.205532 0.962056 0.179455 2.829956
-0.22844 0.209169 -0.056448 -0.204433 0.962335 0.179213 2.831999
-0.228578 0.209465 -0.056202 -0.204352 0.962212 0.179966 2.832242
-0.228228 0.209245 -0.056595 -0.20545 0.961933 0.180208 2.830198
-0.228578 0.209465 -0.056202 -0.204352 0.962212 0.179966 2.832242
-0.22809 0.208948 -0.056841 -0.205532 0.962056 0.179455 2.829956
-0.228159 0.208664 -0.056742 -0.206045 0.962007 0.179132 2.830909
-0.228403 0.209355 -0.056399 -0.204901 0.962073 0.180087 2.83122
-0.228647 0.209181 -0.056104 -0.204866 0.962163 0.179643 2.833196
-0.228266 0.209059 -0.056644 -0.204983 0.962196 0.179334 2.830977
-0.228266 0.209059 -0.056644 -0.204983 0.962196 0.179334 2.830977
-0.228403 0.209355 -0.056399 -0.204901 0.962073 0.180087 2.83122
-0.228578 0.209465 -0.056202 -0.204352 0.962212 0.179966 2.832242
-0.228334 0.208775 -0.056546 -0.205496 0.962147 0.179011 2.831931
-0.228578 0.209465 -0.056202 -0.204352 0.962212 0.179966 2.832242
-0.228266 0.209059 -0.056644 -0.204983 0.962196 0.179334 2.830977
-0.228228 0.209245 -0.056595 -0.20545 0.961933 0.180208 2.830198
-0.228578 0.209465 -0.056202 -0.204352 0.962212 0.179966 2.832242
-0.228578 0.209465 -0.056202 -0.204352 0.962212 0.179966 2.832242
-0.228266 0.209059 -0.056644 -0.204983 0.962196 0.179334 2.830977
-0.228159 0.208664 -0.056742 -0.206045 0.962007 0.179132 2.830909
-0.228266 0.209059 -0.056644 -0.204983 0.962196 0.179334 2.830977
-0.228266 0.209059 -0.056644 -0.204983 0.962196 0.179334 2.830977
-0.22809 0.208948 -0.056841 -0.205532 0.962056 0.179455 2.829956
-0.228159 0.208664 -0.056742 -0.206045 0.962007 0.179132 2.830909
-0.22809 0.208948 -0.056841 -0.205532 0.962056 0.179455 2.829956
-0.228266 0.209059 -0.056644 -0.204983 0.962196 0.179334 2.830977
-0.228578 0.209465 -0.056202 -0.204352 0.962212 0.179966 2.832242
-0.228159 0.208664 -0.056742 -0.206045 0.962007 0.179132 2.830909
-0.228266 0.209059 -0.056644 -0.204983 0.962196 0.179334 2.830977
-0.228266 0.209059 -0.056644 -0.204983 0.962196 0.179334 2.830977
-0.228266 0.209059 -0.056644 -0.204983 0.962196 0.179334 2.830977
-0.228403 0.209355 -0.056399 -0.204901 0.962073 0.180087 2.83122
-0.228266 0.209059 -0.056644 -0.204983 0.962196 0.179334 2.830977
-0.228647 0.209181 -0.056104 -0.204866 0.962163 0.179643 2.833196
-0.228266 0.209059 -0.056644 -0.204983 0.962196 0.179334 2.830977
-0.228266 0.209059 -0.056644 -0.204983 0.962196 0.179334 2.830977
-0.22809 0.208948 -0.056841 -0.205532 0.962056 0.179455 2.829956
-0.228578 0.209465 -0.056202 -0.204352 0.962212 0.179966 2.832242
-0.22809 0.208948 -0.056841 -0.205532 0.962056 0.179455 2.829956
-0.228334 0.208775 -0.056546 -0.205496 0.962147 0.179011 2.831931
-0.22844 0.209169 -0.056448 -0.204433 0.962335 0.179213 2.831999
-0.228266 0.209059 -0.056644 -0.204983 0.962196 0.179334 2.830977
-0.228121 0.208851 -0.056694 -0.206512 0.961744 0.180005 2.830128
-0.228647 0.209181 -0.056104 -0.204866 0.962163 0.179643 2.833196
-0.228647 0.209181 -0.056104 -0.204866 0.962163 0.179643 2.833196
-0.22809 0.208948 -0.056841 -0.205532 0.962056 0.179455 2.829956
-0.228228 0.209245 -0.056595 -0.20545 0.961933 0.180208 2.830198
-0.22809 0.208948 -0.056841 -0.205532 0.962056 0.179455 2.829956
-0.228228 0.209245 -0.056595 -0.20545 0.961933 0.180208 2.830198
-0.228334 0.208775 -0.056546 -0.205496 0.962147 0.179011 2.831931
-0.228266 0.209059 -0.056644 -0.204983 0.962196 0.179334 2.830977
-0.228578 0.209465 -0.056202 -0.204352 0.962212 0.179966 2.832242
-0.228509 0.208886 -0.05635 -0.204946 0.962286 0.178891 2.832953
-0.228578 0.209465 -0.056202 -0.204352 0.962212 0.179966 2.832242
-0.228578 0.209465 -0.056202 -0.204352 0.962212 0.179966 2.832242
-0.228266 0.209059 -0.056644 -0.204983 0.962196 0.179334 2.830977
-0.22809 0.208948 -0.056841 -0.205532 0.962056 0.179455 2.829956
-0.22844 0.209169 -0.056448 -0.204433 0.962335 0.179213 2.831999
-0.228266 0.209059 -0.056644 -0.204983 0.962196 0.179334 2.830977
-0.22809 0.208948 -0.056841 -0.205532 0.962056 0.179455 2.829956
-0.228266 0.209059 -0.056644 -0.204983 0.962196 0.179334 2.830977
-0.22809 0.208948 -0.056841 -0.205532 0.962056 0.179455 2.829956
-0.228578 0.209465 -0.056202 -0.204352 0.962212 0.179966 2.832242
-0.228159 0.208664 -0.056742 -0.206045 0.962007 0.179132 2.830909
-0.228578 0.209465 -0.056202 -0.204352 0.962212 0.179966 2.832242
-0.22844 0.209169 -0.056448 -0.204433 0.962335 0.179213 2.831999
-0.228647 0.209181 -0.056104 -0.204866 0.962163 0.179643 2.833196
-0.228266 0.209059 -0.056644 -0.204983 0.962196 0.179334 2.830977
-0.228266 0.209059 -0.056644 -0.204983 0.962196 0.179334 2.830977
-0.228266 0.209059 -0.056644 -0.204983 0.962196 0.179334 2.830977
-0.228266 0.209059 -0.056644 -0.204983 0.962196 0.179334 2.830977
-0.228266 0.209059 -0.056644 -0.204983 0.962196 0.179334 2.830977
-0.228578 0.209465 -0.056202 -0.204352 0.962212 0.179966 2.832242
-0.228159 0.208664 -0.056742 -0.206045 0.962007 0.179132 2.830909
-0.228266 0.209059 -0.056644 -0.204983 0.962196 0.179334 2.830977
-0.22809 0.208948 -0.056841 -0.205532 0.962056 0.179455 2.829956
-0.22809 0.208948 -0.056841 -0.205532 0.962056 0.179455 2.829956
-0.228266 0.209059 -0.056644 -0.204983 0.962196 0.179334 2.830977
-0.228266 0.209059 -0.056644 -0.204983 0.962196 0.179334 2.830977
-0.228647 0.209181 -0.056104 -0.204866 0.962163 0.179643 2.833196
-0.22809 0.208948 -0.056841 -0.205532 0.962056 0.179455 2.829956
-0.228266 0.209059 -0.056644 -0.204983 0.962196 0.179334 2.830977
-0.22809 0.208948 -0.056841 -0.205532 0.962056 0.179455 2.829956
-0.228266 0.209059 -0.056644 -0.204983 0.962196 0.179334 2.830977
-0.228334 0.208775 -0.056546 -0.205496 0.962147 0.179011 2.831931
-0.22809 0.208948 -0.056841 -0.205532 0.962056 0.179455 2.829956
-0.228266 0.209059 -0.056644 -0.204983 0.962196 0.179334 2.830977
-0.228266 0.209059 -0.056644 -0.204983 0.962196 0.179334 2.830977
-0.228266 0.209059 -0.056644 -0.204983 0.962196 0.179334 2.830977
-0.228472 0.209071 -0.056301 -0.205415 0.962024 0.179764 2.832173
-0.228266 0.209059 -0.056644 -0.204983 0.962196 0.179334 2.830977
-0.228266 0.209059 -0.056644 -0.204983 0.962196 0.179334 2.830977
-0.228266 0.209059 -0.056644 -0.204983 0.962196 0.179334 2.830977
-0.228228 0.209245 -0.056595 -0.20545 0.961933 0.180208 2.830198
-0.228266 0.209059 -0.056644 -0.204983 0.962196 0.179334 2.830977
-0.228509 0.208886 -0.05635 -0.204946 0.962286 0.178891 2.832953
-0.228266 0.209059 -0.056644 -0.204983 0.962196 0.179334 2.830977
-0.227915 0.208838 -0.057037 -0.206081 0.961916 0.179576 2.828935
-0.228266 0.209059 -0.056644 -0.204983 0.962196 0.179334 2.830977
-0.228472 0.209071 -0.056301 -0.205415 0.962024 0.179764 2.832173
-0.228266 0.209059 -0.056644 -0.204983 0.962196 0.179334 2.830977
-0.228266 0.209059 -0.056644 -0.204983 0.962196 0.179334 2.830977
-0.22809 0.208948 -0.056841 -0.205532 0.962056 0.179455 2.829956
-0.22844 0.209169 -0.056448 -0.204433 0.962335 0.179213 2.831999
-0.228266 0.209059 -0.056644 -0.204983 0.962196 0.179334 2.830977
-0.22809 0.208948 -0.056841 -0.205532 0.962056 0.179455 2.829956
-0.227915 0.208838 -0.057037 -0.206081 0.961916 0.179576 2.828935
-0.228159 0.208664 -0.056742 -0.206045 0.962007 0.179132 2.830909
-0.227915 0.208838 -0.057037 -0.206081 0.961916 0.179576 2.828935
-0.228297 0.208961 -0.056497 -0.205963 0.961884 0.179884 2.831151
-0.228159 0.208664 -0.056742 -0.206045 0.962007 0.179132 2.830909
-0.22809 0.208948 -0.056841 -0.205532 0.962056 0.179455 2.829956
-0.22809 0.208948 -0.056841 -0.205532 0.962056 0.179455 2.829956
-0.22809 0.208948 -0.056841 -0.205532 0.962056 0.179455 2.829956
-0.22809 0.208948 -0.056841 -0.205532 0.962056 0.179455 2.829956
-0.227915 0.208838 -0.057037 -0.206081 0.961916 0.179576 2.828935
-0.228159 0.208664 -0.056742 -0.206045 0.962007 0.179132 2.830909
-0.22809 0.208948 -0.056841 -0.205532 0.962056 0.179455 2.829956
-0.227915 0.208838 -0.057037 -0.206081 0.961916 0.179576 2.828935
-0.228159 0.208664 -0.056742 -0.206045 0.962007 0.179132 2.830909
-0.22809 0.208948 -0.056841 -0.205532 0.962056 0.179455 2.829956
-0.22809 0.208948 -0.056841 -0.205532 0.962056 0.179455 2.829956
-0.228159 0.208664 -0.056742 -0.206045 0.962007 0.179132 2.830909
-0.228159 0.208664 -0.056742 -0.206045 0.962007 0.179132 2.830909
-0.228403 0.209355 -0.056399 -0.204901 0.962073 0.180087 2.83122
-0.228472 0.209071 -0.056301 -0.205415 0.962024 0.179764 2.832173
-0.228266 0.209059 -0.056644 -0.204983 0.962196 0.179334 2.830977
-0.22809 0.208948 -0.056841 -0.205532 0.962056 0.179455 2.829956
-0.227983 0.208554 -0.056939 -0.206594 0.961867 0.179252 2.829888
-0.228159 0.208664 -0.056742 -0.206045 0.962007 0.179132 2.830909
-0.228159 0.208664 -0.056742 -0.206045 0.962007 0.179132 2.830909
-0.228472 0.209071 -0.056301 -0.205415 0.962024 0.179764 2.832173
-0.227983 0.208554 -0.056939 -0.206594 0.961867 0.179252 2.829888
-0.228159 0.208664 -0.056742 -0.206045 0.962007 0.179132 2.830909
-0.228159 0.208664 -0.056742 -0.206045 0.962007 0.179132 2.830909
-0.22809 0.208948 -0.056841 -0.205532 0.962056 0.179455 2.829956
-0.228159 0.208664 -0.056742 -0.206045 0.962007 0.179132 2.830909
-0.22809 0.208948 -0.056841 -0.205532 0.962056 0.179455 2.829956
-0.22809 0.208948 -0.056841 -0.205532 0.962056 0.179455 2.829956
-0.228159 0.208664 -0.056742 -0.206045 0.962007 0.179132 2.830909
-0.228159 0.208664 -0.056742 -0.206045 0.962007 0.179132 2.830909
-0.228159 0.208664 -0.056742 -0.206045 0.962007 0.179132 2.830909
-0.22809 0.208948 -0.056841 -0.205532 0.962056 0.179455 2.829956
-0.22809 0.208948 -0.056841 -0.205532 0.962056 0.179455 2.829956
-0.228159 0.208664 -0.056742 -0.206045 0.962007 0.179132 2.830909
-0.22809 0.208948 -0.056841 -0.205532 0.962056 0.179455 2.829956
-0.228159 0.208664 -0.056742 -0.206045 0.962007 0.179132 2.830909
-0.22809 0.208948 -0.056841 -0.205532 0.962056 0.179455 2.829956
-0.227983 0.208554 -0.056939 -0.206594 0.961867 0.179252 2.829888
-0.228159 0.208664 -0.056742 -0.206045 0.962007 0.179132 2.830909
-0.22809 0.208948 -0.056841 -0.205532 0.962056 0.179455 2.829956
-0.228266 0.209059 -0.056644 -0.204983 0.962196 0.179334 2.830977
-0.22809 0.208948 -0.056841 -0.205532 0.962056 0.179455 2.829956
-0.228159 0.208664 -0.056742 -0.206045 0.962007 0.179132 2.830909
-0.22809 0.208948 -0.056841 -0.205532 0.962056 0.179455 2.829956
-0.228159 0.208664 -0.056742 -0.206045 0.962007 0.179132 2.830909
-0.228472 0.209071 -0.056301 -0.205415 0.962024 0.179764 2.832173
-0.22809 0.208948 -0.056841 -0.205532 0.962056 0.179455 2.829956
-0.228159 0.208664 -0.056742 -0.206045 0.962007 0.179132 2.830909
-0.228472 0.209071 -0.056301 -0.205415 0.962024 0.179764 2.832173
